EESchema Schematic File Version 4
LIBS:mainboard-cache
EELAYER 26 0
EELAYER END
$Descr A4 11693 8268
encoding utf-8
Sheet 12 13
Title ""
Date ""
Rev ""
Comp ""
Comment1 ""
Comment2 ""
Comment3 ""
Comment4 ""
$EndDescr
$Comp
L Device:LED D9
U 1 1 5E6DAC7A
P 5900 2900
F 0 "D9" V 5938 2783 50  0000 R CNN
F 1 "red" V 5847 2783 50  0000 R CNN
F 2 "Diode_SMD:D_0402_1005Metric" H 5900 2900 50  0001 C CNN
F 3 "~" H 5900 2900 50  0001 C CNN
	1    5900 2900
	0    -1   -1   0   
$EndComp
$Comp
L Transistor_BJT:MMBT3904 Q1
U 1 1 5E6DD6F1
P 5800 3950
F 0 "Q1" H 5991 3996 50  0000 L CNN
F 1 "MMBT3904" H 5991 3905 50  0000 L CNN
F 2 "Package_TO_SOT_SMD:SOT-23" H 6000 3875 50  0001 L CIN
F 3 "https://www.fairchildsemi.com/datasheets/2N/2N3904.pdf" H 5800 3950 50  0001 L CNN
	1    5800 3950
	1    0    0    -1  
$EndComp
Wire Wire Line
	5900 3550 5900 3750
$Comp
L power:GND #PWR0139
U 1 1 5E6DD793
P 5900 4350
F 0 "#PWR0139" H 5900 4100 50  0001 C CNN
F 1 "GND" H 5905 4177 50  0000 C CNN
F 2 "" H 5900 4350 50  0001 C CNN
F 3 "" H 5900 4350 50  0001 C CNN
	1    5900 4350
	1    0    0    -1  
$EndComp
Wire Wire Line
	5900 4350 5900 4150
$Comp
L power:+3V3 #PWR0138
U 1 1 5E6DD7F0
P 5900 2600
F 0 "#PWR0138" H 5900 2450 50  0001 C CNN
F 1 "+3V3" H 5915 2773 50  0000 C CNN
F 2 "" H 5900 2600 50  0001 C CNN
F 3 "" H 5900 2600 50  0001 C CNN
	1    5900 2600
	1    0    0    -1  
$EndComp
Wire Wire Line
	5900 2600 5900 2750
$Comp
L Device:R R88
U 1 1 5E6DD842
P 5150 3950
F 0 "R88" V 5050 3950 50  0000 C CNN
F 1 "10k" V 5150 3950 50  0000 C CNN
F 2 "Resistor_SMD:R_0402_1005Metric" V 5080 3950 50  0001 C CNN
F 3 "~" H 5150 3950 50  0001 C CNN
	1    5150 3950
	0    1    1    0   
$EndComp
Wire Wire Line
	5300 3950 5600 3950
Wire Wire Line
	5000 3950 4550 3950
$Comp
L Device:R R89
U 1 1 5E6DD8DA
P 5900 3400
F 0 "R89" V 6000 3450 50  0000 R CNN
F 1 "100" V 5900 3500 50  0000 R CNN
F 2 "Resistor_SMD:R_0603_1608Metric" V 5830 3400 50  0001 C CNN
F 3 "~" H 5900 3400 50  0001 C CNN
	1    5900 3400
	-1   0    0    1   
$EndComp
Wire Wire Line
	5900 3250 5900 3050
Text GLabel 4550 3950 0    50   Input ~ 0
gpio_pc0
$Comp
L Device:LED D10
U 1 1 5E6E48EB
P 9700 2950
F 0 "D10" V 9738 2833 50  0000 R CNN
F 1 "green" V 9647 2833 50  0000 R CNN
F 2 "Diode_SMD:D_0402_1005Metric" H 9700 2950 50  0001 C CNN
F 3 "~" H 9700 2950 50  0001 C CNN
	1    9700 2950
	0    -1   -1   0   
$EndComp
$Comp
L Transistor_BJT:MMBT3904 Q2
U 1 1 5E6E48F2
P 9600 4000
F 0 "Q2" H 9791 4046 50  0000 L CNN
F 1 "MMBT3904" H 9791 3955 50  0000 L CNN
F 2 "Package_TO_SOT_SMD:SOT-23" H 9800 3925 50  0001 L CIN
F 3 "https://www.fairchildsemi.com/datasheets/2N/2N3904.pdf" H 9600 4000 50  0001 L CNN
	1    9600 4000
	1    0    0    -1  
$EndComp
Wire Wire Line
	9700 3600 9700 3800
$Comp
L power:GND #PWR0141
U 1 1 5E6E48FA
P 9700 4400
F 0 "#PWR0141" H 9700 4150 50  0001 C CNN
F 1 "GND" H 9705 4227 50  0000 C CNN
F 2 "" H 9700 4400 50  0001 C CNN
F 3 "" H 9700 4400 50  0001 C CNN
	1    9700 4400
	1    0    0    -1  
$EndComp
Wire Wire Line
	9700 4400 9700 4200
$Comp
L power:+3V3 #PWR0140
U 1 1 5E6E4901
P 9700 2650
F 0 "#PWR0140" H 9700 2500 50  0001 C CNN
F 1 "+3V3" H 9715 2823 50  0000 C CNN
F 2 "" H 9700 2650 50  0001 C CNN
F 3 "" H 9700 2650 50  0001 C CNN
	1    9700 2650
	1    0    0    -1  
$EndComp
Wire Wire Line
	9700 2650 9700 2800
$Comp
L Device:R R90
U 1 1 5E6E4908
P 8950 4000
F 0 "R90" V 8850 4000 50  0000 C CNN
F 1 "10k" V 8950 4000 50  0000 C CNN
F 2 "Resistor_SMD:R_0402_1005Metric" V 8880 4000 50  0001 C CNN
F 3 "~" H 8950 4000 50  0001 C CNN
	1    8950 4000
	0    1    1    0   
$EndComp
Wire Wire Line
	9100 4000 9400 4000
Wire Wire Line
	8800 4000 8350 4000
$Comp
L Device:R R91
U 1 1 5E6E4911
P 9700 3450
F 0 "R91" V 9800 3500 50  0000 R CNN
F 1 "100" V 9700 3550 50  0000 R CNN
F 2 "Resistor_SMD:R_0603_1608Metric" V 9630 3450 50  0001 C CNN
F 3 "~" H 9700 3450 50  0001 C CNN
	1    9700 3450
	-1   0    0    1   
$EndComp
Wire Wire Line
	9700 3300 9700 3100
Text GLabel 8350 4000 0    50   Input ~ 0
gpio_pc1
Text Notes 7350 6900 0    118  ~ 24
gpio 1
$EndSCHEMATC
