EESchema Schematic File Version 4
LIBS:mainboard-cache
EELAYER 26 0
EELAYER END
$Descr A4 11693 8268
encoding utf-8
Sheet 6 13
Title ""
Date ""
Rev ""
Comp ""
Comment1 ""
Comment2 ""
Comment3 ""
Comment4 ""
$EndDescr
$Comp
L Connector:HDMI_C_1.3 J2
U 1 1 5E6AA75C
P 7350 2900
F 0 "J2" H 7780 2946 50  0000 L CNN
F 1 "HDMI_C_1.3" H 7780 2855 50  0000 L CNN
F 2 "connector_hdmi:mini_hdmi_c_hdc01fz" H 7375 2900 50  0001 C CNN
F 3 "http://pinoutguide.com/PortableDevices/mini_hdmi_pinout.shtml" H 7375 2900 50  0001 C CNN
	1    7350 2900
	1    0    0    -1  
$EndComp
Text GLabel 3550 2500 0    50   Input ~ 0
hdmi_tx0p
Text GLabel 3550 2600 0    50   Input ~ 0
hdmi_tx0n
Text GLabel 4750 1600 0    50   Input ~ 0
hdmi_tx1p
Text GLabel 4750 1700 0    50   Input ~ 0
hdmi_tx1n
Text GLabel 4750 1400 0    50   Input ~ 0
hdmi_tx2p
Text GLabel 4750 1500 0    50   Input ~ 0
hdmi_tx2n
Text GLabel 3550 2700 0    50   Input ~ 0
hdmi_clkp
Text GLabel 3550 2800 0    50   Input ~ 0
hdmi_clkn
$Comp
L power:GND #PWR090
U 1 1 5E6B88A6
P 5900 2150
F 0 "#PWR090" H 5900 1900 50  0001 C CNN
F 1 "GND" H 5905 1977 50  0000 C CNN
F 2 "" H 5900 2150 50  0001 C CNN
F 3 "" H 5900 2150 50  0001 C CNN
	1    5900 2150
	1    0    0    -1  
$EndComp
$Comp
L power:GND #PWR089
U 1 1 5E6B88D1
P 5900 1100
F 0 "#PWR089" H 5900 850 50  0001 C CNN
F 1 "GND" H 5905 927 50  0000 C CNN
F 2 "" H 5900 1100 50  0001 C CNN
F 3 "" H 5900 1100 50  0001 C CNN
	1    5900 1100
	-1   0    0    1   
$EndComp
$Comp
L power:GND #PWR087
U 1 1 5E6B899C
P 4650 3250
F 0 "#PWR087" H 4650 3000 50  0001 C CNN
F 1 "GND" H 4655 3077 50  0000 C CNN
F 2 "" H 4650 3250 50  0001 C CNN
F 3 "" H 4650 3250 50  0001 C CNN
	1    4650 3250
	1    0    0    -1  
$EndComp
$Comp
L power:GND #PWR086
U 1 1 5E6B89AD
P 4650 2200
F 0 "#PWR086" H 4650 1950 50  0001 C CNN
F 1 "GND" H 4655 2027 50  0000 C CNN
F 2 "" H 4650 2200 50  0001 C CNN
F 3 "" H 4650 2200 50  0001 C CNN
	1    4650 2200
	-1   0    0    1   
$EndComp
Wire Wire Line
	6800 1400 6800 2100
Wire Wire Line
	6800 2100 6950 2100
Wire Wire Line
	6700 1500 6700 2200
Wire Wire Line
	6700 2200 6950 2200
Wire Wire Line
	6600 1600 6600 2300
Wire Wire Line
	6600 2300 6950 2300
Wire Wire Line
	6500 1700 6500 2400
Wire Wire Line
	6500 2400 6950 2400
Wire Wire Line
	5050 2500 5300 2500
Wire Wire Line
	5050 2600 5350 2600
Wire Wire Line
	5050 2700 5400 2700
Wire Wire Line
	5050 2800 5450 2800
Text GLabel 6950 3000 0    50   Input ~ 0
hdmi_cec
Text GLabel 5400 3200 0    50   BiDi ~ 0
hdmi_scl
Text GLabel 5400 3300 0    50   BiDi ~ 0
hdmi_sda
Text GLabel 6950 3500 0    50   Input ~ 0
hdmi_ddccec
$Comp
L power:GND #PWR094
U 1 1 5E6C0276
P 7550 4150
F 0 "#PWR094" H 7550 3900 50  0001 C CNN
F 1 "GND" H 7555 3977 50  0000 C CNN
F 2 "" H 7550 4150 50  0001 C CNN
F 3 "" H 7550 4150 50  0001 C CNN
	1    7550 4150
	1    0    0    -1  
$EndComp
$Comp
L power:+5V #PWR093
U 1 1 5E6C0F71
P 7350 1150
F 0 "#PWR093" H 7350 1000 50  0001 C CNN
F 1 "+5V" H 7365 1323 50  0000 C CNN
F 2 "" H 7350 1150 50  0001 C CNN
F 3 "" H 7350 1150 50  0001 C CNN
	1    7350 1150
	1    0    0    -1  
$EndComp
Wire Wire Line
	5400 3200 5500 3200
Wire Wire Line
	6950 3300 5400 3300
$Comp
L Device:R R44
U 1 1 5E6C1E49
P 5500 3600
F 0 "R44" V 5400 3550 50  0000 L CNN
F 1 "4k7" V 5500 3500 50  0000 L CNN
F 2 "Resistor_SMD:R_0402_1005Metric" V 5430 3600 50  0001 C CNN
F 3 "~" H 5500 3600 50  0001 C CNN
	1    5500 3600
	1    0    0    -1  
$EndComp
$Comp
L Device:R R45
U 1 1 5E6C1EFA
P 5800 3600
F 0 "R45" V 5700 3550 50  0000 L CNN
F 1 "4k7" V 5800 3500 50  0000 L CNN
F 2 "Resistor_SMD:R_0402_1005Metric" V 5730 3600 50  0001 C CNN
F 3 "~" H 5800 3600 50  0001 C CNN
	1    5800 3600
	1    0    0    -1  
$EndComp
Wire Wire Line
	5500 3450 5500 3200
Connection ~ 5500 3200
Wire Wire Line
	5500 3200 5800 3200
Wire Wire Line
	5800 3450 5800 3200
Connection ~ 5800 3200
Wire Wire Line
	5800 3200 6950 3200
Wire Wire Line
	5500 3750 5500 4000
Wire Wire Line
	5500 4000 5650 4000
Wire Wire Line
	5800 4000 5800 3750
$Comp
L power:+5V #PWR088
U 1 1 5E6C27FB
P 5650 4000
F 0 "#PWR088" H 5650 3850 50  0001 C CNN
F 1 "+5V" H 5665 4173 50  0000 C CNN
F 2 "" H 5650 4000 50  0001 C CNN
F 3 "" H 5650 4000 50  0001 C CNN
	1    5650 4000
	-1   0    0    1   
$EndComp
Connection ~ 5650 4000
Wire Wire Line
	5650 4000 5800 4000
Text GLabel 6350 3600 0    50   Output ~ 0
hdmi_hpd
Wire Wire Line
	6350 3600 6450 3600
$Comp
L Device:R R46
U 1 1 5E6479EF
P 6450 4150
F 0 "R46" V 6350 4100 50  0000 L CNN
F 1 "100k" V 6450 4050 50  0000 L CNN
F 2 "Resistor_SMD:R_0402_1005Metric" V 6380 4150 50  0001 C CNN
F 3 "~" H 6450 4150 50  0001 C CNN
	1    6450 4150
	1    0    0    -1  
$EndComp
$Comp
L Device:C C77
U 1 1 5E647A45
P 6700 4200
F 0 "C77" H 6750 4300 50  0000 L CNN
F 1 "1uF" H 6750 4100 50  0000 L CNN
F 2 "Capacitor_SMD:C_0402_1005Metric" H 6738 4050 50  0001 C CNN
F 3 "~" H 6700 4200 50  0001 C CNN
	1    6700 4200
	1    0    0    -1  
$EndComp
Wire Wire Line
	6450 4000 6450 3750
Wire Wire Line
	6450 4300 6450 4600
Wire Wire Line
	6450 4600 6550 4600
Wire Wire Line
	6700 4600 6700 4350
$Comp
L power:GND #PWR091
U 1 1 5E64B083
P 6550 4600
F 0 "#PWR091" H 6550 4350 50  0001 C CNN
F 1 "GND" H 6555 4427 50  0000 C CNN
F 2 "" H 6550 4600 50  0001 C CNN
F 3 "" H 6550 4600 50  0001 C CNN
	1    6550 4600
	1    0    0    -1  
$EndComp
Connection ~ 6550 4600
Wire Wire Line
	6550 4600 6700 4600
$Comp
L Device:R R47
U 1 1 5E64B1B7
P 6700 3600
F 0 "R47" V 6800 3550 50  0000 L CNN
F 1 "1k" V 6700 3550 50  0000 L CNN
F 2 "Resistor_SMD:R_0402_1005Metric" V 6630 3600 50  0001 C CNN
F 3 "~" H 6700 3600 50  0001 C CNN
	1    6700 3600
	0    1    1    0   
$EndComp
Wire Wire Line
	6550 3600 6450 3600
Connection ~ 6450 3600
Wire Wire Line
	6850 3600 6950 3600
Wire Wire Line
	6700 4050 6700 3750
Wire Wire Line
	6700 3750 6450 3750
Connection ~ 6450 3750
Wire Wire Line
	6450 3750 6450 3600
$Comp
L power:GND #PWR092
U 1 1 5E65262E
P 7250 4250
F 0 "#PWR092" H 7250 4000 50  0001 C CNN
F 1 "GND" H 7255 4077 50  0000 C CNN
F 2 "" H 7250 4250 50  0001 C CNN
F 3 "" H 7250 4250 50  0001 C CNN
	1    7250 4250
	1    0    0    -1  
$EndComp
Wire Wire Line
	7150 4000 7150 4150
Wire Wire Line
	7150 4150 7250 4150
Wire Wire Line
	7350 4150 7350 4000
Wire Wire Line
	7250 4000 7250 4150
Connection ~ 7250 4150
Wire Wire Line
	7250 4150 7350 4150
Wire Wire Line
	7250 4150 7250 4250
Wire Wire Line
	7450 4000 7450 4150
Wire Wire Line
	7450 4150 7350 4150
Connection ~ 7350 4150
Wire Wire Line
	7550 4000 7550 4150
Wire Wire Line
	7650 4000 7650 4500
Text Notes 7400 6900 0    118  ~ 24
hdmi
Text Notes 5100 2800 0    50   ~ 0
diff
Text Notes 5100 2600 0    50   ~ 0
diff
Text Notes 6300 1700 0    50   ~ 0
diff
Text Notes 6650 1500 0    50   ~ 0
diff
Text Notes 4150 1700 0    50   ~ 0
diff
Text Notes 4150 1500 0    50   ~ 0
diff
Text Notes 2950 2600 0    50   ~ 0
diff
Text Notes 2950 2800 0    50   ~ 0
diff
$Comp
L esd_protection:PESDALC10N5VU D5
U 1 1 5E67FD19
P 5900 1600
F 0 "D5" H 5700 1950 50  0000 C CNN
F 1 "PESDALC10N5VU" H 5500 1200 50  0000 C CNN
F 2 "package_dfn:dfn-10_2.7x1mm_p0.5mm" H 6200 1150 157 0001 C CNN
F 3 "" H 6200 1150 157 0001 C CNN
F 4 "(sedfn05v4)" H 5450 1100 50  0000 C CNN "alternative"
	1    5900 1600
	1    0    0    -1  
$EndComp
$Comp
L esd_protection:PESDALC10N5VU D4
U 1 1 5E67FEFF
P 4650 2700
F 0 "D4" H 4450 3050 50  0000 C CNN
F 1 "PESDALC10N5VU" H 4250 2300 50  0000 C CNN
F 2 "package_dfn:dfn-10_2.7x1mm_p0.5mm" H 4950 2250 157 0001 C CNN
F 3 "" H 4950 2250 157 0001 C CNN
F 4 "(sedfn05v4)" H 4200 2200 50  0000 C CNN "alternative"
	1    4650 2700
	1    0    0    -1  
$EndComp
Wire Wire Line
	6300 1400 6350 1400
Wire Wire Line
	6300 1500 6400 1500
Wire Wire Line
	6300 1600 6450 1600
Wire Wire Line
	6300 1700 6500 1700
Wire Wire Line
	7350 1500 7350 1300
$Comp
L Device:C C78
U 1 1 5E70042A
P 7850 1300
F 0 "C78" H 7900 1400 50  0000 L CNN
F 1 "10uF" H 7900 1200 50  0000 L CNN
F 2 "Capacitor_SMD:C_0402_1005Metric" H 7888 1150 50  0001 C CNN
F 3 "~" H 7850 1300 50  0001 C CNN
	1    7850 1300
	0    1    1    0   
$EndComp
Wire Wire Line
	7700 1300 7350 1300
Connection ~ 7350 1300
Wire Wire Line
	7350 1300 7350 1150
$Comp
L power:GND #PWR096
U 1 1 5E700E37
P 8300 1300
F 0 "#PWR096" H 8300 1050 50  0001 C CNN
F 1 "GND" H 8305 1127 50  0000 C CNN
F 2 "" H 8300 1300 50  0001 C CNN
F 3 "" H 8300 1300 50  0001 C CNN
	1    8300 1300
	0    -1   -1   0   
$EndComp
Wire Wire Line
	8300 1300 8000 1300
$Comp
L Diode:1N5819 D6
U 1 1 5E70299B
P 7350 1650
F 0 "D6" V 7396 1571 50  0000 R CNN
F 1 "1N5819" V 7305 1571 50  0000 R CNN
F 2 "Diode_SMD:D_SOD-323" H 7350 1475 50  0001 C CNN
F 3 "http://www.vishay.com/docs/88525/1n5817.pdf" H 7350 1650 50  0001 C CNN
	1    7350 1650
	0    -1   -1   0   
$EndComp
$Comp
L power:Earth_Protective #PWR095
U 1 1 5E776753
P 7650 4500
F 0 "#PWR095" H 7900 4250 50  0001 C CNN
F 1 "Earth_Protective" H 8100 4350 50  0001 C CNN
F 2 "" H 7650 4400 50  0001 C CNN
F 3 "~" H 7650 4400 50  0001 C CNN
	1    7650 4500
	1    0    0    -1  
$EndComp
Wire Wire Line
	4750 1400 5400 1400
Wire Wire Line
	5450 1500 5350 1500
Wire Wire Line
	4750 1600 5300 1600
Wire Wire Line
	5450 1700 5250 1700
Wire Wire Line
	5400 1400 5400 850 
Wire Wire Line
	5400 850  6350 850 
Wire Wire Line
	6350 850  6350 1400
Connection ~ 5400 1400
Wire Wire Line
	5400 1400 5450 1400
Connection ~ 6350 1400
Wire Wire Line
	6350 1400 6800 1400
Wire Wire Line
	5350 1500 5350 800 
Wire Wire Line
	5350 800  6400 800 
Wire Wire Line
	6400 800  6400 1500
Connection ~ 5350 1500
Wire Wire Line
	5350 1500 4750 1500
Connection ~ 6400 1500
Wire Wire Line
	6400 1500 6700 1500
Wire Wire Line
	5300 1600 5300 750 
Wire Wire Line
	5300 750  6450 750 
Wire Wire Line
	6450 750  6450 1600
Connection ~ 5300 1600
Wire Wire Line
	5300 1600 5450 1600
Connection ~ 6450 1600
Wire Wire Line
	6450 1600 6600 1600
Wire Wire Line
	5250 1700 5250 700 
Wire Wire Line
	5250 700  6500 700 
Wire Wire Line
	6500 700  6500 1700
Connection ~ 5250 1700
Wire Wire Line
	5250 1700 4750 1700
Connection ~ 6500 1700
Wire Wire Line
	3550 2500 4150 2500
Wire Wire Line
	4200 2600 4100 2600
Wire Wire Line
	3550 2700 4050 2700
Wire Wire Line
	4200 2800 4000 2800
Wire Wire Line
	4150 2500 4150 1950
Wire Wire Line
	4150 1950 4850 1950
Wire Wire Line
	4850 1950 4850 2350
Wire Wire Line
	4850 2350 5300 2350
Wire Wire Line
	5300 2350 5300 2500
Connection ~ 4150 2500
Wire Wire Line
	4150 2500 4200 2500
Connection ~ 5300 2500
Wire Wire Line
	5300 2500 6950 2500
Wire Wire Line
	4100 2600 4100 1900
Wire Wire Line
	4100 1900 4900 1900
Wire Wire Line
	4900 1900 4900 2300
Wire Wire Line
	4900 2300 5350 2300
Wire Wire Line
	5350 2300 5350 2600
Connection ~ 4100 2600
Wire Wire Line
	4100 2600 3550 2600
Connection ~ 5350 2600
Wire Wire Line
	5350 2600 6950 2600
Wire Wire Line
	4050 2700 4050 1850
Wire Wire Line
	4050 1850 4950 1850
Wire Wire Line
	4950 1850 4950 2250
Wire Wire Line
	4950 2250 5400 2250
Wire Wire Line
	5400 2250 5400 2700
Connection ~ 4050 2700
Wire Wire Line
	4050 2700 4200 2700
Connection ~ 5400 2700
Wire Wire Line
	5400 2700 6950 2700
Wire Wire Line
	4000 2800 4000 1800
Wire Wire Line
	4000 1800 5000 1800
Wire Wire Line
	5000 1800 5000 2200
Wire Wire Line
	5000 2200 5450 2200
Wire Wire Line
	5450 2200 5450 2800
Connection ~ 4000 2800
Wire Wire Line
	4000 2800 3550 2800
Connection ~ 5450 2800
Wire Wire Line
	5450 2800 6950 2800
$EndSCHEMATC
