EESchema Schematic File Version 4
LIBS:mainboard-cache
EELAYER 26 0
EELAYER END
$Descr A4 11693 8268
encoding utf-8
Sheet 11 13
Title ""
Date ""
Rev ""
Comp ""
Comment1 ""
Comment2 ""
Comment3 ""
Comment4 ""
$EndDescr
$Comp
L power:GND #PWR0128
U 1 1 5E690F28
P 4250 3250
F 0 "#PWR0128" H 4250 3000 50  0001 C CNN
F 1 "GND" V 4255 3122 50  0000 R CNN
F 2 "" H 4250 3250 50  0001 C CNN
F 3 "" H 4250 3250 50  0001 C CNN
	1    4250 3250
	0    -1   -1   0   
$EndComp
$Comp
L net:dm9000c U11
U 1 1 5E6968D3
P 2800 2450
F 0 "U11" H 2775 3775 50  0000 C CNN
F 1 "dm9000c" H 2775 3684 50  0000 C CNN
F 2 "Package_QFP:LQFP-48-1EP_7x7mm_P0.5mm_EP3.6x3.6mm" H 2800 2650 118 0001 C CNN
F 3 "" H 2800 2650 118 0001 C CNN
	1    2800 2450
	1    0    0    -1  
$EndComp
Wire Wire Line
	3500 3050 3350 3050
$Comp
L power:GND #PWR0126
U 1 1 5E69C9DA
P 3550 1450
F 0 "#PWR0126" H 3550 1200 50  0001 C CNN
F 1 "GND" V 3555 1322 50  0000 R CNN
F 2 "" H 3550 1450 50  0001 C CNN
F 3 "" H 3550 1450 50  0001 C CNN
	1    3550 1450
	0    -1   -1   0   
$EndComp
Wire Wire Line
	3550 1450 3350 1450
Wire Wire Line
	3350 1550 4050 1550
$Comp
L Device:R R79
U 1 1 5E69CA74
P 4200 1550
F 0 "R79" V 4100 1550 50  0000 C CNN
F 1 "6k8" V 4200 1550 50  0000 C CNN
F 2 "Resistor_SMD:R_0402_1005Metric" V 4130 1550 50  0001 C CNN
F 3 "~" H 4200 1550 50  0001 C CNN
F 4 "1%" V 4150 1750 50  0000 C CNN "tolerance"
	1    4200 1550
	0    1    1    0   
$EndComp
$Comp
L power:GND #PWR0131
U 1 1 5E69CA99
P 4550 850
F 0 "#PWR0131" H 4550 600 50  0001 C CNN
F 1 "GND" V 4555 722 50  0000 R CNN
F 2 "" H 4550 850 50  0001 C CNN
F 3 "" H 4550 850 50  0001 C CNN
	1    4550 850 
	-1   0    0    1   
$EndComp
Wire Wire Line
	4550 1550 4350 1550
Wire Wire Line
	4200 1750 3900 1750
Wire Wire Line
	3350 1650 3500 1650
Wire Wire Line
	3500 1650 3500 1750
Connection ~ 3500 1750
Wire Wire Line
	3500 1750 3350 1750
NoConn ~ 3350 1350
$Comp
L power:GND #PWR0124
U 1 1 5E6A0153
P 3500 2150
F 0 "#PWR0124" H 3500 1900 50  0001 C CNN
F 1 "GND" V 3505 2022 50  0000 R CNN
F 2 "" H 3500 2150 50  0001 C CNN
F 3 "" H 3500 2150 50  0001 C CNN
	1    3500 2150
	0    -1   -1   0   
$EndComp
Wire Wire Line
	3350 2050 3500 2050
Wire Wire Line
	3500 2050 3500 2150
Wire Wire Line
	3500 2250 3350 2250
Wire Wire Line
	3500 2150 3500 2250
Wire Wire Line
	3350 2150 3500 2150
Connection ~ 3500 2150
$Comp
L power:GND #PWR0125
U 1 1 5E6A2A8F
P 3500 2550
F 0 "#PWR0125" H 3500 2300 50  0001 C CNN
F 1 "GND" V 3505 2422 50  0000 R CNN
F 2 "" H 3500 2550 50  0001 C CNN
F 3 "" H 3500 2550 50  0001 C CNN
	1    3500 2550
	0    -1   -1   0   
$EndComp
Wire Wire Line
	3500 2550 3350 2550
Wire Wire Line
	4500 2650 3350 2650
Wire Wire Line
	3350 2750 3500 2750
Wire Wire Line
	3500 2750 3500 2850
Wire Wire Line
	3500 2950 3350 2950
Wire Wire Line
	3350 2850 3500 2850
Connection ~ 3500 2850
Wire Wire Line
	3500 2850 3500 2950
$Comp
L power:Earth_Protective #PWR0137
U 1 1 5E6AA8CE
P 10400 2350
F 0 "#PWR0137" H 10650 2100 50  0001 C CNN
F 1 "Earth_Protective" H 10850 2200 50  0001 C CNN
F 2 "" H 10400 2250 50  0001 C CNN
F 3 "~" H 10400 2250 50  0001 C CNN
	1    10400 2350
	-1   0    0    1   
$EndComp
Wire Wire Line
	10400 2350 10400 2600
Wire Wire Line
	3350 1850 5300 1850
Wire Wire Line
	3350 1950 5850 1950
Wire Wire Line
	3350 2350 4050 2350
Wire Wire Line
	4050 2350 4050 2050
Wire Wire Line
	4050 2050 6550 2050
Wire Wire Line
	3350 2450 4200 2450
Wire Wire Line
	4200 2450 4200 2350
Wire Wire Line
	4200 2350 7100 2350
Wire Wire Line
	3350 3350 9400 3350
Wire Wire Line
	3350 3450 9700 3450
Wire Wire Line
	4200 1750 4200 2200
Wire Wire Line
	8200 2200 8200 2250
Wire Wire Line
	8200 2150 8200 2200
Connection ~ 8200 2200
$Comp
L Device:C C119
U 1 1 5E6B1AFD
P 8050 1450
F 0 "C119" H 8165 1496 50  0000 L CNN
F 1 "100uF" H 8165 1405 50  0000 L CNN
F 2 "Capacitor_SMD:C_1206_3216Metric" H 8088 1300 50  0001 C CNN
F 3 "~" H 8050 1450 50  0001 C CNN
	1    8050 1450
	1    0    0    -1  
$EndComp
$Comp
L Device:C C106
U 1 1 5E6B1C67
P 3900 1200
F 0 "C106" H 4015 1246 50  0000 L CNN
F 1 "0.1uF" H 4015 1155 50  0000 L CNN
F 2 "Capacitor_SMD:C_0402_1005Metric" H 3938 1050 50  0001 C CNN
F 3 "~" H 3900 1200 50  0001 C CNN
	1    3900 1200
	1    0    0    -1  
$EndComp
Wire Wire Line
	3900 1350 3900 1750
Connection ~ 3900 1750
Wire Wire Line
	3900 1750 3500 1750
$Comp
L power:GND #PWR0127
U 1 1 5E6B3DD7
P 3900 850
F 0 "#PWR0127" H 3900 600 50  0001 C CNN
F 1 "GND" V 3905 722 50  0000 R CNN
F 2 "" H 3900 850 50  0001 C CNN
F 3 "" H 3900 850 50  0001 C CNN
	1    3900 850 
	-1   0    0    1   
$EndComp
Wire Wire Line
	3900 850  3900 1050
Wire Wire Line
	4550 850  4550 1550
$Comp
L power:GND #PWR0136
U 1 1 5E6B62DC
P 8050 850
F 0 "#PWR0136" H 8050 600 50  0001 C CNN
F 1 "GND" V 8055 722 50  0000 R CNN
F 2 "" H 8050 850 50  0001 C CNN
F 3 "" H 8050 850 50  0001 C CNN
	1    8050 850 
	-1   0    0    1   
$EndComp
Wire Wire Line
	8050 1300 8050 850 
Wire Wire Line
	8050 1600 8050 2200
Connection ~ 8050 2200
Wire Wire Line
	8050 2200 8200 2200
$Comp
L Device:R R86
U 1 1 5E6BAF6E
P 9500 3050
F 0 "R86" V 9400 3050 50  0000 C CNN
F 1 "100" V 9500 3050 50  0000 C CNN
F 2 "Resistor_SMD:R_0603_1608Metric" V 9430 3050 50  0001 C CNN
F 3 "~" H 9500 3050 50  0001 C CNN
	1    9500 3050
	-1   0    0    1   
$EndComp
Wire Wire Line
	4200 2200 8050 2200
$Comp
L Device:C C105
U 1 1 5E6F6998
P 3700 2950
F 0 "C105" V 3750 3000 50  0000 L CNN
F 1 "0.1uF" V 3750 2700 50  0000 L CNN
F 2 "Capacitor_SMD:C_0402_1005Metric" H 3738 2800 50  0001 C CNN
F 3 "~" H 3700 2950 50  0001 C CNN
	1    3700 2950
	1    0    0    -1  
$EndComp
$Comp
L Device:C C107
U 1 1 5E6F82C4
P 3900 2950
F 0 "C107" V 3950 3000 50  0000 L CNN
F 1 "0.1uF" V 3950 2700 50  0000 L CNN
F 2 "Capacitor_SMD:C_0402_1005Metric" H 3938 2800 50  0001 C CNN
F 3 "~" H 3900 2950 50  0001 C CNN
	1    3900 2950
	1    0    0    -1  
$EndComp
$Comp
L Device:C C109
U 1 1 5E6F82FA
P 4100 2950
F 0 "C109" V 4150 3000 50  0000 L CNN
F 1 "0.1uF" V 4150 2700 50  0000 L CNN
F 2 "Capacitor_SMD:C_0402_1005Metric" H 4138 2800 50  0001 C CNN
F 3 "~" H 4100 2950 50  0001 C CNN
	1    4100 2950
	1    0    0    -1  
$EndComp
Wire Wire Line
	3500 2750 3700 2750
Connection ~ 3500 2750
Wire Wire Line
	3700 2800 3700 2750
Connection ~ 3700 2750
Wire Wire Line
	3700 2750 3900 2750
Wire Wire Line
	3900 2800 3900 2750
Connection ~ 3900 2750
Wire Wire Line
	3900 2750 4100 2750
Wire Wire Line
	4100 2800 4100 2750
Wire Wire Line
	3350 3250 3500 3250
Wire Wire Line
	4100 3100 4100 3250
Connection ~ 4100 3250
Wire Wire Line
	4100 3250 4250 3250
Wire Wire Line
	3900 3100 3900 3250
Connection ~ 3900 3250
Wire Wire Line
	3900 3250 4100 3250
Wire Wire Line
	3700 3100 3700 3250
Connection ~ 3700 3250
Wire Wire Line
	3700 3250 3900 3250
Wire Wire Line
	3500 3050 3500 3150
Connection ~ 3500 3250
Wire Wire Line
	3500 3250 3700 3250
Wire Wire Line
	3350 3150 3500 3150
Connection ~ 3500 3150
Wire Wire Line
	3500 3150 3500 3250
Connection ~ 4100 2750
$Comp
L power:GND #PWR0133
U 1 1 5E734195
P 5650 800
F 0 "#PWR0133" H 5650 550 50  0001 C CNN
F 1 "GND" V 5655 672 50  0000 R CNN
F 2 "" H 5650 800 50  0001 C CNN
F 3 "" H 5650 800 50  0001 C CNN
	1    5650 800 
	-1   0    0    1   
$EndComp
$Comp
L Device:C C113
U 1 1 5E7341BC
P 5650 1050
F 0 "C113" H 5765 1096 50  0000 L CNN
F 1 "0.1uF" H 5765 1005 50  0000 L CNN
F 2 "Capacitor_SMD:C_0402_1005Metric" H 5688 900 50  0001 C CNN
F 3 "~" H 5650 1050 50  0001 C CNN
	1    5650 1050
	1    0    0    -1  
$EndComp
$Comp
L Device:R R80
U 1 1 5E734203
P 5450 1500
F 0 "R80" V 5350 1500 50  0000 C CNN
F 1 "50" V 5450 1500 50  0000 C CNN
F 2 "Resistor_SMD:R_0402_1005Metric" V 5380 1500 50  0001 C CNN
F 3 "~" H 5450 1500 50  0001 C CNN
F 4 "1%" V 5350 1650 50  0000 C CNN "tolerance"
	1    5450 1500
	-1   0    0    1   
$EndComp
$Comp
L Device:R R83
U 1 1 5E73429F
P 6000 1500
F 0 "R83" V 5900 1500 50  0000 C CNN
F 1 "50" V 6000 1500 50  0000 C CNN
F 2 "Resistor_SMD:R_0402_1005Metric" V 5930 1500 50  0001 C CNN
F 3 "~" H 6000 1500 50  0001 C CNN
F 4 "1%" V 5900 1650 50  0000 C CNN "tolerance"
	1    6000 1500
	-1   0    0    1   
$EndComp
$Comp
L Device:C C112
U 1 1 5E7342F8
P 5300 1500
F 0 "C112" V 5250 1550 50  0000 L CNN
F 1 "15pF" V 5350 1550 50  0000 L CNN
F 2 "Capacitor_SMD:C_0402_1005Metric" H 5338 1350 50  0001 C CNN
F 3 "~" H 5300 1500 50  0001 C CNN
	1    5300 1500
	1    0    0    -1  
$EndComp
$Comp
L Device:C C114
U 1 1 5E734533
P 5850 1500
F 0 "C114" V 5800 1550 50  0000 L CNN
F 1 "15pF" V 5900 1550 50  0000 L CNN
F 2 "Capacitor_SMD:C_0402_1005Metric" H 5888 1350 50  0001 C CNN
F 3 "~" H 5850 1500 50  0001 C CNN
	1    5850 1500
	1    0    0    -1  
$EndComp
Wire Wire Line
	5300 1350 5300 1200
Wire Wire Line
	5300 1200 5450 1200
Wire Wire Line
	6000 1200 6000 1350
Connection ~ 5650 1200
Wire Wire Line
	5650 1200 5850 1200
Wire Wire Line
	5850 1350 5850 1200
Connection ~ 5850 1200
Wire Wire Line
	5850 1200 6000 1200
Wire Wire Line
	5450 1350 5450 1200
Connection ~ 5450 1200
Wire Wire Line
	5450 1200 5650 1200
Wire Wire Line
	5650 900  5650 800 
$Comp
L power:GND #PWR0135
U 1 1 5E74FEC0
P 6900 800
F 0 "#PWR0135" H 6900 550 50  0001 C CNN
F 1 "GND" V 6905 672 50  0000 R CNN
F 2 "" H 6900 800 50  0001 C CNN
F 3 "" H 6900 800 50  0001 C CNN
	1    6900 800 
	-1   0    0    1   
$EndComp
$Comp
L Device:C C117
U 1 1 5E74FEC6
P 6900 1050
F 0 "C117" H 7015 1096 50  0000 L CNN
F 1 "0.1uF" H 7015 1005 50  0000 L CNN
F 2 "Capacitor_SMD:C_0402_1005Metric" H 6938 900 50  0001 C CNN
F 3 "~" H 6900 1050 50  0001 C CNN
	1    6900 1050
	1    0    0    -1  
$EndComp
$Comp
L Device:R R84
U 1 1 5E74FECE
P 6700 1500
F 0 "R84" V 6600 1500 50  0000 C CNN
F 1 "50" V 6700 1500 50  0000 C CNN
F 2 "Resistor_SMD:R_0402_1005Metric" V 6630 1500 50  0001 C CNN
F 3 "~" H 6700 1500 50  0001 C CNN
F 4 "1%" V 6600 1650 50  0000 C CNN "tolerance"
	1    6700 1500
	-1   0    0    1   
$EndComp
$Comp
L Device:R R85
U 1 1 5E74FED6
P 7250 1500
F 0 "R85" V 7150 1500 50  0000 C CNN
F 1 "50" V 7250 1500 50  0000 C CNN
F 2 "Resistor_SMD:R_0402_1005Metric" V 7180 1500 50  0001 C CNN
F 3 "~" H 7250 1500 50  0001 C CNN
F 4 "1%" V 7150 1650 50  0000 C CNN "tolerance"
	1    7250 1500
	-1   0    0    1   
$EndComp
$Comp
L Device:C C116
U 1 1 5E74FEDD
P 6550 1500
F 0 "C116" V 6500 1550 50  0000 L CNN
F 1 "15pF" V 6600 1550 50  0000 L CNN
F 2 "Capacitor_SMD:C_0402_1005Metric" H 6588 1350 50  0001 C CNN
F 3 "~" H 6550 1500 50  0001 C CNN
	1    6550 1500
	1    0    0    -1  
$EndComp
$Comp
L Device:C C118
U 1 1 5E74FEE4
P 7100 1500
F 0 "C118" V 7050 1550 50  0000 L CNN
F 1 "15pF" V 7150 1550 50  0000 L CNN
F 2 "Capacitor_SMD:C_0402_1005Metric" H 7138 1350 50  0001 C CNN
F 3 "~" H 7100 1500 50  0001 C CNN
	1    7100 1500
	1    0    0    -1  
$EndComp
Wire Wire Line
	6550 1350 6550 1200
Wire Wire Line
	6550 1200 6700 1200
Wire Wire Line
	7250 1200 7250 1350
Connection ~ 6900 1200
Wire Wire Line
	6900 1200 7100 1200
Wire Wire Line
	7100 1350 7100 1200
Connection ~ 7100 1200
Wire Wire Line
	7100 1200 7250 1200
Wire Wire Line
	6700 1350 6700 1200
Connection ~ 6700 1200
Wire Wire Line
	6700 1200 6900 1200
Wire Wire Line
	6900 900  6900 800 
Wire Wire Line
	5300 1650 5300 1850
Connection ~ 5300 1850
Wire Wire Line
	5300 1850 5450 1850
Wire Wire Line
	5450 1650 5450 1850
Connection ~ 5450 1850
Wire Wire Line
	5450 1850 8600 1850
Wire Wire Line
	5850 1650 5850 1950
Connection ~ 5850 1950
Wire Wire Line
	5850 1950 6000 1950
Wire Wire Line
	6000 1650 6000 1950
Connection ~ 6000 1950
Wire Wire Line
	6550 1650 6550 2050
Connection ~ 6550 2050
Wire Wire Line
	6550 2050 6700 2050
Wire Wire Line
	6700 1650 6700 2050
Connection ~ 6700 2050
Wire Wire Line
	6700 2050 8950 2050
Wire Wire Line
	7100 1650 7100 2350
Connection ~ 7100 2350
Wire Wire Line
	7100 2350 7250 2350
Wire Wire Line
	7250 1650 7250 2350
Connection ~ 7250 2350
Wire Wire Line
	7250 2350 8400 2350
$Comp
L net:hr911105a J8
U 1 1 5E8B0C60
P 9600 2150
F 0 "J8" H 9100 2700 50  0000 L CNN
F 1 "hr911105a" H 9700 2700 50  0000 L CNN
F 2 "connector_rj:hr911105a" H 9600 2100 50  0001 C CNN
F 3 "" H 9600 2100 50  0001 C CNN
	1    9600 2150
	1    0    0    -1  
$EndComp
NoConn ~ 8950 2550
Wire Wire Line
	8600 1850 8600 2450
Wire Wire Line
	8600 2450 8950 2450
Wire Wire Line
	8700 1950 8700 2250
Wire Wire Line
	8700 2250 8950 2250
Wire Wire Line
	6000 1950 8700 1950
Wire Wire Line
	8950 1950 8850 1950
Wire Wire Line
	8850 1950 8850 2150
Wire Wire Line
	8200 2150 8850 2150
Wire Wire Line
	8500 2250 8500 2350
Wire Wire Line
	8500 2350 8950 2350
Wire Wire Line
	8200 2250 8500 2250
Wire Wire Line
	8400 2350 8400 1750
Wire Wire Line
	8400 1750 8850 1750
Wire Wire Line
	8850 1750 8850 1850
Wire Wire Line
	8850 1850 8950 1850
Wire Wire Line
	10400 2600 10250 2600
Wire Wire Line
	9700 3450 9700 2750
Wire Wire Line
	9400 3350 9400 2750
$Comp
L Device:R R87
U 1 1 5E93D7A3
P 9800 3050
F 0 "R87" V 9700 3050 50  0000 C CNN
F 1 "100" V 9800 3050 50  0000 C CNN
F 2 "Resistor_SMD:R_0603_1608Metric" V 9730 3050 50  0001 C CNN
F 3 "~" H 9800 3050 50  0001 C CNN
	1    9800 3050
	-1   0    0    1   
$EndComp
Wire Wire Line
	9500 2900 9500 2750
Wire Wire Line
	9800 2900 9800 2750
Wire Wire Line
	9500 3200 9500 3650
Wire Wire Line
	9500 3650 9800 3650
Wire Wire Line
	9800 3200 9800 3650
Connection ~ 9800 3650
Wire Wire Line
	9800 3650 10150 3650
Wire Wire Line
	8950 1750 8950 1450
Wire Wire Line
	8950 1450 10250 1450
Wire Wire Line
	10250 1450 10250 2600
Connection ~ 10250 2600
Wire Wire Line
	10250 2600 10200 2600
$Comp
L Device:Crystal_GND24 Y?
U 1 1 5E95BFDF
P 4500 4050
AR Path="/5E6A4B6B/5E95BFDF" Ref="Y?"  Part="1" 
AR Path="/5E68FE1D/5E95BFDF" Ref="Y3"  Part="1" 
F 0 "Y3" V 4350 4100 50  0000 L CNN
F 1 "25MHz 30ppm" V 4650 4100 50  0000 L CNN
F 2 "Oscillator:Oscillator_SMD_EuroQuartz_XO32-4Pin_3.2x2.5mm" H 4500 4050 50  0001 C CNN
F 3 "~" H 4500 4050 50  0001 C CNN
F 4 "X322525MOB4SI" V 4750 4400 50  0000 C CNN "part"
	1    4500 4050
	0    -1   -1   0   
$EndComp
$Comp
L Device:C C?
U 1 1 5E95BFE6
P 4800 4350
AR Path="/5E6A4B6B/5E95BFE6" Ref="C?"  Part="1" 
AR Path="/5E68FE1D/5E95BFE6" Ref="C111"  Part="1" 
F 0 "C111" V 4548 4350 50  0000 C CNN
F 1 "22pF" V 4639 4350 50  0000 C CNN
F 2 "Capacitor_SMD:C_0603_1608Metric" H 4838 4200 50  0001 C CNN
F 3 "~" H 4800 4350 50  0001 C CNN
	1    4800 4350
	0    -1   -1   0   
$EndComp
$Comp
L Device:C C?
U 1 1 5E95BFED
P 4800 3750
AR Path="/5E6A4B6B/5E95BFED" Ref="C?"  Part="1" 
AR Path="/5E68FE1D/5E95BFED" Ref="C110"  Part="1" 
F 0 "C110" V 4548 3750 50  0000 C CNN
F 1 "22pF" V 4639 3750 50  0000 C CNN
F 2 "Capacitor_SMD:C_0603_1608Metric" H 4838 3600 50  0001 C CNN
F 3 "~" H 4800 3750 50  0001 C CNN
	1    4800 3750
	0    -1   -1   0   
$EndComp
$Comp
L power:GND #PWR?
U 1 1 5E95BFF4
P 5100 4050
AR Path="/5E6A4B6B/5E95BFF4" Ref="#PWR?"  Part="1" 
AR Path="/5E68FE1D/5E95BFF4" Ref="#PWR0132"  Part="1" 
F 0 "#PWR0132" H 5100 3800 50  0001 C CNN
F 1 "GND" V 5105 3922 50  0000 R CNN
F 2 "" H 5100 4050 50  0001 C CNN
F 3 "" H 5100 4050 50  0001 C CNN
	1    5100 4050
	0    -1   -1   0   
$EndComp
$Comp
L power:GND #PWR?
U 1 1 5E95BFFA
P 4300 4050
AR Path="/5E6A4B6B/5E95BFFA" Ref="#PWR?"  Part="1" 
AR Path="/5E68FE1D/5E95BFFA" Ref="#PWR0129"  Part="1" 
F 0 "#PWR0129" H 4300 3800 50  0001 C CNN
F 1 "GND" H 4400 3900 50  0000 R CNN
F 2 "" H 4300 4050 50  0001 C CNN
F 3 "" H 4300 4050 50  0001 C CNN
	1    4300 4050
	0    1    1    0   
$EndComp
Wire Wire Line
	4950 4350 5100 4350
Wire Wire Line
	5100 4350 5100 4050
Wire Wire Line
	5100 3750 4950 3750
Connection ~ 5100 4050
Wire Wire Line
	5100 4050 5100 3750
Wire Wire Line
	4700 4050 5100 4050
Wire Wire Line
	4650 4350 4500 4350
Wire Wire Line
	4500 3900 4500 3750
Connection ~ 4500 3750
Wire Wire Line
	4500 3750 4650 3750
Wire Wire Line
	4500 4200 4500 4350
Connection ~ 4500 4350
Wire Wire Line
	3800 3750 4500 3750
Wire Wire Line
	3350 3550 3800 3550
Wire Wire Line
	3800 3550 3800 3750
Wire Wire Line
	3350 3650 3650 3650
Wire Wire Line
	3650 3650 3650 4350
Wire Wire Line
	3650 4350 4500 4350
NoConn ~ 2200 2650
NoConn ~ 2200 2750
NoConn ~ 2200 2850
NoConn ~ 2200 2950
NoConn ~ 2200 3050
NoConn ~ 2200 3150
NoConn ~ 2200 3250
NoConn ~ 2200 3350
$Comp
L Device:R R64
U 1 1 5E9ADC3F
P 1700 1350
F 0 "R64" V 1650 1500 50  0000 C CNN
F 1 "33" V 1700 1350 50  0000 C CNN
F 2 "Resistor_SMD:R_0402_1005Metric" V 1630 1350 50  0001 C CNN
F 3 "~" H 1700 1350 50  0001 C CNN
	1    1700 1350
	0    1    1    0   
$EndComp
$Comp
L Device:R R65
U 1 1 5E9ADCC1
P 1700 1450
F 0 "R65" V 1650 1600 50  0000 C CNN
F 1 "33" V 1700 1450 50  0000 C CNN
F 2 "Resistor_SMD:R_0402_1005Metric" V 1630 1450 50  0001 C CNN
F 3 "~" H 1700 1450 50  0001 C CNN
	1    1700 1450
	0    1    1    0   
$EndComp
Wire Wire Line
	1850 1350 2200 1350
Wire Wire Line
	2200 1450 1850 1450
Wire Wire Line
	1550 1350 1500 1350
Wire Wire Line
	1550 1450 1500 1450
NoConn ~ 2200 3450
NoConn ~ 2200 3550
Text GLabel 1500 1350 0    50   Input ~ 0
ethernet_rd_n
Text GLabel 1500 1450 0    50   Input ~ 0
ethernet_we_n
$Comp
L Device:R R66
U 1 1 5E9E48DA
P 1700 1550
F 0 "R66" V 1650 1700 50  0000 C CNN
F 1 "33" V 1700 1550 50  0000 C CNN
F 2 "Resistor_SMD:R_0402_1005Metric" V 1630 1550 50  0001 C CNN
F 3 "~" H 1700 1550 50  0001 C CNN
	1    1700 1550
	0    1    1    0   
$EndComp
Wire Wire Line
	1850 1550 2200 1550
Text GLabel 1500 1550 0    50   Input ~ 0
ethernet_cs_n
Wire Wire Line
	1500 1550 1550 1550
$Comp
L Device:R R67
U 1 1 5EA07EBE
P 1700 1650
F 0 "R67" V 1650 1800 50  0000 C CNN
F 1 "33" V 1700 1650 50  0000 C CNN
F 2 "Resistor_SMD:R_0402_1005Metric" V 1630 1650 50  0001 C CNN
F 3 "~" H 1700 1650 50  0001 C CNN
	1    1700 1650
	0    1    1    0   
$EndComp
Wire Wire Line
	1850 1650 2200 1650
Text GLabel 1500 1650 0    50   Input ~ 0
sa1_ale
Wire Wire Line
	1500 1650 1550 1650
$Comp
L Device:R R68
U 1 1 5EA17203
P 1700 1750
F 0 "R68" V 1650 1900 50  0000 C CNN
F 1 "33" V 1700 1750 50  0000 C CNN
F 2 "Resistor_SMD:R_0402_1005Metric" V 1630 1750 50  0001 C CNN
F 3 "~" H 1700 1750 50  0001 C CNN
	1    1700 1750
	0    1    1    0   
$EndComp
Wire Wire Line
	1850 1750 2200 1750
Text GLabel 1500 1750 0    50   Input ~ 0
ethernet_int
Wire Wire Line
	1500 1750 1550 1750
$Comp
L Device:R R69
U 1 1 5EA27FE2
P 1700 1850
F 0 "R69" V 1650 2000 50  0000 C CNN
F 1 "33" V 1700 1850 50  0000 C CNN
F 2 "Resistor_SMD:R_0402_1005Metric" V 1630 1850 50  0001 C CNN
F 3 "~" H 1700 1850 50  0001 C CNN
	1    1700 1850
	0    1    1    0   
$EndComp
$Comp
L Device:R R70
U 1 1 5EA28040
P 1700 1950
F 0 "R70" V 1650 2100 50  0000 C CNN
F 1 "33" V 1700 1950 50  0000 C CNN
F 2 "Resistor_SMD:R_0402_1005Metric" V 1630 1950 50  0001 C CNN
F 3 "~" H 1700 1950 50  0001 C CNN
	1    1700 1950
	0    1    1    0   
$EndComp
$Comp
L Device:R R71
U 1 1 5EA28098
P 1700 2050
F 0 "R71" V 1650 2200 50  0000 C CNN
F 1 "33" V 1700 2050 50  0000 C CNN
F 2 "Resistor_SMD:R_0402_1005Metric" V 1630 2050 50  0001 C CNN
F 3 "~" H 1700 2050 50  0001 C CNN
	1    1700 2050
	0    1    1    0   
$EndComp
$Comp
L Device:R R72
U 1 1 5EA280F6
P 1700 2150
F 0 "R72" V 1650 2300 50  0000 C CNN
F 1 "33" V 1700 2150 50  0000 C CNN
F 2 "Resistor_SMD:R_0402_1005Metric" V 1630 2150 50  0001 C CNN
F 3 "~" H 1700 2150 50  0001 C CNN
	1    1700 2150
	0    1    1    0   
$EndComp
$Comp
L Device:R R73
U 1 1 5EA28152
P 1700 2250
F 0 "R73" V 1650 2400 50  0000 C CNN
F 1 "33" V 1700 2250 50  0000 C CNN
F 2 "Resistor_SMD:R_0402_1005Metric" V 1630 2250 50  0001 C CNN
F 3 "~" H 1700 2250 50  0001 C CNN
	1    1700 2250
	0    1    1    0   
$EndComp
$Comp
L Device:R R74
U 1 1 5EA281B0
P 1700 2350
F 0 "R74" V 1650 2500 50  0000 C CNN
F 1 "33" V 1700 2350 50  0000 C CNN
F 2 "Resistor_SMD:R_0402_1005Metric" V 1630 2350 50  0001 C CNN
F 3 "~" H 1700 2350 50  0001 C CNN
	1    1700 2350
	0    1    1    0   
$EndComp
$Comp
L Device:R R75
U 1 1 5EA28210
P 1700 2450
F 0 "R75" V 1650 2600 50  0000 C CNN
F 1 "33" V 1700 2450 50  0000 C CNN
F 2 "Resistor_SMD:R_0402_1005Metric" V 1630 2450 50  0001 C CNN
F 3 "~" H 1700 2450 50  0001 C CNN
	1    1700 2450
	0    1    1    0   
$EndComp
$Comp
L Device:R R76
U 1 1 5EA28272
P 1700 2550
F 0 "R76" V 1650 2700 50  0000 C CNN
F 1 "33" V 1700 2550 50  0000 C CNN
F 2 "Resistor_SMD:R_0402_1005Metric" V 1630 2550 50  0001 C CNN
F 3 "~" H 1700 2550 50  0001 C CNN
	1    1700 2550
	0    1    1    0   
$EndComp
Wire Wire Line
	1850 2550 2200 2550
Wire Wire Line
	2200 2450 1850 2450
Wire Wire Line
	1850 2350 2200 2350
Wire Wire Line
	2200 2250 1850 2250
Wire Wire Line
	1850 2150 2200 2150
Wire Wire Line
	1850 2050 2200 2050
Wire Wire Line
	2200 1950 1850 1950
Wire Wire Line
	1850 1850 2200 1850
Text GLabel 1500 1850 0    50   Input ~ 0
sd0
Text GLabel 1500 1950 0    50   Input ~ 0
sd1
Text GLabel 1500 2050 0    50   Input ~ 0
sd2
Text GLabel 1500 2150 0    50   Input ~ 0
sd3
Text GLabel 1500 2250 0    50   Input ~ 0
sd4
Text GLabel 1500 2350 0    50   Input ~ 0
sd5
Text GLabel 1500 2450 0    50   Input ~ 0
sd6
Text GLabel 1500 2550 0    50   Input ~ 0
sd7
Wire Wire Line
	1500 2550 1550 2550
Wire Wire Line
	1550 2450 1500 2450
Wire Wire Line
	1500 2350 1550 2350
Wire Wire Line
	1550 2250 1500 2250
Wire Wire Line
	1500 2150 1550 2150
Wire Wire Line
	1550 2050 1500 2050
Wire Wire Line
	1500 1950 1550 1950
Wire Wire Line
	1550 1850 1500 1850
Wire Wire Line
	4100 2750 4500 2750
$Comp
L power:+3V3 #PWR0123
U 1 1 5E891A66
P 4850 2750
F 0 "#PWR0123" H 4850 2600 50  0001 C CNN
F 1 "+3V3" H 4865 2923 50  0000 C CNN
F 2 "" H 4850 2750 50  0001 C CNN
F 3 "" H 4850 2750 50  0001 C CNN
	1    4850 2750
	0    1    1    0   
$EndComp
$Comp
L power:+3V3 #PWR0130
U 1 1 5E8ACCC6
P 1400 3650
F 0 "#PWR0130" H 1400 3500 50  0001 C CNN
F 1 "+3V3" H 1415 3823 50  0000 C CNN
F 2 "" H 1400 3650 50  0001 C CNN
F 3 "" H 1400 3650 50  0001 C CNN
	1    1400 3650
	0    -1   -1   0   
$EndComp
$Comp
L power:+3V3 #PWR0134
U 1 1 5E8AE6F9
P 10150 3650
F 0 "#PWR0134" H 10150 3500 50  0001 C CNN
F 1 "+3V3" H 10165 3823 50  0000 C CNN
F 2 "" H 10150 3650 50  0001 C CNN
F 3 "" H 10150 3650 50  0001 C CNN
	1    10150 3650
	0    1    1    0   
$EndComp
Wire Wire Line
	4500 2650 4500 2750
Connection ~ 4500 2750
Wire Wire Line
	4500 2750 4850 2750
Wire Wire Line
	1400 3650 2200 3650
Text Notes 7550 6900 0    118  ~ 24
ethernet
$EndSCHEMATC
