EESchema Schematic File Version 4
LIBS:mainboard-cache
EELAYER 26 0
EELAYER END
$Descr A4 11693 8268
encoding utf-8
Sheet 3 13
Title ""
Date ""
Rev ""
Comp ""
Comment1 ""
Comment2 ""
Comment3 ""
Comment4 ""
$EndDescr
Text Notes 7200 6950 0    157  ~ 31
power management unit
Wire Wire Line
	1750 2600 1750 2400
$Comp
L power:GND #PWR020
U 1 1 5E761F50
P 1950 2600
F 0 "#PWR020" H 1950 2350 50  0001 C CNN
F 1 "GND" H 1955 2427 50  0000 C CNN
F 2 "" H 1950 2600 50  0001 C CNN
F 3 "" H 1950 2600 50  0001 C CNN
	1    1950 2600
	1    0    0    -1  
$EndComp
Wire Wire Line
	1950 2600 1950 2300
$Comp
L power:+5V #PWR027
U 1 1 5E762FE9
P 3500 950
F 0 "#PWR027" H 3500 800 50  0001 C CNN
F 1 "+5V" H 3515 1123 50  0000 C CNN
F 2 "" H 3500 950 50  0001 C CNN
F 3 "" H 3500 950 50  0001 C CNN
	1    3500 950 
	1    0    0    -1  
$EndComp
Wire Wire Line
	3500 950  3500 1300
Wire Wire Line
	3500 1300 2600 1300
$Comp
L power:GND #PWR021
U 1 1 5E76300C
P 2100 2150
F 0 "#PWR021" H 2100 1900 50  0001 C CNN
F 1 "GND" H 2105 1977 50  0000 C CNN
F 2 "" H 2100 2150 50  0001 C CNN
F 3 "" H 2100 2150 50  0001 C CNN
	1    2100 2150
	1    0    0    -1  
$EndComp
$Comp
L Device:C C53
U 1 1 5E763042
P 2100 1750
F 0 "C53" H 2215 1796 50  0000 L CNN
F 1 "100uF" H 2150 1650 50  0000 L CNN
F 2 "Capacitor_SMD:C_1206_3216Metric" H 2138 1600 50  0001 C CNN
F 3 "~" H 2100 1750 50  0001 C CNN
	1    2100 1750
	1    0    0    -1  
$EndComp
Wire Wire Line
	2100 1900 2100 2150
Wire Wire Line
	2100 1600 2100 1300
Connection ~ 2100 1300
Wire Wire Line
	2100 1300 1850 1300
$Comp
L esd_protection:esd_protection_diode D1
U 1 1 5E76576B
P 2600 1750
F 0 "D1" H 2550 1650 50  0000 L CNN
F 1 "LESD8D5.0CKT5G" H 2300 1850 50  0000 L CNN
F 2 "diode_smd:SDO-882" V 2625 1750 50  0001 C CNN
F 3 "" V 2625 1750 50  0001 C CNN
	1    2600 1750
	0    1    1    0   
$EndComp
$Comp
L power:GND #PWR024
U 1 1 5E765800
P 2600 2150
F 0 "#PWR024" H 2600 1900 50  0001 C CNN
F 1 "GND" H 2605 1977 50  0000 C CNN
F 2 "" H 2600 2150 50  0001 C CNN
F 3 "" H 2600 2150 50  0001 C CNN
	1    2600 2150
	1    0    0    -1  
$EndComp
Wire Wire Line
	2600 2050 2600 2150
Wire Wire Line
	2600 1450 2600 1300
Connection ~ 2600 1300
Wire Wire Line
	2600 1300 2100 1300
$Comp
L usb:HRO-TYPE-C-31-M-12 USB1
U 1 1 5E76D14C
P 1650 1750
F 0 "USB1" H 1450 2450 60  0000 C CNN
F 1 "HRO-TYPE-C-31-M-12" V 850 1700 60  0000 C CNN
F 2 "connector_usb:HRO-TYPE-C-31-M-12" H 1650 1750 60  0001 C CNN
F 3 "" H 1650 1750 60  0001 C CNN
F 4 "power connector" V 1050 1700 79  0000 C CNN "designation"
	1    1650 1750
	1    0    0    -1  
$EndComp
Wire Wire Line
	1950 2300 1750 2300
$Comp
L power:GND #PWR018
U 1 1 5E76D4AE
P 1750 850
F 0 "#PWR018" H 1750 600 50  0001 C CNN
F 1 "GND" H 1755 677 50  0000 C CNN
F 2 "" H 1750 850 50  0001 C CNN
F 3 "" H 1750 850 50  0001 C CNN
	1    1750 850 
	-1   0    0    1   
$EndComp
Wire Wire Line
	1750 850  1750 1200
NoConn ~ 1750 2100
NoConn ~ 1750 2000
NoConn ~ 1750 1900
NoConn ~ 1750 1800
NoConn ~ 1750 1700
NoConn ~ 1750 1600
NoConn ~ 1750 1500
NoConn ~ 1750 1400
Wire Wire Line
	1750 2200 1850 2200
Wire Wire Line
	1850 2200 1850 1300
Connection ~ 1850 1300
Wire Wire Line
	1850 1300 1750 1300
$Comp
L regulator_switching:sy8009 U7
U 1 1 5ECACF4E
P 8650 3150
F 0 "U7" H 8500 3400 50  0000 C CNN
F 1 "sy8089aaac" H 8950 2850 50  0000 C CNN
F 2 "Package_TO_SOT_SMD:SOT-23-5" H 8700 3250 50  0001 C CNN
F 3 "" H 8700 3250 50  0001 C CNN
	1    8650 3150
	1    0    0    -1  
$EndComp
$Comp
L power:GND #PWR037
U 1 1 5ECAE2E1
P 8650 3600
F 0 "#PWR037" H 8650 3350 50  0001 C CNN
F 1 "GND" H 8655 3427 50  0000 C CNN
F 2 "" H 8650 3600 50  0001 C CNN
F 3 "" H 8650 3600 50  0001 C CNN
	1    8650 3600
	1    0    0    -1  
$EndComp
Wire Wire Line
	8650 3600 8650 3450
$Comp
L power:+5V #PWR034
U 1 1 5ECAE6F0
P 7650 3050
F 0 "#PWR034" H 7650 2900 50  0001 C CNN
F 1 "+5V" V 7665 3178 50  0000 L CNN
F 2 "" H 7650 3050 50  0001 C CNN
F 3 "" H 7650 3050 50  0001 C CNN
	1    7650 3050
	0    -1   -1   0   
$EndComp
$Comp
L Device:L L3
U 1 1 5ECAE743
P 9250 3050
F 0 "L3" V 9440 3050 50  0000 C CNN
F 1 "2.2uH cd43" V 9349 3050 50  0000 C CNN
F 2 "Inductor_SMD:L_Taiyo-Yuden_NR-50xx" H 9250 3050 50  0001 C CNN
F 3 "~" H 9250 3050 50  0001 C CNN
	1    9250 3050
	0    -1   -1   0   
$EndComp
Wire Wire Line
	9000 3050 9100 3050
$Comp
L Device:R R27
U 1 1 5ECAE965
P 9500 3300
F 0 "R27" H 9570 3346 50  0000 L CNN
F 1 "301k" V 9500 3200 50  0000 L CNN
F 2 "Resistor_SMD:R_0402_1005Metric" V 9430 3300 50  0001 C CNN
F 3 "~" H 9500 3300 50  0001 C CNN
F 4 "1%" V 9400 3300 50  0000 C CNN "tolerance"
	1    9500 3300
	1    0    0    -1  
$EndComp
$Comp
L power:GND #PWR039
U 1 1 5ECAE9BD
P 9500 3950
F 0 "#PWR039" H 9500 3700 50  0001 C CNN
F 1 "GND" H 9505 3777 50  0000 C CNN
F 2 "" H 9500 3950 50  0001 C CNN
F 3 "" H 9500 3950 50  0001 C CNN
	1    9500 3950
	1    0    0    -1  
$EndComp
Wire Wire Line
	9500 3950 9500 3850
Wire Wire Line
	9500 3550 9500 3500
Wire Wire Line
	9500 3150 9500 3050
Wire Wire Line
	9500 3050 9400 3050
Wire Wire Line
	9000 3250 9250 3250
Wire Wire Line
	9250 3250 9250 3500
Wire Wire Line
	9250 3500 9500 3500
Connection ~ 9500 3500
Wire Wire Line
	9500 3500 9500 3450
$Comp
L power:+3V3 #PWR041
U 1 1 5ECB1172
P 10400 3050
F 0 "#PWR041" H 10400 2900 50  0001 C CNN
F 1 "+3V3" V 10415 3178 50  0000 L CNN
F 2 "" H 10400 3050 50  0001 C CNN
F 3 "" H 10400 3050 50  0001 C CNN
	1    10400 3050
	0    1    1    0   
$EndComp
Wire Wire Line
	9500 3050 9950 3050
Connection ~ 9500 3050
$Comp
L Device:C C61
U 1 1 5ECB17BE
P 9950 3300
F 0 "C61" H 10000 3400 50  0000 L CNN
F 1 "22pF" V 10000 3050 50  0000 L CNN
F 2 "Capacitor_SMD:C_0603_1608Metric" H 9988 3150 50  0001 C CNN
F 3 "~" H 9950 3300 50  0001 C CNN
	1    9950 3300
	1    0    0    -1  
$EndComp
Wire Wire Line
	9950 3450 9950 3500
Wire Wire Line
	9950 3500 9500 3500
Wire Wire Line
	9950 3150 9950 3050
Connection ~ 9950 3050
Wire Wire Line
	9950 3050 10250 3050
$Comp
L Device:C C62
U 1 1 5ECB1EC8
P 10250 3650
F 0 "C62" H 10365 3696 50  0000 L CNN
F 1 "47uF" H 10365 3605 50  0000 L CNN
F 2 "Capacitor_SMD:C_0805_2012Metric" H 10288 3500 50  0001 C CNN
F 3 "~" H 10250 3650 50  0001 C CNN
	1    10250 3650
	1    0    0    -1  
$EndComp
Wire Wire Line
	10250 3500 10250 3050
Connection ~ 10250 3050
Wire Wire Line
	10250 3050 10400 3050
$Comp
L power:GND #PWR040
U 1 1 5ECB22DF
P 10250 3950
F 0 "#PWR040" H 10250 3700 50  0001 C CNN
F 1 "GND" H 10255 3777 50  0000 C CNN
F 2 "" H 10250 3950 50  0001 C CNN
F 3 "" H 10250 3950 50  0001 C CNN
	1    10250 3950
	1    0    0    -1  
$EndComp
Wire Wire Line
	10250 3950 10250 3800
Text Notes 7650 4400 0    50   ~ 0
Vout=0.6 * (1 + R1 / R2)\nR1 / R2 = Vout / 0.6 - 1\n3.3 / 0.6 - 1 = 4.5\nR1 = 301k, R2 = 66.5k\nVout = 0.6 * (1 + 301/66.5) = 3.316V
$Comp
L Device:C C59
U 1 1 5ECB7112
P 7750 3400
F 0 "C59" H 7865 3446 50  0000 L CNN
F 1 "22uF" H 7865 3355 50  0000 L CNN
F 2 "Capacitor_SMD:C_0603_1608Metric" H 7788 3250 50  0001 C CNN
F 3 "~" H 7750 3400 50  0001 C CNN
	1    7750 3400
	1    0    0    -1  
$EndComp
$Comp
L power:GND #PWR035
U 1 1 5ECB7178
P 7750 3650
F 0 "#PWR035" H 7750 3400 50  0001 C CNN
F 1 "GND" H 7755 3477 50  0000 C CNN
F 2 "" H 7750 3650 50  0001 C CNN
F 3 "" H 7750 3650 50  0001 C CNN
	1    7750 3650
	1    0    0    -1  
$EndComp
Wire Wire Line
	7750 3650 7750 3550
Wire Wire Line
	7750 3250 7750 3050
Connection ~ 7750 3050
Wire Wire Line
	7750 3050 7650 3050
Text Notes 6800 3600 0    118  ~ 24
+3V3
$Comp
L regulator_switching:sy8009 U5
U 1 1 5ECBB376
P 2500 3200
F 0 "U5" H 2350 3450 50  0000 C CNN
F 1 "sy8009aaac" H 2800 2900 50  0000 C CNN
F 2 "Package_TO_SOT_SMD:SOT-23-5" H 2550 3300 50  0001 C CNN
F 3 "" H 2550 3300 50  0001 C CNN
	1    2500 3200
	1    0    0    -1  
$EndComp
$Comp
L power:GND #PWR023
U 1 1 5ECBB37D
P 2500 3650
F 0 "#PWR023" H 2500 3400 50  0001 C CNN
F 1 "GND" H 2505 3477 50  0000 C CNN
F 2 "" H 2500 3650 50  0001 C CNN
F 3 "" H 2500 3650 50  0001 C CNN
	1    2500 3650
	1    0    0    -1  
$EndComp
Wire Wire Line
	2500 3650 2500 3500
Wire Wire Line
	2150 3300 2000 3300
$Comp
L power:+5V #PWR015
U 1 1 5ECBB389
P 1500 3100
F 0 "#PWR015" H 1500 2950 50  0001 C CNN
F 1 "+5V" V 1515 3228 50  0000 L CNN
F 2 "" H 1500 3100 50  0001 C CNN
F 3 "" H 1500 3100 50  0001 C CNN
	1    1500 3100
	0    -1   -1   0   
$EndComp
$Comp
L Device:L L2
U 1 1 5ECBB38F
P 3100 3100
F 0 "L2" V 3290 3100 50  0000 C CNN
F 1 "2.2uH cd32" V 3199 3100 50  0000 C CNN
F 2 "Inductor_SMD:L_Taiyo-Yuden_NR-50xx" H 3100 3100 50  0001 C CNN
F 3 "~" H 3100 3100 50  0001 C CNN
	1    3100 3100
	0    -1   -1   0   
$EndComp
Wire Wire Line
	2850 3100 2950 3100
$Comp
L power:GND #PWR026
U 1 1 5ECBB3A5
P 3350 4000
F 0 "#PWR026" H 3350 3750 50  0001 C CNN
F 1 "GND" H 3355 3827 50  0000 C CNN
F 2 "" H 3350 4000 50  0001 C CNN
F 3 "" H 3350 4000 50  0001 C CNN
	1    3350 4000
	1    0    0    -1  
$EndComp
Wire Wire Line
	3350 4000 3350 3900
Wire Wire Line
	3350 3600 3350 3550
Wire Wire Line
	3350 3200 3350 3100
Wire Wire Line
	3350 3100 3250 3100
Wire Wire Line
	2850 3300 3100 3300
Wire Wire Line
	3100 3300 3100 3550
Wire Wire Line
	3100 3550 3350 3550
Connection ~ 3350 3550
Wire Wire Line
	3350 3550 3350 3500
Wire Wire Line
	3350 3100 3800 3100
Connection ~ 3350 3100
$Comp
L Device:C C55
U 1 1 5ECBB3BC
P 3800 3350
F 0 "C55" H 3850 3450 50  0000 L CNN
F 1 "22pF" V 3850 3100 50  0000 L CNN
F 2 "Capacitor_SMD:C_0603_1608Metric" H 3838 3200 50  0001 C CNN
F 3 "~" H 3800 3350 50  0001 C CNN
	1    3800 3350
	1    0    0    -1  
$EndComp
Wire Wire Line
	3800 3500 3800 3550
Wire Wire Line
	3800 3550 3350 3550
Wire Wire Line
	3800 3200 3800 3100
Connection ~ 3800 3100
Wire Wire Line
	3800 3100 4100 3100
$Comp
L Device:C C57
U 1 1 5ECBB3C8
P 4100 3700
F 0 "C57" H 4215 3746 50  0000 L CNN
F 1 "47uF" H 4215 3655 50  0000 L CNN
F 2 "Capacitor_SMD:C_0805_2012Metric" H 4138 3550 50  0001 C CNN
F 3 "~" H 4100 3700 50  0001 C CNN
	1    4100 3700
	1    0    0    -1  
$EndComp
Wire Wire Line
	4100 3550 4100 3100
Connection ~ 4100 3100
Wire Wire Line
	4100 3100 4650 3100
$Comp
L power:GND #PWR029
U 1 1 5ECBB3D2
P 4100 4000
F 0 "#PWR029" H 4100 3750 50  0001 C CNN
F 1 "GND" H 4105 3827 50  0000 C CNN
F 2 "" H 4100 4000 50  0001 C CNN
F 3 "" H 4100 4000 50  0001 C CNN
	1    4100 4000
	1    0    0    -1  
$EndComp
Wire Wire Line
	4100 4000 4100 3850
Text Notes 1450 4450 0    50   ~ 0
Vout=0.6 * (1 + R1 / R2)\nR1 / R2 = Vout / 0.6 - 1\n1.1 / 0.6 - 1 = 0.833\nR1 = 91k, R2 = 105k\nVout = 0.6 * ( 1 + 91/105) = 1.119 V
$Comp
L Device:C C52
U 1 1 5ECBB3DA
P 1600 3450
F 0 "C52" H 1715 3496 50  0000 L CNN
F 1 "22uF" H 1715 3405 50  0000 L CNN
F 2 "Capacitor_SMD:C_0603_1608Metric" H 1638 3300 50  0001 C CNN
F 3 "~" H 1600 3450 50  0001 C CNN
	1    1600 3450
	1    0    0    -1  
$EndComp
$Comp
L power:GND #PWR017
U 1 1 5ECBB3E1
P 1600 3700
F 0 "#PWR017" H 1600 3450 50  0001 C CNN
F 1 "GND" H 1605 3527 50  0000 C CNN
F 2 "" H 1600 3700 50  0001 C CNN
F 3 "" H 1600 3700 50  0001 C CNN
	1    1600 3700
	1    0    0    -1  
$EndComp
Wire Wire Line
	1600 3700 1600 3600
Wire Wire Line
	1600 3300 1600 3100
Connection ~ 1600 3100
Wire Wire Line
	1600 3100 1500 3100
Text Notes 650  3650 0    118  ~ 24
+1V1
$Comp
L power:+1V1 #PWR031
U 1 1 5ECBC643
P 4950 3100
F 0 "#PWR031" H 4950 2950 50  0001 C CNN
F 1 "+1V1" V 4965 3228 50  0000 L CNN
F 2 "" H 4950 3100 50  0001 C CNN
F 3 "" H 4950 3100 50  0001 C CNN
	1    4950 3100
	0    1    1    0   
$EndComp
$Comp
L Device:R R28
U 1 1 5ECBCAEF
P 9500 3700
F 0 "R28" H 9570 3746 50  0000 L CNN
F 1 "66.5k" V 9500 3600 50  0000 L CNN
F 2 "Resistor_SMD:R_0402_1005Metric" V 9430 3700 50  0001 C CNN
F 3 "~" H 9500 3700 50  0001 C CNN
F 4 "1%" V 9400 3700 50  0000 C CNN "tolerance"
	1    9500 3700
	1    0    0    -1  
$EndComp
$Comp
L Device:R R26
U 1 1 5ECBDF31
P 3350 3750
F 0 "R26" H 3420 3796 50  0000 L CNN
F 1 "105k" V 3350 3650 50  0000 L CNN
F 2 "Resistor_SMD:R_0402_1005Metric" V 3280 3750 50  0001 C CNN
F 3 "~" H 3350 3750 50  0001 C CNN
F 4 "1%" V 3250 3750 50  0000 C CNN "tolerance"
	1    3350 3750
	1    0    0    -1  
$EndComp
$Comp
L Device:R R25
U 1 1 5ECBDFDB
P 3350 3350
F 0 "R25" H 3420 3396 50  0000 L CNN
F 1 "91k" V 3350 3250 50  0000 L CNN
F 2 "Resistor_SMD:R_0402_1005Metric" V 3280 3350 50  0001 C CNN
F 3 "~" H 3350 3350 50  0001 C CNN
F 4 "1%" V 3250 3350 50  0000 C CNN "tolerance"
	1    3350 3350
	1    0    0    -1  
$EndComp
Text Notes 3400 3000 0    50   ~ 0
the inductor can be around\n1.2uH, Isat >1.33A
$Comp
L regulator_switching:sy8009 U4
U 1 1 5ECC681E
P 2450 5150
F 0 "U4" H 2300 5400 50  0000 C CNN
F 1 "sy8009aaac" H 2750 4850 50  0000 C CNN
F 2 "Package_TO_SOT_SMD:SOT-23-5" H 2500 5250 50  0001 C CNN
F 3 "" H 2500 5250 50  0001 C CNN
	1    2450 5150
	1    0    0    -1  
$EndComp
$Comp
L power:GND #PWR022
U 1 1 5ECC6825
P 2450 5600
F 0 "#PWR022" H 2450 5350 50  0001 C CNN
F 1 "GND" H 2455 5427 50  0000 C CNN
F 2 "" H 2450 5600 50  0001 C CNN
F 3 "" H 2450 5600 50  0001 C CNN
	1    2450 5600
	1    0    0    -1  
$EndComp
Wire Wire Line
	2450 5600 2450 5450
$Comp
L power:+5V #PWR014
U 1 1 5ECC6831
P 1450 5050
F 0 "#PWR014" H 1450 4900 50  0001 C CNN
F 1 "+5V" V 1465 5178 50  0000 L CNN
F 2 "" H 1450 5050 50  0001 C CNN
F 3 "" H 1450 5050 50  0001 C CNN
	1    1450 5050
	0    -1   -1   0   
$EndComp
$Comp
L Device:L L1
U 1 1 5ECC6837
P 3050 5050
F 0 "L1" V 3240 5050 50  0000 C CNN
F 1 "2.2uH cd32" V 3149 5050 50  0000 C CNN
F 2 "Inductor_SMD:L_Taiyo-Yuden_NR-50xx" H 3050 5050 50  0001 C CNN
F 3 "~" H 3050 5050 50  0001 C CNN
	1    3050 5050
	0    -1   -1   0   
$EndComp
Wire Wire Line
	2800 5050 2900 5050
$Comp
L power:GND #PWR025
U 1 1 5ECC683F
P 3300 5950
F 0 "#PWR025" H 3300 5700 50  0001 C CNN
F 1 "GND" H 3305 5777 50  0000 C CNN
F 2 "" H 3300 5950 50  0001 C CNN
F 3 "" H 3300 5950 50  0001 C CNN
	1    3300 5950
	1    0    0    -1  
$EndComp
Wire Wire Line
	3300 5950 3300 5850
Wire Wire Line
	3300 5550 3300 5500
Wire Wire Line
	3300 5150 3300 5050
Wire Wire Line
	3300 5050 3200 5050
Wire Wire Line
	2800 5250 3050 5250
Wire Wire Line
	3050 5250 3050 5500
Wire Wire Line
	3050 5500 3300 5500
Connection ~ 3300 5500
Wire Wire Line
	3300 5500 3300 5450
Wire Wire Line
	3300 5050 3750 5050
Connection ~ 3300 5050
$Comp
L Device:C C54
U 1 1 5ECC6850
P 3750 5300
F 0 "C54" H 3800 5400 50  0000 L CNN
F 1 "22pF" V 3800 5050 50  0000 L CNN
F 2 "Capacitor_SMD:C_0603_1608Metric" H 3788 5150 50  0001 C CNN
F 3 "~" H 3750 5300 50  0001 C CNN
	1    3750 5300
	1    0    0    -1  
$EndComp
Wire Wire Line
	3750 5450 3750 5500
Wire Wire Line
	3750 5500 3300 5500
Wire Wire Line
	3750 5150 3750 5050
Connection ~ 3750 5050
Wire Wire Line
	3750 5050 4050 5050
$Comp
L Device:C C56
U 1 1 5ECC685C
P 4050 5650
F 0 "C56" H 4165 5696 50  0000 L CNN
F 1 "47uF" H 4165 5605 50  0000 L CNN
F 2 "Capacitor_SMD:C_0805_2012Metric" H 4088 5500 50  0001 C CNN
F 3 "~" H 4050 5650 50  0001 C CNN
	1    4050 5650
	1    0    0    -1  
$EndComp
Wire Wire Line
	4050 5500 4050 5050
Connection ~ 4050 5050
Wire Wire Line
	4050 5050 4550 5050
$Comp
L power:GND #PWR028
U 1 1 5ECC6866
P 4050 5950
F 0 "#PWR028" H 4050 5700 50  0001 C CNN
F 1 "GND" H 4055 5777 50  0000 C CNN
F 2 "" H 4050 5950 50  0001 C CNN
F 3 "" H 4050 5950 50  0001 C CNN
	1    4050 5950
	1    0    0    -1  
$EndComp
Wire Wire Line
	4050 5950 4050 5800
Text Notes 1400 6400 0    50   ~ 0
Vout=0.6 * (1 + R1 / R2)\nR1 / R2 = Vout / 0.6 - 1\n1.5 / 0.6 - 1 = 1.5\nR1 = 150k, R2 = 100k\nVout = 0.6 * ( 1 + 150/100) = 1.5 V
$Comp
L Device:C C51
U 1 1 5ECC686E
P 1550 5400
F 0 "C51" H 1665 5446 50  0000 L CNN
F 1 "22uF" H 1665 5355 50  0000 L CNN
F 2 "Capacitor_SMD:C_0603_1608Metric" H 1588 5250 50  0001 C CNN
F 3 "~" H 1550 5400 50  0001 C CNN
	1    1550 5400
	1    0    0    -1  
$EndComp
$Comp
L power:GND #PWR016
U 1 1 5ECC6875
P 1550 5650
F 0 "#PWR016" H 1550 5400 50  0001 C CNN
F 1 "GND" H 1555 5477 50  0000 C CNN
F 2 "" H 1550 5650 50  0001 C CNN
F 3 "" H 1550 5650 50  0001 C CNN
	1    1550 5650
	1    0    0    -1  
$EndComp
Wire Wire Line
	1550 5650 1550 5550
Wire Wire Line
	1550 5250 1550 5050
Connection ~ 1550 5050
Wire Wire Line
	1550 5050 1450 5050
Text Notes 600  5600 0    118  ~ 24
+1V5
$Comp
L Device:R R24
U 1 1 5ECC6887
P 3300 5700
F 0 "R24" H 3370 5746 50  0000 L CNN
F 1 "100k" V 3300 5600 50  0000 L CNN
F 2 "Resistor_SMD:R_0402_1005Metric" V 3230 5700 50  0001 C CNN
F 3 "~" H 3300 5700 50  0001 C CNN
F 4 "1%" V 3200 5700 50  0000 C CNN "tolerance"
	1    3300 5700
	1    0    0    -1  
$EndComp
$Comp
L Device:R R23
U 1 1 5ECC688F
P 3300 5300
F 0 "R23" H 3370 5346 50  0000 L CNN
F 1 "150k" V 3300 5200 50  0000 L CNN
F 2 "Resistor_SMD:R_0402_1005Metric" V 3230 5300 50  0001 C CNN
F 3 "~" H 3300 5300 50  0001 C CNN
F 4 "1%" V 3200 5300 50  0000 C CNN "tolerance"
	1    3300 5300
	1    0    0    -1  
$EndComp
Text Notes 3350 4950 0    50   ~ 0
the inductor can be around\n1.46uH, Isat >1.36A
$Comp
L power:+1V5 #PWR030
U 1 1 5ECC8D96
P 4700 5050
F 0 "#PWR030" H 4700 4900 50  0001 C CNN
F 1 "+1V5" V 4715 5178 50  0000 L CNN
F 2 "" H 4700 5050 50  0001 C CNN
F 3 "" H 4700 5050 50  0001 C CNN
	1    4700 5050
	0    1    1    0   
$EndComp
Text Notes 7900 2750 0    50   ~ 0
NOTE: the regulator here is sy8089 instead of sy8009
Text GLabel 4650 3300 3    50   Input ~ 0
vdd_core
Wire Wire Line
	4650 3300 4650 3100
Connection ~ 4650 3100
Wire Wire Line
	4650 3100 4950 3100
Text GLabel 4550 5350 3    50   Input ~ 0
vdd_mem
Wire Wire Line
	4550 5350 4550 5050
Connection ~ 4550 5050
Wire Wire Line
	4550 5050 4700 5050
$Comp
L Regulator_Linear:AP131-28 U?
U 1 1 5ECE90B0
P 8100 5450
AR Path="/5E68FE1D/5ECE90B0" Ref="U?"  Part="1" 
AR Path="/5E63E74E/5ECE90B0" Ref="U6"  Part="1" 
F 0 "U6" H 8100 5792 50  0000 C CNN
F 1 "rt9013-25" H 8100 5701 50  0000 C CNN
F 2 "Package_TO_SOT_SMD:SOT-23-5" H 8100 5775 50  0001 C CNN
F 3 "http://www.diodes.com/_files/datasheets/AP131.pdf" H 8100 5450 50  0001 C CNN
	1    8100 5450
	1    0    0    -1  
$EndComp
Wire Wire Line
	8400 5350 8600 5350
$Comp
L power:GND #PWR?
U 1 1 5ECE90B9
P 8100 5950
AR Path="/5E68FE1D/5ECE90B9" Ref="#PWR?"  Part="1" 
AR Path="/5E63E74E/5ECE90B9" Ref="#PWR036"  Part="1" 
F 0 "#PWR036" H 8100 5700 50  0001 C CNN
F 1 "GND" H 8105 5777 50  0000 C CNN
F 2 "" H 8100 5950 50  0001 C CNN
F 3 "" H 8100 5950 50  0001 C CNN
	1    8100 5950
	1    0    0    -1  
$EndComp
Wire Wire Line
	8100 5950 8100 5750
NoConn ~ 8400 5450
$Comp
L Device:C C?
U 1 1 5ECE90C7
P 8600 5700
AR Path="/5E68FE1D/5ECE90C7" Ref="C?"  Part="1" 
AR Path="/5E63E74E/5ECE90C7" Ref="C60"  Part="1" 
F 0 "C60" H 8715 5746 50  0000 L CNN
F 1 "10uF" H 8715 5655 50  0000 L CNN
F 2 "Capacitor_SMD:C_0402_1005Metric" H 8638 5550 50  0001 C CNN
F 3 "~" H 8600 5700 50  0001 C CNN
	1    8600 5700
	1    0    0    -1  
$EndComp
Wire Wire Line
	8600 5550 8600 5350
Connection ~ 8100 5950
Wire Wire Line
	8100 5950 8600 5950
Wire Wire Line
	8600 5950 8600 5850
Wire Wire Line
	9000 5350 8600 5350
Connection ~ 8600 5350
$Comp
L power:+2V5 #PWR038
U 1 1 5ECF61E2
P 9000 5350
F 0 "#PWR038" H 9000 5200 50  0001 C CNN
F 1 "+2V5" V 9015 5478 50  0000 L CNN
F 2 "" H 9000 5350 50  0001 C CNN
F 3 "" H 9000 5350 50  0001 C CNN
	1    9000 5350
	0    1    1    0   
$EndComp
Text Notes 6350 5850 0    118  ~ 24
+2V5
Text GLabel 2000 3450 3    50   Input ~ 0
power_on
Wire Wire Line
	1600 3100 2150 3100
Wire Wire Line
	2000 3300 2000 3450
Text GLabel 1950 5450 3    50   Input ~ 0
power_on
Wire Wire Line
	1550 5050 2100 5050
Wire Wire Line
	1950 5450 1950 5250
Wire Wire Line
	1950 5250 2100 5250
Text GLabel 7700 5750 3    50   Input ~ 0
power_on
Text GLabel 8150 3350 3    50   Input ~ 0
power_on
Wire Wire Line
	7750 3050 8300 3050
Wire Wire Line
	8150 3350 8150 3250
Wire Wire Line
	8150 3250 8300 3250
Wire Wire Line
	7200 5350 7300 5350
Wire Wire Line
	7700 5750 7700 5450
Wire Wire Line
	7700 5450 7800 5450
$Comp
L power:+5V #PWR032
U 1 1 5E828CAE
P 7200 5350
F 0 "#PWR032" H 7200 5200 50  0001 C CNN
F 1 "+5V" V 7215 5478 50  0000 L CNN
F 2 "" H 7200 5350 50  0001 C CNN
F 3 "" H 7200 5350 50  0001 C CNN
	1    7200 5350
	0    -1   -1   0   
$EndComp
$Comp
L Device:C C58
U 1 1 5E82A522
P 7300 5750
F 0 "C58" H 7415 5796 50  0000 L CNN
F 1 "22uF" H 7415 5705 50  0000 L CNN
F 2 "Capacitor_SMD:C_0603_1608Metric" H 7338 5600 50  0001 C CNN
F 3 "~" H 7300 5750 50  0001 C CNN
	1    7300 5750
	1    0    0    -1  
$EndComp
Wire Wire Line
	7300 5600 7300 5350
Connection ~ 7300 5350
Wire Wire Line
	7300 5350 7800 5350
$Comp
L power:GND #PWR033
U 1 1 5E82D14A
P 7300 6050
F 0 "#PWR033" H 7300 5800 50  0001 C CNN
F 1 "GND" H 7305 5877 50  0000 C CNN
F 2 "" H 7300 6050 50  0001 C CNN
F 3 "" H 7300 6050 50  0001 C CNN
	1    7300 6050
	1    0    0    -1  
$EndComp
Wire Wire Line
	7300 6050 7300 5900
$Comp
L power:Earth_Protective #PWR?
U 1 1 5E928804
P 1750 2600
F 0 "#PWR?" H 2000 2350 50  0001 C CNN
F 1 "Earth_Protective" H 2200 2450 50  0001 C CNN
F 2 "" H 1750 2500 50  0001 C CNN
F 3 "~" H 1750 2500 50  0001 C CNN
	1    1750 2600
	1    0    0    -1  
$EndComp
$EndSCHEMATC
