EESchema Schematic File Version 4
LIBS:mainboard-cache
EELAYER 26 0
EELAYER END
$Descr A4 11693 8268
encoding utf-8
Sheet 5 13
Title ""
Date ""
Rev ""
Comp ""
Comment1 ""
Comment2 ""
Comment3 ""
Comment4 ""
$EndDescr
$Comp
L Connector:Micro_SD_Card J1
U 1 1 5E6A7A27
P 10100 3050
F 0 "J1" H 10050 3767 50  0000 C CNN
F 1 "Micro_SD_Card" H 10050 3676 50  0000 C CNN
F 2 "connector_card:ztf006-10-003" H 11250 3350 50  0001 C CNN
F 3 "http://katalog.we-online.de/em/datasheet/693072010801.pdf" H 10100 3050 50  0001 C CNN
	1    10100 3050
	1    0    0    -1  
$EndComp
Text Notes 7250 6900 0    157  ~ 31
sd card
$Comp
L power:+3V3 #PWR076
U 1 1 5F71F1E1
P 950 3050
F 0 "#PWR076" H 950 2900 50  0001 C CNN
F 1 "+3V3" V 965 3178 50  0000 L CNN
F 2 "" H 950 3050 50  0001 C CNN
F 3 "" H 950 3050 50  0001 C CNN
	1    950  3050
	0    -1   -1   0   
$EndComp
Wire Wire Line
	950  3050 1200 3050
$Comp
L Device:C C75
U 1 1 5F71F22D
P 1200 3300
F 0 "C75" H 1315 3346 50  0000 L CNN
F 1 "10uF" H 1315 3255 50  0000 L CNN
F 2 "Capacitor_SMD:C_0402_1005Metric" H 1238 3150 50  0001 C CNN
F 3 "~" H 1200 3300 50  0001 C CNN
	1    1200 3300
	1    0    0    -1  
$EndComp
$Comp
L power:GND #PWR077
U 1 1 5F71F27D
P 1200 3750
F 0 "#PWR077" H 1200 3500 50  0001 C CNN
F 1 "GND" H 1205 3577 50  0000 C CNN
F 2 "" H 1200 3750 50  0001 C CNN
F 3 "" H 1200 3750 50  0001 C CNN
	1    1200 3750
	1    0    0    -1  
$EndComp
Wire Wire Line
	10900 3900 10900 3650
Wire Wire Line
	1200 3750 1200 3450
Wire Wire Line
	1200 3150 1200 3050
$Comp
L power:GND #PWR084
U 1 1 5F720D21
P 9050 3250
F 0 "#PWR084" H 9050 3000 50  0001 C CNN
F 1 "GND" V 9055 3122 50  0000 R CNN
F 2 "" H 9050 3250 50  0001 C CNN
F 3 "" H 9050 3250 50  0001 C CNN
	1    9050 3250
	0    1    1    0   
$EndComp
Wire Wire Line
	9050 3250 9200 3250
$Comp
L Device:R R38
U 1 1 5F721A31
P 2950 3150
F 0 "R38" V 2900 3300 50  0000 C CNN
F 1 "33" V 2950 3100 50  0000 C CNN
F 2 "Resistor_SMD:R_0402_1005Metric" V 2880 3150 50  0001 C CNN
F 3 "~" H 2950 3150 50  0001 C CNN
	1    2950 3150
	0    1    1    0   
$EndComp
Wire Wire Line
	3100 3150 3300 3150
$Comp
L Device:C C76
U 1 1 5F7227F0
P 3300 3500
F 0 "C76" H 3415 3546 50  0000 L CNN
F 1 "10pF" H 3415 3455 50  0000 L CNN
F 2 "Capacitor_SMD:C_0402_1005Metric" H 3338 3350 50  0001 C CNN
F 3 "~" H 3300 3500 50  0001 C CNN
	1    3300 3500
	1    0    0    -1  
$EndComp
$Comp
L power:GND #PWR078
U 1 1 5F722816
P 3300 4150
F 0 "#PWR078" H 3300 3900 50  0001 C CNN
F 1 "GND" H 3305 3977 50  0000 C CNN
F 2 "" H 3300 4150 50  0001 C CNN
F 3 "" H 3300 4150 50  0001 C CNN
	1    3300 4150
	1    0    0    -1  
$EndComp
Wire Wire Line
	3300 4150 3300 3650
Wire Wire Line
	3300 3350 3300 3150
$Comp
L Device:R R43
U 1 1 5F7228D1
P 5750 2350
F 0 "R43" V 5650 2350 50  0000 C CNN
F 1 "10k" V 5750 2350 50  0000 C CNN
F 2 "Resistor_SMD:R_0402_1005Metric" V 5680 2350 50  0001 C CNN
F 3 "~" H 5750 2350 50  0001 C CNN
	1    5750 2350
	-1   0    0    1   
$EndComp
Wire Wire Line
	5750 2750 5750 2500
$Comp
L power:+3V3 #PWR079
U 1 1 5F722CB3
P 5250 1950
F 0 "#PWR079" H 5250 1800 50  0001 C CNN
F 1 "+3V3" H 5265 2123 50  0000 C CNN
F 2 "" H 5250 1950 50  0001 C CNN
F 3 "" H 5250 1950 50  0001 C CNN
	1    5250 1950
	1    0    0    -1  
$EndComp
Wire Wire Line
	5750 2200 5750 1950
Wire Wire Line
	5750 1950 5500 1950
$Comp
L Device:R R42
U 1 1 5F722D7B
P 5500 2350
F 0 "R42" V 5400 2350 50  0000 C CNN
F 1 "10k" V 5500 2350 50  0000 C CNN
F 2 "Resistor_SMD:R_0402_1005Metric" V 5430 2350 50  0001 C CNN
F 3 "~" H 5500 2350 50  0001 C CNN
	1    5500 2350
	-1   0    0    1   
$EndComp
$Comp
L Device:R R41
U 1 1 5F722E01
P 5250 2350
F 0 "R41" V 5150 2350 50  0000 C CNN
F 1 "10k" V 5250 2350 50  0000 C CNN
F 2 "Resistor_SMD:R_0402_1005Metric" V 5180 2350 50  0001 C CNN
F 3 "~" H 5250 2350 50  0001 C CNN
	1    5250 2350
	-1   0    0    1   
$EndComp
Wire Wire Line
	5500 2200 5500 1950
Connection ~ 5500 1950
Wire Wire Line
	5250 2200 5250 1950
Wire Wire Line
	5250 1950 5500 1950
Wire Wire Line
	5500 2850 5500 2500
Wire Wire Line
	5250 2950 5250 2500
$Comp
L Device:R R40
U 1 1 5F7232FC
P 5000 2350
F 0 "R40" V 4900 2350 50  0000 C CNN
F 1 "10k" V 5000 2350 50  0000 C CNN
F 2 "Resistor_SMD:R_0402_1005Metric" V 4930 2350 50  0001 C CNN
F 3 "~" H 5000 2350 50  0001 C CNN
	1    5000 2350
	-1   0    0    1   
$EndComp
$Comp
L Device:R R39
U 1 1 5F723324
P 4750 2350
F 0 "R39" V 4650 2350 50  0000 C CNN
F 1 "10k" V 4750 2350 50  0000 C CNN
F 2 "Resistor_SMD:R_0402_1005Metric" V 4680 2350 50  0001 C CNN
F 3 "~" H 4750 2350 50  0001 C CNN
	1    4750 2350
	-1   0    0    1   
$EndComp
Wire Wire Line
	4750 2200 4750 1950
Wire Wire Line
	4750 1950 5000 1950
Connection ~ 5250 1950
Wire Wire Line
	5000 2200 5000 1950
Connection ~ 5000 1950
Wire Wire Line
	5000 1950 5250 1950
Wire Wire Line
	5000 2500 5000 3350
Wire Wire Line
	4750 2500 4750 3450
Wire Wire Line
	5750 2750 4550 2750
Wire Wire Line
	5500 2850 4550 2850
Wire Wire Line
	5250 2950 4550 2950
Wire Wire Line
	5000 3350 4550 3350
Wire Wire Line
	4750 3450 4550 3450
Wire Wire Line
	2800 3150 2600 3150
Text GLabel 4550 2750 0    50   Input ~ 0
msc0_d2
Text GLabel 4550 2850 0    50   Input ~ 0
msc0_d3
Text GLabel 4550 2950 0    50   Input ~ 0
msc0_cmd
Text GLabel 2600 3150 0    50   Input ~ 0
msc0_clk
Text GLabel 4550 3350 0    50   Input ~ 0
msc0_d0
Text GLabel 4550 3450 0    50   Input ~ 0
msc0_d1
$Comp
L esd_protection:PESDALC10N5VU D3
U 1 1 5E6832B0
P 8000 2950
F 0 "D3" H 7800 3300 50  0000 C CNN
F 1 "PESDALC10N5VU" H 8350 3300 50  0000 C CNN
F 2 "package_dfn:dfn-10_2.7x1mm_p0.5mm" H 8300 2500 157 0001 C CNN
F 3 "" H 8300 2500 157 0001 C CNN
F 4 "(sedfn05v4)" H 8350 3400 50  0000 C CNN "alternative"
	1    8000 2950
	1    0    0    -1  
$EndComp
Wire Wire Line
	8400 2750 8700 2750
Wire Wire Line
	8400 2850 8750 2850
Wire Wire Line
	9200 2950 8800 2950
Wire Wire Line
	8400 3050 8850 3050
Wire Wire Line
	7550 2750 7500 2750
Connection ~ 5750 2750
Wire Wire Line
	5500 2850 7450 2850
Connection ~ 5500 2850
Wire Wire Line
	7550 2950 7400 2950
Connection ~ 5250 2950
Wire Wire Line
	7550 3050 7350 3050
Connection ~ 1200 3050
$Comp
L esd_protection:PESDALC10N5VU D2
U 1 1 5E6878D8
P 6700 4300
F 0 "D2" H 6500 4650 50  0000 C CNN
F 1 "PESDALC10N5VU" H 7050 4650 50  0000 C CNN
F 2 "package_dfn:dfn-10_2.7x1mm_p0.5mm" H 7000 3850 157 0001 C CNN
F 3 "" H 7000 3850 157 0001 C CNN
F 4 "(sedfn05v4)" H 7050 4750 50  0000 C CNN "alternative"
	1    6700 4300
	1    0    0    -1  
$EndComp
$Comp
L power:GND #PWR083
U 1 1 5E687932
P 8000 3500
F 0 "#PWR083" H 8000 3250 50  0001 C CNN
F 1 "GND" H 8005 3327 50  0000 C CNN
F 2 "" H 8000 3500 50  0001 C CNN
F 3 "" H 8000 3500 50  0001 C CNN
	1    8000 3500
	1    0    0    -1  
$EndComp
$Comp
L power:GND #PWR082
U 1 1 5E687953
P 8000 2450
F 0 "#PWR082" H 8000 2200 50  0001 C CNN
F 1 "GND" H 8005 2277 50  0000 C CNN
F 2 "" H 8000 2450 50  0001 C CNN
F 3 "" H 8000 2450 50  0001 C CNN
	1    8000 2450
	-1   0    0    1   
$EndComp
$Comp
L power:GND #PWR080
U 1 1 5E687A8F
P 6700 3800
F 0 "#PWR080" H 6700 3550 50  0001 C CNN
F 1 "GND" H 6705 3627 50  0000 C CNN
F 2 "" H 6700 3800 50  0001 C CNN
F 3 "" H 6700 3800 50  0001 C CNN
	1    6700 3800
	-1   0    0    1   
$EndComp
$Comp
L power:GND #PWR081
U 1 1 5E687AB0
P 6700 4850
F 0 "#PWR081" H 6700 4600 50  0001 C CNN
F 1 "GND" H 6705 4677 50  0000 C CNN
F 2 "" H 6700 4850 50  0001 C CNN
F 3 "" H 6700 4850 50  0001 C CNN
	1    6700 4850
	1    0    0    -1  
$EndComp
Wire Wire Line
	9200 3150 8350 3150
Wire Wire Line
	8350 3150 8350 4100
Wire Wire Line
	8350 4100 7400 4100
Wire Wire Line
	6250 4100 6200 4100
Wire Wire Line
	5850 4100 5850 3150
Wire Wire Line
	5850 3150 3300 3150
Connection ~ 3300 3150
Wire Wire Line
	9200 3350 8500 3350
Wire Wire Line
	8500 3350 8500 4200
Wire Wire Line
	8500 4200 7450 4200
Wire Wire Line
	6250 4200 6150 4200
Wire Wire Line
	5700 4200 5700 3350
Wire Wire Line
	5700 3350 5000 3350
Connection ~ 5000 3350
Wire Wire Line
	9200 3450 8650 3450
Wire Wire Line
	8650 3450 8650 4300
Wire Wire Line
	8650 4300 7500 4300
Wire Wire Line
	6250 4300 6100 4300
Wire Wire Line
	5550 4300 5550 3450
Wire Wire Line
	5550 3450 4750 3450
Connection ~ 4750 3450
$Comp
L power:Earth_Protective #PWR085
U 1 1 5E774CDF
P 10900 3900
F 0 "#PWR085" H 11150 3650 50  0001 C CNN
F 1 "Earth_Protective" H 11350 3750 50  0001 C CNN
F 2 "" H 10900 3800 50  0001 C CNN
F 3 "~" H 10900 3800 50  0001 C CNN
	1    10900 3900
	1    0    0    -1  
$EndComp
Wire Wire Line
	7500 2750 7500 2150
Wire Wire Line
	7500 2150 8700 2150
Wire Wire Line
	8700 2150 8700 2750
Connection ~ 7500 2750
Wire Wire Line
	7500 2750 5750 2750
Connection ~ 8700 2750
Wire Wire Line
	8700 2750 9200 2750
Wire Wire Line
	7450 2850 7450 2100
Wire Wire Line
	7450 2100 8750 2100
Wire Wire Line
	8750 2100 8750 2850
Connection ~ 7450 2850
Wire Wire Line
	7450 2850 7550 2850
Connection ~ 8750 2850
Wire Wire Line
	8750 2850 9200 2850
Wire Wire Line
	7400 2950 7400 2050
Wire Wire Line
	7400 2050 8800 2050
Wire Wire Line
	8800 2050 8800 2950
Connection ~ 7400 2950
Wire Wire Line
	7400 2950 5250 2950
Connection ~ 8800 2950
Wire Wire Line
	8800 2950 8400 2950
Wire Wire Line
	7350 3050 7350 2000
Wire Wire Line
	7350 2000 8850 2000
Wire Wire Line
	8850 2000 8850 3050
Connection ~ 7350 3050
Wire Wire Line
	7350 3050 1200 3050
Connection ~ 8850 3050
Wire Wire Line
	8850 3050 9200 3050
Wire Wire Line
	6200 4100 6200 3500
Wire Wire Line
	6200 3500 7400 3500
Wire Wire Line
	7400 3500 7400 4100
Connection ~ 6200 4100
Wire Wire Line
	6200 4100 5850 4100
Connection ~ 7400 4100
Wire Wire Line
	7400 4100 7100 4100
Wire Wire Line
	6150 4200 6150 3450
Wire Wire Line
	6150 3450 7450 3450
Wire Wire Line
	7450 3450 7450 4200
Connection ~ 6150 4200
Wire Wire Line
	6150 4200 5700 4200
Connection ~ 7450 4200
Wire Wire Line
	7450 4200 7100 4200
Wire Wire Line
	6100 4300 6100 3400
Wire Wire Line
	6100 3400 7500 3400
Wire Wire Line
	7500 3400 7500 4300
Connection ~ 6100 4300
Wire Wire Line
	6100 4300 5550 4300
Connection ~ 7500 4300
Wire Wire Line
	7500 4300 7100 4300
Wire Wire Line
	6250 4400 6250 5100
Wire Wire Line
	6250 5100 7100 5100
Wire Wire Line
	7100 5100 7100 4400
$EndSCHEMATC
