EESchema Schematic File Version 4
LIBS:mainboard-cache
EELAYER 26 0
EELAYER END
$Descr A4 11693 8268
encoding utf-8
Sheet 7 13
Title ""
Date ""
Rev ""
Comp ""
Comment1 ""
Comment2 ""
Comment3 ""
Comment4 ""
$EndDescr
$Comp
L cpu_ingenic:jz4780 U1
U 4 1 5E65C28B
P 5800 3850
F 0 "U1" H 5800 1664 50  0000 C CNN
F 1 "jz4780" H 5800 1573 50  0000 C CNN
F 2 "ingenic:jz4780" H 4850 5200 50  0001 C CNN
F 3 "ftp://ftp.ingenic.com/SOC/JZ4780/JZ4780_DS.PDF" H 5950 6150 50  0001 C CNN
	4    5800 3850
	1    0    0    -1  
$EndComp
Text Notes 7100 7000 0    118  ~ 24
cpu unit d\nuart
$Comp
L Connector_Generic:Conn_02x07_Odd_Even J3
U 1 1 5E65E5FD
P 1950 4100
F 0 "J3" H 2000 4617 50  0000 C CNN
F 1 "Conn_02x07_Odd_Even" H 2000 4526 50  0000 C CNN
F 2 "connector_idc:IDC-Header_2x07_P1.27mm_Vertical" H 1950 4100 50  0001 C CNN
F 3 "~" H 1950 4100 50  0001 C CNN
	1    1950 4100
	-1   0    0    -1  
$EndComp
Wire Wire Line
	2150 3800 4300 3800
Wire Wire Line
	4300 3800 4300 3900
Wire Wire Line
	4300 3900 4550 3900
Wire Wire Line
	2150 3900 4150 3900
Wire Wire Line
	4150 3900 4150 4200
Wire Wire Line
	4150 4200 4550 4200
Wire Wire Line
	2150 4000 3850 4000
Wire Wire Line
	3850 4000 3850 4300
Wire Wire Line
	3850 4300 4550 4300
Wire Wire Line
	2150 4100 4550 4100
Wire Wire Line
	4550 4000 4000 4000
Wire Wire Line
	4000 4000 4000 4200
Wire Wire Line
	4000 4200 2150 4200
NoConn ~ 2150 4400
NoConn ~ 1650 4300
$Comp
L power:GND #PWR099
U 1 1 5E65FDA7
P 1350 3550
F 0 "#PWR099" H 1350 3300 50  0001 C CNN
F 1 "GND" H 1355 3377 50  0000 C CNN
F 2 "" H 1350 3550 50  0001 C CNN
F 3 "" H 1350 3550 50  0001 C CNN
	1    1350 3550
	-1   0    0    1   
$EndComp
Wire Wire Line
	1350 4200 1650 4200
Wire Wire Line
	1650 4100 1350 4100
Connection ~ 1350 4100
Wire Wire Line
	1350 4100 1350 4200
Wire Wire Line
	1650 4000 1350 4000
Wire Wire Line
	1350 3550 1350 3800
Connection ~ 1350 4000
Wire Wire Line
	1350 4000 1350 4100
Wire Wire Line
	1650 3900 1350 3900
Connection ~ 1350 3900
Wire Wire Line
	1350 3900 1350 4000
Wire Wire Line
	1650 3800 1350 3800
Connection ~ 1350 3800
Wire Wire Line
	1350 3800 1350 3900
$Comp
L Device:R R48
U 1 1 5E660B1D
P 1300 4400
F 0 "R48" H 1370 4446 50  0000 L CNN
F 1 "0" V 1300 4350 50  0000 L CNN
F 2 "Resistor_SMD:R_0402_1005Metric" V 1230 4400 50  0001 C CNN
F 3 "~" H 1300 4400 50  0001 C CNN
	1    1300 4400
	0    -1   -1   0   
$EndComp
Wire Wire Line
	1000 4400 1150 4400
$Comp
L power:+3V3 #PWR097
U 1 1 5E6614E0
P 1000 4400
F 0 "#PWR097" H 1000 4250 50  0001 C CNN
F 1 "+3V3" V 1015 4573 50  0000 C CNN
F 2 "" H 1000 4400 50  0001 C CNN
F 3 "" H 1000 4400 50  0001 C CNN
	1    1000 4400
	0    -1   -1   0   
$EndComp
Text Notes 1850 3450 0    50   ~ 10
jtag
Text GLabel 4400 6000 2    50   Input ~ 0
vdd_mem
Wire Wire Line
	4550 4900 4400 4900
Wire Wire Line
	4400 4900 4400 4950
Wire Wire Line
	4400 5800 4550 5800
Connection ~ 4400 5600
Wire Wire Line
	4400 5600 4400 5650
Wire Wire Line
	4400 5700 4550 5700
Connection ~ 4400 5700
Wire Wire Line
	4400 5700 4400 5800
Wire Wire Line
	4550 5600 4400 5600
Wire Wire Line
	4400 5500 4550 5500
Connection ~ 4400 5500
Wire Wire Line
	4400 5500 4400 5600
Wire Wire Line
	4550 5400 4400 5400
Connection ~ 4400 5400
Wire Wire Line
	4400 5400 4400 5500
Wire Wire Line
	4400 5300 4550 5300
Connection ~ 4400 5300
Wire Wire Line
	4400 5300 4400 5350
Wire Wire Line
	4550 5200 4400 5200
Connection ~ 4400 5200
Wire Wire Line
	4400 5200 4400 5300
Wire Wire Line
	4400 5100 4550 5100
Connection ~ 4400 5100
Wire Wire Line
	4400 5100 4400 5150
Wire Wire Line
	4550 5000 4400 5000
Connection ~ 4400 5000
Wire Wire Line
	4400 5000 4400 5100
Wire Wire Line
	7050 2300 7200 2300
Wire Wire Line
	7200 2300 7200 2200
Wire Wire Line
	7200 1500 6750 1500
Wire Wire Line
	5950 1500 5950 1650
Wire Wire Line
	6050 1650 6050 1500
Connection ~ 6050 1500
Wire Wire Line
	6050 1500 5950 1500
Wire Wire Line
	6150 1650 6150 1500
Connection ~ 6150 1500
Wire Wire Line
	6150 1500 6050 1500
Wire Wire Line
	6250 1650 6250 1500
Connection ~ 6250 1500
Wire Wire Line
	6250 1500 6200 1500
Wire Wire Line
	6350 1650 6350 1500
Connection ~ 6350 1500
Wire Wire Line
	6350 1500 6250 1500
Wire Wire Line
	6450 1650 6450 1500
Connection ~ 6450 1500
Wire Wire Line
	6450 1500 6350 1500
Wire Wire Line
	6550 1650 6550 1500
Connection ~ 6550 1500
Wire Wire Line
	6550 1500 6450 1500
Wire Wire Line
	6650 1650 6650 1500
Connection ~ 6650 1500
Wire Wire Line
	6650 1500 6550 1500
Wire Wire Line
	6750 1650 6750 1500
Connection ~ 6750 1500
Wire Wire Line
	6750 1500 6650 1500
Wire Wire Line
	7050 1800 7200 1800
Connection ~ 7200 1800
Wire Wire Line
	7200 1800 7200 1500
Wire Wire Line
	7050 1900 7200 1900
Connection ~ 7200 1900
Wire Wire Line
	7200 1900 7200 1850
Wire Wire Line
	7050 2000 7200 2000
Connection ~ 7200 2000
Wire Wire Line
	7200 2000 7200 1900
Wire Wire Line
	7050 2100 7200 2100
Connection ~ 7200 2100
Wire Wire Line
	7200 2100 7200 2050
Wire Wire Line
	7050 2200 7200 2200
Connection ~ 7200 2200
Wire Wire Line
	7200 2200 7200 2100
Wire Wire Line
	7200 1500 7350 1500
Connection ~ 7200 1500
Text GLabel 7350 1500 2    50   Input ~ 0
vdd_core
Wire Wire Line
	7050 5500 7200 5500
Wire Wire Line
	7200 5500 7200 5600
Wire Wire Line
	7200 6100 6500 6100
Wire Wire Line
	6000 6100 6000 5950
Wire Wire Line
	6100 5950 6100 6100
Connection ~ 6100 6100
Wire Wire Line
	6100 6100 6000 6100
Wire Wire Line
	6200 5950 6200 6100
Connection ~ 6200 6100
Wire Wire Line
	6200 6100 6100 6100
Wire Wire Line
	6300 5950 6300 6100
Connection ~ 6300 6100
Wire Wire Line
	6300 6100 6200 6100
Wire Wire Line
	6400 5950 6400 6100
Connection ~ 6400 6100
Wire Wire Line
	6400 6100 6300 6100
Wire Wire Line
	6500 5950 6500 6100
Connection ~ 6500 6100
Wire Wire Line
	6500 6100 6400 6100
Wire Wire Line
	7050 5800 7200 5800
Connection ~ 7200 5800
Wire Wire Line
	7200 5800 7200 6100
Wire Wire Line
	7050 5700 7200 5700
Connection ~ 7200 5700
Wire Wire Line
	7200 5700 7200 5800
Wire Wire Line
	7050 5600 7200 5600
Connection ~ 7200 5600
Wire Wire Line
	7200 5600 7200 5700
$Comp
L power:GND #PWR0105
U 1 1 5E73E794
P 6500 6250
F 0 "#PWR0105" H 6500 6000 50  0001 C CNN
F 1 "GND" H 6505 6077 50  0000 C CNN
F 2 "" H 6500 6250 50  0001 C CNN
F 3 "" H 6500 6250 50  0001 C CNN
	1    6500 6250
	1    0    0    -1  
$EndComp
Wire Wire Line
	6500 6250 6500 6100
Wire Wire Line
	7050 4600 7200 4600
Wire Wire Line
	7200 2400 7050 2400
Wire Wire Line
	7050 2500 7200 2500
Connection ~ 7200 2500
Wire Wire Line
	7200 2500 7200 2400
Wire Wire Line
	7200 2600 7050 2600
Connection ~ 7200 2600
Wire Wire Line
	7200 2600 7200 2500
Wire Wire Line
	7050 2700 7200 2700
Connection ~ 7200 2700
Wire Wire Line
	7200 2700 7200 2600
Wire Wire Line
	7200 2800 7050 2800
Connection ~ 7200 2800
Wire Wire Line
	7200 2800 7200 2700
Wire Wire Line
	7050 2900 7200 2900
Connection ~ 7200 2900
Wire Wire Line
	7200 2900 7200 2800
Wire Wire Line
	7200 3000 7050 3000
Connection ~ 7200 3000
Wire Wire Line
	7200 3000 7200 2900
Wire Wire Line
	7050 3100 7200 3100
Connection ~ 7200 3100
Wire Wire Line
	7200 3100 7200 3000
Wire Wire Line
	7050 3200 7200 3200
Wire Wire Line
	7200 3100 7200 3200
Connection ~ 7200 3200
Wire Wire Line
	7200 3200 7200 3300
Wire Wire Line
	7200 3300 7050 3300
Connection ~ 7200 3300
Wire Wire Line
	7200 3300 7200 3400
Wire Wire Line
	7050 3400 7200 3400
Connection ~ 7200 3400
Wire Wire Line
	7200 3400 7200 3500
Wire Wire Line
	7200 3500 7050 3500
Connection ~ 7200 3500
Wire Wire Line
	7200 3500 7200 3600
Wire Wire Line
	7050 3600 7200 3600
Connection ~ 7200 3600
Wire Wire Line
	7200 3600 7200 3700
Wire Wire Line
	7200 3700 7050 3700
Connection ~ 7200 3700
Wire Wire Line
	7200 3700 7200 3800
Wire Wire Line
	7050 3800 7200 3800
Connection ~ 7200 3800
Wire Wire Line
	7200 3800 7200 3900
Wire Wire Line
	7200 3900 7050 3900
Connection ~ 7200 3900
Wire Wire Line
	7200 3900 7200 4000
Wire Wire Line
	7050 4000 7200 4000
Connection ~ 7200 4000
Wire Wire Line
	7200 4000 7200 4100
Wire Wire Line
	7200 4100 7050 4100
Connection ~ 7200 4100
Wire Wire Line
	7200 4100 7200 4200
Wire Wire Line
	7050 4200 7200 4200
Connection ~ 7200 4200
Wire Wire Line
	7200 4200 7200 4300
Wire Wire Line
	7200 4300 7050 4300
Connection ~ 7200 4300
Wire Wire Line
	7200 4300 7200 4400
Wire Wire Line
	7050 4400 7200 4400
Connection ~ 7200 4400
Wire Wire Line
	7200 4400 7200 4500
Wire Wire Line
	7200 4500 7050 4500
Connection ~ 7200 4500
Wire Wire Line
	7200 4500 7200 4600
$Comp
L power:GND #PWR0107
U 1 1 5E78D3D3
P 7400 3800
F 0 "#PWR0107" H 7400 3550 50  0001 C CNN
F 1 "GND" V 7405 3672 50  0000 R CNN
F 2 "" H 7400 3800 50  0001 C CNN
F 3 "" H 7400 3800 50  0001 C CNN
	1    7400 3800
	0    -1   -1   0   
$EndComp
Wire Wire Line
	7400 3800 7200 3800
Wire Wire Line
	7050 5000 7200 5000
Wire Wire Line
	7200 5000 7200 4900
Wire Wire Line
	7200 4700 7050 4700
Wire Wire Line
	7050 4800 7200 4800
Connection ~ 7200 4800
Wire Wire Line
	7200 4800 7200 4700
Wire Wire Line
	7200 4900 7050 4900
Connection ~ 7200 4900
Wire Wire Line
	7200 4900 7200 4850
$Comp
L power:+3V3 #PWR0108
U 1 1 5E7A54B7
P 7800 4850
F 0 "#PWR0108" H 7800 4700 50  0001 C CNN
F 1 "+3V3" V 7815 4978 50  0000 L CNN
F 2 "" H 7800 4850 50  0001 C CNN
F 3 "" H 7800 4850 50  0001 C CNN
	1    7800 4850
	0    1    1    0   
$EndComp
Wire Wire Line
	7050 5400 7200 5400
Wire Wire Line
	7200 5400 7200 5300
Connection ~ 7200 5000
Wire Wire Line
	7050 5300 7200 5300
Connection ~ 7200 5300
Wire Wire Line
	7200 5300 7200 5200
Wire Wire Line
	7050 5200 7200 5200
Connection ~ 7200 5200
Wire Wire Line
	7200 5200 7200 5100
Wire Wire Line
	7050 5100 7200 5100
Connection ~ 7200 5100
Wire Wire Line
	7200 5100 7200 5000
Text GLabel 2900 4300 2    50   Input ~ 0
reset_n
Wire Wire Line
	1450 4400 1650 4400
$Comp
L Device:C C79
U 1 1 5E806A3D
P 4050 4950
F 0 "C79" V 4100 5050 50  0000 C CNN
F 1 "0.1uF" V 4000 5100 50  0000 C CNN
F 2 "Capacitor_SMD:C_0402_1005Metric" H 4088 4800 50  0001 C CNN
F 3 "~" H 4050 4950 50  0001 C CNN
	1    4050 4950
	0    1    1    0   
$EndComp
Wire Wire Line
	4200 4950 4400 4950
Connection ~ 4400 4950
Wire Wire Line
	4400 4950 4400 5000
$Comp
L power:GND #PWR0102
U 1 1 5E80C207
P 3750 5350
F 0 "#PWR0102" H 3750 5100 50  0001 C CNN
F 1 "GND" V 3755 5222 50  0000 R CNN
F 2 "" H 3750 5350 50  0001 C CNN
F 3 "" H 3750 5350 50  0001 C CNN
	1    3750 5350
	0    1    1    0   
$EndComp
Wire Wire Line
	4400 6000 4400 5900
Connection ~ 4400 5800
Wire Wire Line
	3900 4950 3750 4950
Wire Wire Line
	3750 4950 3750 5150
$Comp
L Device:C C80
U 1 1 5E8229B8
P 4050 5150
F 0 "C80" V 4100 5250 50  0000 C CNN
F 1 "0.1uF" V 4000 5300 50  0000 C CNN
F 2 "Capacitor_SMD:C_0402_1005Metric" H 4088 5000 50  0001 C CNN
F 3 "~" H 4050 5150 50  0001 C CNN
	1    4050 5150
	0    1    1    0   
$EndComp
$Comp
L Device:C C81
U 1 1 5E822ABA
P 4050 5350
F 0 "C81" V 4100 5450 50  0000 C CNN
F 1 "0.1uF" V 4000 5500 50  0000 C CNN
F 2 "Capacitor_SMD:C_0402_1005Metric" H 4088 5200 50  0001 C CNN
F 3 "~" H 4050 5350 50  0001 C CNN
	1    4050 5350
	0    1    1    0   
$EndComp
$Comp
L Device:C C82
U 1 1 5E822AE2
P 4050 5650
F 0 "C82" V 4100 5750 50  0000 C CNN
F 1 "0.1uF" V 4000 5800 50  0000 C CNN
F 2 "Capacitor_SMD:C_0402_1005Metric" H 4088 5500 50  0001 C CNN
F 3 "~" H 4050 5650 50  0001 C CNN
	1    4050 5650
	0    1    1    0   
$EndComp
Wire Wire Line
	4200 5150 4400 5150
Connection ~ 4400 5150
Wire Wire Line
	4400 5150 4400 5200
Wire Wire Line
	4200 5350 4400 5350
Connection ~ 4400 5350
Wire Wire Line
	4400 5350 4400 5400
Wire Wire Line
	4200 5650 4400 5650
Connection ~ 4400 5650
Wire Wire Line
	4400 5650 4400 5700
Wire Wire Line
	3900 5650 3750 5650
Wire Wire Line
	3900 5350 3750 5350
Connection ~ 3750 5350
Wire Wire Line
	3900 5150 3750 5150
Connection ~ 3750 5150
Wire Wire Line
	3750 5150 3750 5350
Wire Wire Line
	3750 5350 3750 5650
Wire Wire Line
	4200 5900 4400 5900
Connection ~ 4400 5900
Wire Wire Line
	4400 5900 4400 5800
Wire Wire Line
	3900 5900 3750 5900
Wire Wire Line
	3750 5900 3750 5650
Connection ~ 3750 5650
$Comp
L Device:C C83
U 1 1 5E86F409
P 4050 5900
F 0 "C83" V 4100 6000 50  0000 C CNN
F 1 "22uF" V 4000 6050 50  0000 C CNN
F 2 "Capacitor_SMD:C_0603_1608Metric" H 4088 5750 50  0001 C CNN
F 3 "~" H 4050 5900 50  0001 C CNN
	1    4050 5900
	0    1    1    0   
$EndComp
$Comp
L Device:C C89
U 1 1 5E8E2FBE
P 7550 2300
F 0 "C89" V 7600 2450 50  0000 C CNN
F 1 "22uF" V 7500 2450 50  0000 C CNN
F 2 "Capacitor_SMD:C_0603_1608Metric" H 7588 2150 50  0001 C CNN
F 3 "~" H 7550 2300 50  0001 C CNN
	1    7550 2300
	0    1    1    0   
$EndComp
$Comp
L Device:C C84
U 1 1 5E8E30AC
P 5950 1200
F 0 "C84" V 6000 1050 50  0000 C CNN
F 1 "0.1uF" V 5900 1050 50  0000 C CNN
F 2 "Capacitor_SMD:C_0402_1005Metric" H 5988 1050 50  0001 C CNN
F 3 "~" H 5950 1200 50  0001 C CNN
	1    5950 1200
	-1   0    0    1   
$EndComp
$Comp
L power:GND #PWR0106
U 1 1 5E8E313E
P 7000 900
F 0 "#PWR0106" H 7000 650 50  0001 C CNN
F 1 "GND" H 7005 727 50  0000 C CNN
F 2 "" H 7000 900 50  0001 C CNN
F 3 "" H 7000 900 50  0001 C CNN
	1    7000 900 
	-1   0    0    1   
$EndComp
Wire Wire Line
	5950 1350 5950 1500
Connection ~ 5950 1500
Wire Wire Line
	5950 1050 5950 900 
Wire Wire Line
	5950 900  6200 900 
$Comp
L Device:C C85
U 1 1 5E91FC1B
P 6200 1200
F 0 "C85" V 6250 1050 50  0000 C CNN
F 1 "0.1uF" V 6150 1050 50  0000 C CNN
F 2 "Capacitor_SMD:C_0402_1005Metric" H 6238 1050 50  0001 C CNN
F 3 "~" H 6200 1200 50  0001 C CNN
	1    6200 1200
	-1   0    0    1   
$EndComp
Wire Wire Line
	6200 1350 6200 1500
Connection ~ 6200 1500
Wire Wire Line
	6200 1500 6150 1500
$Comp
L Device:C C86
U 1 1 5E927B92
P 6550 1200
F 0 "C86" V 6600 1050 50  0000 C CNN
F 1 "0.1uF" V 6500 1050 50  0000 C CNN
F 2 "Capacitor_SMD:C_0402_1005Metric" H 6588 1050 50  0001 C CNN
F 3 "~" H 6550 1200 50  0001 C CNN
	1    6550 1200
	-1   0    0    1   
$EndComp
Wire Wire Line
	6550 1500 6550 1350
$Comp
L Device:C C87
U 1 1 5E940547
P 7550 1850
F 0 "C87" V 7600 1700 50  0000 C CNN
F 1 "0.1uF" V 7500 1700 50  0000 C CNN
F 2 "Capacitor_SMD:C_0402_1005Metric" H 7588 1700 50  0001 C CNN
F 3 "~" H 7550 1850 50  0001 C CNN
	1    7550 1850
	0    -1   -1   0   
$EndComp
Wire Wire Line
	7400 1850 7200 1850
Connection ~ 7200 1850
Wire Wire Line
	7200 1850 7200 1800
$Comp
L Device:C C88
U 1 1 5E948942
P 7550 2050
F 0 "C88" V 7600 1900 50  0000 C CNN
F 1 "0.1uF" V 7500 1900 50  0000 C CNN
F 2 "Capacitor_SMD:C_0402_1005Metric" H 7588 1900 50  0001 C CNN
F 3 "~" H 7550 2050 50  0001 C CNN
	1    7550 2050
	0    -1   -1   0   
$EndComp
Wire Wire Line
	7400 2050 7200 2050
Connection ~ 7200 2050
Wire Wire Line
	7200 2050 7200 2000
Wire Wire Line
	7200 2300 7400 2300
Connection ~ 7200 2300
Wire Wire Line
	7700 2300 7850 2300
Wire Wire Line
	7850 2300 7850 2050
Wire Wire Line
	7850 900  7000 900 
Connection ~ 7000 900 
Wire Wire Line
	6200 1050 6200 900 
Connection ~ 6200 900 
Wire Wire Line
	6200 900  6550 900 
Wire Wire Line
	6550 1050 6550 900 
Connection ~ 6550 900 
Wire Wire Line
	6550 900  7000 900 
Wire Wire Line
	7700 1850 7850 1850
Connection ~ 7850 1850
Wire Wire Line
	7850 1850 7850 900 
Wire Wire Line
	7700 2050 7850 2050
Connection ~ 7850 2050
Wire Wire Line
	7850 2050 7850 1850
$Comp
L Device:C C90
U 1 1 5E9AAAAA
P 7600 4450
F 0 "C90" V 7650 4600 50  0000 C CNN
F 1 "22uF" V 7550 4600 50  0000 C CNN
F 2 "Capacitor_SMD:C_0603_1608Metric" H 7638 4300 50  0001 C CNN
F 3 "~" H 7600 4450 50  0001 C CNN
	1    7600 4450
	0    1    1    0   
$EndComp
$Comp
L Device:C C91
U 1 1 5E9AAB60
P 7600 4700
F 0 "C91" V 7650 4550 50  0000 C CNN
F 1 "0.1uF" V 7550 4550 50  0000 C CNN
F 2 "Capacitor_SMD:C_0402_1005Metric" H 7638 4550 50  0001 C CNN
F 3 "~" H 7600 4700 50  0001 C CNN
	1    7600 4700
	0    -1   -1   0   
$EndComp
$Comp
L Device:C C92
U 1 1 5E9BDDF0
P 7600 5000
F 0 "C92" V 7650 4850 50  0000 C CNN
F 1 "0.1uF" V 7550 4850 50  0000 C CNN
F 2 "Capacitor_SMD:C_0402_1005Metric" H 7638 4850 50  0001 C CNN
F 3 "~" H 7600 5000 50  0001 C CNN
	1    7600 5000
	0    -1   -1   0   
$EndComp
Wire Wire Line
	7800 4850 7200 4850
Connection ~ 7200 4850
Wire Wire Line
	7200 4850 7200 4800
Wire Wire Line
	7450 4700 7300 4700
Connection ~ 7200 4700
Wire Wire Line
	7450 5000 7200 5000
Wire Wire Line
	7450 4450 7300 4450
Wire Wire Line
	7300 4450 7300 4700
Connection ~ 7300 4700
Wire Wire Line
	7300 4700 7200 4700
$Comp
L power:GND #PWR0109
U 1 1 5EA1498F
P 8600 4700
F 0 "#PWR0109" H 8600 4450 50  0001 C CNN
F 1 "GND" V 8605 4572 50  0000 R CNN
F 2 "" H 8600 4700 50  0001 C CNN
F 3 "" H 8600 4700 50  0001 C CNN
	1    8600 4700
	0    -1   -1   0   
$EndComp
Wire Wire Line
	7750 4450 8600 4450
Wire Wire Line
	8600 4450 8600 4700
$Comp
L Device:C C96
U 1 1 5EA1EC90
P 7950 5400
F 0 "C96" V 8000 5550 50  0000 C CNN
F 1 "0.1uF" V 7900 5550 50  0000 C CNN
F 2 "Capacitor_SMD:C_0402_1005Metric" H 7988 5250 50  0001 C CNN
F 3 "~" H 7950 5400 50  0001 C CNN
	1    7950 5400
	0    -1   -1   0   
$EndComp
$Comp
L Device:C C93
U 1 1 5EA1ECEA
P 7600 5200
F 0 "C93" V 7650 5050 50  0000 C CNN
F 1 "0.1uF" V 7550 5050 50  0000 C CNN
F 2 "Capacitor_SMD:C_0402_1005Metric" H 7638 5050 50  0001 C CNN
F 3 "~" H 7600 5200 50  0001 C CNN
	1    7600 5200
	0    -1   -1   0   
$EndComp
$Comp
L Device:C C95
U 1 1 5EA1ED32
P 7950 5100
F 0 "C95" V 8000 4950 50  0000 C CNN
F 1 "0.1uF" V 7900 4950 50  0000 C CNN
F 2 "Capacitor_SMD:C_0402_1005Metric" H 7988 4950 50  0001 C CNN
F 3 "~" H 7950 5100 50  0001 C CNN
	1    7950 5100
	0    -1   -1   0   
$EndComp
Wire Wire Line
	7450 5200 7200 5200
Wire Wire Line
	7800 5100 7200 5100
Wire Wire Line
	7800 5400 7400 5400
Connection ~ 7200 5400
$Comp
L Device:C C94
U 1 1 5EA5C901
P 7750 5650
F 0 "C94" V 7800 5800 50  0000 C CNN
F 1 "10uF" V 7700 5800 50  0000 C CNN
F 2 "Capacitor_SMD:C_0603_1608Metric" H 7788 5500 50  0001 C CNN
F 3 "~" H 7750 5650 50  0001 C CNN
	1    7750 5650
	0    1    1    0   
$EndComp
Wire Wire Line
	7600 5650 7400 5650
Wire Wire Line
	7400 5650 7400 5550
Connection ~ 7400 5400
Wire Wire Line
	7400 5400 7200 5400
$Comp
L Device:C C97
U 1 1 5EA6737D
P 8250 5300
F 0 "C97" V 8300 5450 50  0000 C CNN
F 1 "10uF" V 8200 5450 50  0000 C CNN
F 2 "Capacitor_SMD:C_0603_1608Metric" H 8288 5150 50  0001 C CNN
F 3 "~" H 8250 5300 50  0001 C CNN
	1    8250 5300
	0    1    1    0   
$EndComp
$Comp
L Device:C C98
U 1 1 5EA67438
P 8250 5550
F 0 "C98" V 8300 5700 50  0000 C CNN
F 1 "10uF" V 8200 5700 50  0000 C CNN
F 2 "Capacitor_SMD:C_0603_1608Metric" H 8288 5400 50  0001 C CNN
F 3 "~" H 8250 5550 50  0001 C CNN
	1    8250 5550
	0    1    1    0   
$EndComp
Wire Wire Line
	8100 5550 7400 5550
Connection ~ 7400 5550
Wire Wire Line
	7400 5550 7400 5400
Wire Wire Line
	8100 5300 7200 5300
Wire Wire Line
	8600 4700 8600 5000
Wire Wire Line
	8600 5650 7900 5650
Connection ~ 8600 4700
Wire Wire Line
	8400 5550 8600 5550
Connection ~ 8600 5550
Wire Wire Line
	8600 5550 8600 5650
Wire Wire Line
	8100 5400 8600 5400
Connection ~ 8600 5400
Wire Wire Line
	8600 5400 8600 5550
Wire Wire Line
	8400 5300 8600 5300
Connection ~ 8600 5300
Wire Wire Line
	8600 5300 8600 5400
Wire Wire Line
	7750 5200 8600 5200
Connection ~ 8600 5200
Wire Wire Line
	8600 5200 8600 5300
Wire Wire Line
	8100 5100 8600 5100
Connection ~ 8600 5100
Wire Wire Line
	8600 5100 8600 5200
Wire Wire Line
	7750 5000 8600 5000
Connection ~ 8600 5000
Wire Wire Line
	8600 5000 8600 5100
Wire Wire Line
	7750 4700 8600 4700
NoConn ~ 4550 4800
NoConn ~ 4550 4700
$Comp
L Device:R R55
U 1 1 5EB02151
P 4150 4600
F 0 "R55" V 4050 4550 50  0000 L CNN
F 1 "10k" V 4150 4550 50  0000 L CNN
F 2 "Resistor_SMD:R_0402_1005Metric" V 4080 4600 50  0001 C CNN
F 3 "~" H 4150 4600 50  0001 C CNN
	1    4150 4600
	0    -1   -1   0   
$EndComp
Wire Wire Line
	4300 4600 4550 4600
$Comp
L power:+3V3 #PWR0101
U 1 1 5EB0E8F6
P 3750 4600
F 0 "#PWR0101" H 3750 4450 50  0001 C CNN
F 1 "+3V3" V 3765 4773 50  0000 C CNN
F 2 "" H 3750 4600 50  0001 C CNN
F 3 "" H 3750 4600 50  0001 C CNN
	1    3750 4600
	0    -1   -1   0   
$EndComp
Wire Wire Line
	3750 4600 4000 4600
$Comp
L Device:R R50
U 1 1 5EB1BE9C
P 1450 7250
F 0 "R50" V 1350 7200 50  0000 L CNN
F 1 "47k" V 1450 7200 50  0000 L CNN
F 2 "Resistor_SMD:R_0402_1005Metric" V 1380 7250 50  0001 C CNN
F 3 "~" H 1450 7250 50  0001 C CNN
	1    1450 7250
	0    -1   -1   0   
$EndComp
$Comp
L Device:R R49
U 1 1 5EB1BF0A
P 1450 7050
F 0 "R49" V 1350 7000 50  0000 L CNN
F 1 "47k" V 1450 7000 50  0000 L CNN
F 2 "Resistor_SMD:R_0402_1005Metric" V 1380 7050 50  0001 C CNN
F 3 "~" H 1450 7050 50  0001 C CNN
	1    1450 7050
	0    -1   -1   0   
$EndComp
Wire Wire Line
	4050 4400 4550 4400
Wire Wire Line
	4550 4500 4050 4500
$Comp
L power:GND #PWR098
U 1 1 5EB36A76
P 1050 7150
F 0 "#PWR098" H 1050 6900 50  0001 C CNN
F 1 "GND" V 1055 7022 50  0000 R CNN
F 2 "" H 1050 7150 50  0001 C CNN
F 3 "" H 1050 7150 50  0001 C CNN
	1    1050 7150
	0    1    1    0   
$EndComp
Wire Wire Line
	1050 7150 1050 7050
Wire Wire Line
	1050 7050 1300 7050
Wire Wire Line
	1050 7150 1050 7250
Wire Wire Line
	1050 7250 1300 7250
Connection ~ 1050 7150
Text Label 4050 4400 0    50   ~ 0
boot_sel0
Text Label 4050 4500 0    50   ~ 0
boot_sel1
Text Label 1800 7050 1    50   ~ 0
boot_sel0
Text Label 1800 7250 3    50   ~ 0
boot_sel1
$Comp
L power:+3V3 #PWR0100
U 1 1 5EC5954C
P 3500 7150
F 0 "#PWR0100" H 3500 7000 50  0001 C CNN
F 1 "+3V3" V 3500 7400 50  0000 C CNN
F 2 "" H 3500 7150 50  0001 C CNN
F 3 "" H 3500 7150 50  0001 C CNN
	1    3500 7150
	0    1    1    0   
$EndComp
Wire Wire Line
	2050 7050 2050 7100
Wire Wire Line
	1600 7050 2050 7050
Wire Wire Line
	2050 7250 2050 7200
Wire Wire Line
	1600 7250 2050 7250
$Comp
L Connector_Generic:Conn_02x02_Odd_Even J4
U 1 1 5ED4C7E3
P 2250 7100
F 0 "J4" H 2300 7317 50  0000 C CNN
F 1 "boot select jumpers" H 2300 7226 50  0000 C CNN
F 2 "Connector_PinHeader_2.54mm:PinHeader_2x02_P2.54mm_Vertical" H 2250 7100 50  0001 C CNN
F 3 "~" H 2250 7100 50  0001 C CNN
	1    2250 7100
	1    0    0    -1  
$EndComp
$Comp
L Device:R R51
U 1 1 5ED6CC82
P 2850 7100
F 0 "R51" V 2750 7050 50  0000 L CNN
F 1 "1k" V 2850 7050 50  0000 L CNN
F 2 "Resistor_SMD:R_0402_1005Metric" V 2780 7100 50  0001 C CNN
F 3 "~" H 2850 7100 50  0001 C CNN
	1    2850 7100
	0    -1   -1   0   
$EndComp
$Comp
L Device:R R52
U 1 1 5ED6CD62
P 3150 7200
F 0 "R52" V 3050 7150 50  0000 L CNN
F 1 "1k" V 3150 7150 50  0000 L CNN
F 2 "Resistor_SMD:R_0402_1005Metric" V 3080 7200 50  0001 C CNN
F 3 "~" H 3150 7200 50  0001 C CNN
	1    3150 7200
	0    -1   -1   0   
$EndComp
Wire Wire Line
	2550 7100 2700 7100
Wire Wire Line
	2550 7200 3000 7200
Wire Wire Line
	3000 7100 3500 7100
Wire Wire Line
	3500 7100 3500 7150
Wire Wire Line
	3500 7150 3500 7200
Wire Wire Line
	3500 7200 3300 7200
Connection ~ 3500 7150
NoConn ~ 4550 3600
$Comp
L Device:R R53
U 1 1 5E7874BD
P 3950 1750
F 0 "R53" H 4020 1796 50  0000 L CNN
F 1 "10k" V 3950 1650 50  0000 L CNN
F 2 "Resistor_SMD:R_0402_1005Metric" V 3880 1750 50  0001 C CNN
F 3 "~" H 3950 1750 50  0001 C CNN
F 4 "set usb otg to host mode always" V 3750 1850 50  0000 C CNN "note"
	1    3950 1750
	1    0    0    -1  
$EndComp
Wire Wire Line
	4550 2000 3950 2000
Wire Wire Line
	3950 2000 3950 1900
$Comp
L power:+3V3 #PWR0103
U 1 1 5E7970B8
P 3950 1500
F 0 "#PWR0103" H 3950 1350 50  0001 C CNN
F 1 "+3V3" H 3965 1673 50  0000 C CNN
F 2 "" H 3950 1500 50  0001 C CNN
F 3 "" H 3950 1500 50  0001 C CNN
	1    3950 1500
	1    0    0    -1  
$EndComp
Wire Wire Line
	3950 1500 3950 1600
Text Notes 2800 7000 0    50   ~ 10
TODO: why are these resistors needed?
NoConn ~ 4550 1800
NoConn ~ 4550 1900
NoConn ~ 4550 2100
NoConn ~ 4550 2200
NoConn ~ 4550 2300
NoConn ~ 4550 2400
NoConn ~ 4550 2500
NoConn ~ 5000 1900
$Comp
L Device:R R54
U 1 1 5EA266F4
P 3950 2800
F 0 "R54" H 4020 2846 50  0000 L CNN
F 1 "10k" V 3950 2700 50  0000 L CNN
F 2 "Resistor_SMD:R_0402_1005Metric" V 3880 2800 50  0001 C CNN
F 3 "~" H 3950 2800 50  0001 C CNN
F 4 "enable sd card write" V 3800 2600 50  0000 C CNN "note"
	1    3950 2800
	1    0    0    -1  
$EndComp
$Comp
L power:GND #PWR0104
U 1 1 5EA2677F
P 3950 3150
F 0 "#PWR0104" H 3950 2900 50  0001 C CNN
F 1 "GND" H 3955 2977 50  0000 C CNN
F 2 "" H 3950 3150 50  0001 C CNN
F 3 "" H 3950 3150 50  0001 C CNN
	1    3950 3150
	1    0    0    -1  
$EndComp
Wire Wire Line
	3950 3150 3950 2950
Wire Wire Line
	3950 2650 3950 2600
Wire Wire Line
	3950 2600 4550 2600
NoConn ~ 4550 2700
NoConn ~ 4550 2800
NoConn ~ 4550 2900
NoConn ~ 4550 3000
NoConn ~ 4550 3100
NoConn ~ 4550 3200
NoConn ~ 4550 3300
NoConn ~ 4550 3400
NoConn ~ 4550 3500
NoConn ~ 4550 3700
NoConn ~ 4550 3800
Wire Wire Line
	2150 4300 2900 4300
Text Notes 2400 4450 0    50   ~ 0
CPU reset input is 3.3v tolerant
$EndSCHEMATC
