EESchema Schematic File Version 4
LIBS:mainboard-cache
EELAYER 26 0
EELAYER END
$Descr A4 11693 8268
encoding utf-8
Sheet 4 13
Title ""
Date ""
Rev ""
Comp ""
Comment1 ""
Comment2 ""
Comment3 ""
Comment4 ""
$EndDescr
Text Notes 7250 6950 0    157  ~ 31
cpu unit e
$Comp
L cpu_ingenic:jz4780 U1
U 5 1 5E6B51F2
P 5800 3350
F 0 "U1" H 5800 5625 50  0000 C CNN
F 1 "jz4780" H 5800 5534 50  0000 C CNN
F 2 "ingenic:jz4780" H 4850 4700 50  0001 C CNN
F 3 "ftp://ftp.ingenic.com/SOC/JZ4780/JZ4780_DS.PDF" H 5950 5650 50  0001 C CNN
	5    5800 3350
	1    0    0    -1  
$EndComp
Text GLabel 7400 2700 2    50   Output ~ 0
hdmi_tx0p
Wire Wire Line
	7400 2700 7150 2700
Text GLabel 7400 2800 2    50   Output ~ 0
hdmi_tx0n
Wire Wire Line
	7400 2800 7150 2800
Text GLabel 7400 2900 2    50   Output ~ 0
hdmi_tx1p
Text GLabel 7400 3000 2    50   Output ~ 0
hdmi_tx1n
Text GLabel 7400 3100 2    50   Output ~ 0
hdmi_tx2p
Text GLabel 7400 3200 2    50   Output ~ 0
hdmi_tx2n
Wire Wire Line
	7400 3200 7150 3200
Wire Wire Line
	7150 3100 7400 3100
Wire Wire Line
	7400 3000 7150 3000
Wire Wire Line
	7150 2900 7400 2900
Text GLabel 7400 3300 2    50   Output ~ 0
hdmi_clkp
Text GLabel 7400 3400 2    50   Output ~ 0
hdmi_clkn
Wire Wire Line
	7400 3400 7150 3400
Wire Wire Line
	7150 3300 7400 3300
Text GLabel 7400 3500 2    50   Output ~ 0
hdmi_cec
Wire Wire Line
	7150 3600 7400 3600
Wire Wire Line
	7400 3700 7150 3700
Text GLabel 7400 3600 2    50   BiDi ~ 0
hdmi_scl
Text GLabel 7400 3700 2    50   BiDi ~ 0
hdmi_sda
Wire Wire Line
	7400 3900 7150 3900
Wire Wire Line
	7400 3500 7150 3500
Text GLabel 7400 3900 2    50   Output ~ 0
hdmi_ddccec
Wire Wire Line
	7150 3800 7400 3800
Text GLabel 7400 3800 2    50   Input ~ 0
hdmi_hpd
$Comp
L Device:R R33
U 1 1 5E64D8CC
P 7600 4000
F 0 "R33" V 7650 4200 50  0000 C CNN
F 1 "1k6" V 7600 4000 50  0000 C CNN
F 2 "Resistor_SMD:R_0402_1005Metric" V 7530 4000 50  0001 C CNN
F 3 "~" H 7600 4000 50  0001 C CNN
	1    7600 4000
	0    1    1    0   
$EndComp
Wire Wire Line
	7450 4000 7150 4000
$Comp
L power:GND #PWR067
U 1 1 5E64DAEE
P 7950 4000
F 0 "#PWR067" H 7950 3750 50  0001 C CNN
F 1 "GND" V 7955 3872 50  0000 R CNN
F 2 "" H 7950 4000 50  0001 C CNN
F 3 "" H 7950 4000 50  0001 C CNN
	1    7950 4000
	0    -1   -1   0   
$EndComp
Wire Wire Line
	7950 4000 7750 4000
$Comp
L power:GND #PWR062
U 1 1 5E64F19B
P 7300 4300
F 0 "#PWR062" H 7300 4050 50  0001 C CNN
F 1 "GND" V 7305 4172 50  0000 R CNN
F 2 "" H 7300 4300 50  0001 C CNN
F 3 "" H 7300 4300 50  0001 C CNN
	1    7300 4300
	0    -1   -1   0   
$EndComp
Wire Wire Line
	7300 4300 7150 4300
Wire Wire Line
	7150 4200 7700 4200
$Comp
L power:+2V5 #PWR068
U 1 1 5E64F586
P 8050 4100
F 0 "#PWR068" H 8050 3950 50  0001 C CNN
F 1 "+2V5" V 8065 4228 50  0000 L CNN
F 2 "" H 8050 4100 50  0001 C CNN
F 3 "" H 8050 4100 50  0001 C CNN
	1    8050 4100
	0    1    1    0   
$EndComp
Wire Wire Line
	7150 4100 8050 4100
Text GLabel 7700 4200 2    50   BiDi ~ 0
vdd_core
Text Notes 7850 2800 0    50   ~ 0
diff
Text Notes 7850 3000 0    50   ~ 0
diff
Text Notes 7850 3200 0    50   ~ 0
diff
Text Notes 7850 3400 0    50   ~ 0
diff
$Comp
L Device:Crystal_GND24 Y1
U 1 1 5E6D018D
P 3200 4950
F 0 "Y1" V 3050 5000 50  0000 L CNN
F 1 "48MHz 10ppm" V 3350 5000 50  0000 L CNN
F 2 "Oscillator:Oscillator_SMD_EuroQuartz_XO32-4Pin_3.2x2.5mm" H 3200 4950 50  0001 C CNN
F 3 "~" H 3200 4950 50  0001 C CNN
F 4 "X322548MSB4SI" V 3450 5300 50  0000 C CNN "part"
	1    3200 4950
	0    1    1    0   
$EndComp
$Comp
L Device:R R32
U 1 1 5E6D0388
P 3900 4950
F 0 "R32" V 4000 4900 50  0000 L CNN
F 1 "1M" V 3900 4850 50  0000 L CNN
F 2 "Resistor_SMD:R_0402_1005Metric" V 3830 4950 50  0001 C CNN
F 3 "~" H 3900 4950 50  0001 C CNN
	1    3900 4950
	1    0    0    -1  
$EndComp
$Comp
L Device:C C63
U 1 1 5E6D0509
P 2900 4650
F 0 "C63" V 2648 4650 50  0000 C CNN
F 1 "12pF" V 2739 4650 50  0000 C CNN
F 2 "Capacitor_SMD:C_0402_1005Metric" H 2938 4500 50  0001 C CNN
F 3 "~" H 2900 4650 50  0001 C CNN
	1    2900 4650
	0    1    1    0   
$EndComp
$Comp
L Device:C C64
U 1 1 5E6D054E
P 2900 5250
F 0 "C64" V 2648 5250 50  0000 C CNN
F 1 "12pF" V 2739 5250 50  0000 C CNN
F 2 "Capacitor_SMD:C_0402_1005Metric" H 2938 5100 50  0001 C CNN
F 3 "~" H 2900 5250 50  0001 C CNN
	1    2900 5250
	0    1    1    0   
$EndComp
$Comp
L power:GND #PWR044
U 1 1 5E6D05B4
P 2600 4950
F 0 "#PWR044" H 2600 4700 50  0001 C CNN
F 1 "GND" V 2605 4822 50  0000 R CNN
F 2 "" H 2600 4950 50  0001 C CNN
F 3 "" H 2600 4950 50  0001 C CNN
	1    2600 4950
	0    1    1    0   
$EndComp
$Comp
L power:GND #PWR048
U 1 1 5E6D05D8
P 3400 4950
F 0 "#PWR048" H 3400 4700 50  0001 C CNN
F 1 "GND" H 3500 4800 50  0000 R CNN
F 2 "" H 3400 4950 50  0001 C CNN
F 3 "" H 3400 4950 50  0001 C CNN
	1    3400 4950
	0    -1   -1   0   
$EndComp
Wire Wire Line
	2750 4650 2600 4650
Wire Wire Line
	2600 4650 2600 4950
Wire Wire Line
	2600 5250 2750 5250
Connection ~ 2600 4950
Wire Wire Line
	2600 4950 2600 5250
Wire Wire Line
	3000 4950 2600 4950
Wire Wire Line
	3050 4650 3200 4650
Wire Wire Line
	4100 4650 4100 4800
Wire Wire Line
	4100 4800 4450 4800
Wire Wire Line
	4450 4900 4100 4900
Wire Wire Line
	4100 4900 4100 5250
Wire Wire Line
	4100 5250 3900 5250
Wire Wire Line
	3200 5100 3200 5250
Connection ~ 3200 5250
Wire Wire Line
	3200 5250 3050 5250
Wire Wire Line
	3200 4800 3200 4650
Connection ~ 3200 4650
Wire Wire Line
	3200 4650 3900 4650
Wire Wire Line
	3900 4800 3900 4650
Connection ~ 3900 4650
Wire Wire Line
	3900 4650 4100 4650
Wire Wire Line
	3900 5100 3900 5250
Connection ~ 3900 5250
Wire Wire Line
	3900 5250 3200 5250
$Comp
L power:GND #PWR057
U 1 1 5E6D7CCB
P 4450 5800
F 0 "#PWR057" H 4450 5550 50  0001 C CNN
F 1 "GND" H 4550 5650 50  0000 R CNN
F 2 "" H 4450 5800 50  0001 C CNN
F 3 "" H 4450 5800 50  0001 C CNN
	1    4450 5800
	1    0    0    -1  
$EndComp
Wire Wire Line
	4450 5800 4450 5750
Wire Wire Line
	4450 5000 4300 5000
Wire Wire Line
	4300 5000 4300 5450
Wire Wire Line
	4300 5450 3800 5450
$Comp
L Device:C C67
U 1 1 5E6DB792
P 3800 5600
F 0 "C67" H 3685 5554 50  0000 R CNN
F 1 "10uF" H 3685 5645 50  0000 R CNN
F 2 "Capacitor_SMD:C_0402_1005Metric" H 3838 5450 50  0001 C CNN
F 3 "~" H 3800 5600 50  0001 C CNN
	1    3800 5600
	-1   0    0    1   
$EndComp
Wire Wire Line
	3800 5750 4450 5750
Connection ~ 4450 5750
Wire Wire Line
	4450 5750 4450 5100
Wire Wire Line
	3800 5450 3600 5450
Connection ~ 3800 5450
Text GLabel 3600 5450 0    50   Output ~ 0
vdd_core
$Comp
L Device:R R31
U 1 1 5E6E13D3
P 3700 4500
F 0 "R31" V 3800 4450 50  0000 L CNN
F 1 "10k" V 3700 4400 50  0000 L CNN
F 2 "Resistor_SMD:R_0402_1005Metric" V 3630 4500 50  0001 C CNN
F 3 "~" H 3700 4500 50  0001 C CNN
	1    3700 4500
	0    1    1    0   
$EndComp
Wire Wire Line
	3850 4500 4200 4500
Wire Wire Line
	4200 4500 4200 4700
Wire Wire Line
	4200 4700 4450 4700
$Comp
L power:GND #PWR047
U 1 1 5E6E207B
P 3400 4500
F 0 "#PWR047" H 3400 4250 50  0001 C CNN
F 1 "GND" V 3405 4372 50  0000 R CNN
F 2 "" H 3400 4500 50  0001 C CNN
F 3 "" H 3400 4500 50  0001 C CNN
	1    3400 4500
	0    1    1    0   
$EndComp
Wire Wire Line
	4450 3300 4150 3300
Wire Wire Line
	4450 3400 4150 3400
Wire Wire Line
	4450 2800 4150 2800
Wire Wire Line
	4450 2900 4150 2900
Text GLabel 4150 2800 0    50   Input ~ 0
otg_dp
Text GLabel 4150 2900 0    50   Input ~ 0
otg_dm
Text GLabel 4150 3300 0    50   Input ~ 0
usb_dp
Text GLabel 4150 3400 0    50   Input ~ 0
usb_dm
Wire Wire Line
	7150 5000 9900 5000
Text GLabel 10600 5000 2    50   Input ~ 0
reset_n
NoConn ~ 4450 1300
NoConn ~ 4450 1400
NoConn ~ 4450 1500
NoConn ~ 4450 1600
NoConn ~ 4450 1700
NoConn ~ 4450 1800
NoConn ~ 4450 1900
NoConn ~ 4450 2000
NoConn ~ 4450 2100
NoConn ~ 4450 2300
NoConn ~ 4450 2200
NoConn ~ 4450 2400
Wire Wire Line
	4450 2500 3550 2500
Wire Wire Line
	3550 2500 3550 2150
$Comp
L power:+3V3 #PWR050
U 1 1 5EB1DB28
P 3550 2150
F 0 "#PWR050" H 3550 2000 50  0001 C CNN
F 1 "+3V3" H 3565 2323 50  0000 C CNN
F 2 "" H 3550 2150 50  0001 C CNN
F 3 "" H 3550 2150 50  0001 C CNN
	1    3550 2150
	1    0    0    -1  
$EndComp
$Comp
L Device:C C65
U 1 1 5EB1DB7F
P 3200 2300
F 0 "C65" H 3085 2254 50  0000 R CNN
F 1 "0.1uF" H 3150 2400 50  0000 R CNN
F 2 "Capacitor_SMD:C_0402_1005Metric" H 3238 2150 50  0001 C CNN
F 3 "~" H 3200 2300 50  0001 C CNN
	1    3200 2300
	-1   0    0    1   
$EndComp
$Comp
L power:GND #PWR045
U 1 1 5EB1DC0F
P 3200 2000
F 0 "#PWR045" H 3200 1750 50  0001 C CNN
F 1 "GND" V 3205 1872 50  0000 R CNN
F 2 "" H 3200 2000 50  0001 C CNN
F 3 "" H 3200 2000 50  0001 C CNN
	1    3200 2000
	-1   0    0    1   
$EndComp
Wire Wire Line
	3200 2000 3200 2150
Wire Wire Line
	3200 2450 3200 2500
Wire Wire Line
	3200 2500 3550 2500
Connection ~ 3550 2500
$Comp
L power:GND #PWR046
U 1 1 5EB215A2
P 3200 2800
F 0 "#PWR046" H 3200 2550 50  0001 C CNN
F 1 "GND" V 3205 2672 50  0000 R CNN
F 2 "" H 3200 2800 50  0001 C CNN
F 3 "" H 3200 2800 50  0001 C CNN
	1    3200 2800
	1    0    0    -1  
$EndComp
Wire Wire Line
	3200 2800 3200 2600
Wire Wire Line
	3200 2600 4300 2600
Wire Wire Line
	4450 2700 4300 2700
Wire Wire Line
	4300 2700 4300 2600
Connection ~ 4300 2600
Wire Wire Line
	4300 2600 4450 2600
$Comp
L power:+5V #PWR053
U 1 1 5EB253AC
P 3600 3000
F 0 "#PWR053" H 3600 2850 50  0001 C CNN
F 1 "+5V" V 3615 3128 50  0000 L CNN
F 2 "" H 3600 3000 50  0001 C CNN
F 3 "" H 3600 3000 50  0001 C CNN
	1    3600 3000
	0    -1   -1   0   
$EndComp
Wire Wire Line
	3600 3000 4450 3000
$Comp
L power:+3V3 #PWR042
U 1 1 5EB2ADBA
P 1950 3100
F 0 "#PWR042" H 1950 2950 50  0001 C CNN
F 1 "+3V3" V 1965 3228 50  0000 L CNN
F 2 "" H 1950 3100 50  0001 C CNN
F 3 "" H 1950 3100 50  0001 C CNN
	1    1950 3100
	0    -1   -1   0   
$EndComp
Wire Wire Line
	2350 3100 4450 3100
$Comp
L Device:R R29
U 1 1 5EB2DAE1
P 2200 3100
F 0 "R29" V 2150 3250 50  0000 L CNN
F 1 "10k" V 2200 3000 50  0000 L CNN
F 2 "Resistor_SMD:R_0402_1005Metric" V 2130 3100 50  0001 C CNN
F 3 "~" H 2200 3100 50  0001 C CNN
	1    2200 3100
	0    1    1    0   
$EndComp
Wire Wire Line
	1950 3100 2050 3100
Text Notes 1050 2950 0    50   ~ 0
otg/host usb is in host mode always
$Comp
L Device:R R30
U 1 1 5EB40A69
P 3000 3200
F 0 "R30" V 2950 3350 50  0000 L CNN
F 1 "44.2" V 3000 3100 50  0000 L CNN
F 2 "Resistor_SMD:R_0402_1005Metric" V 2930 3200 50  0001 C CNN
F 3 "~" H 3000 3200 50  0001 C CNN
F 4 "1 %" V 3050 3400 50  0000 C CNN "tolerance"
	1    3000 3200
	0    1    1    0   
$EndComp
Wire Wire Line
	3150 3200 4450 3200
$Comp
L power:GND #PWR043
U 1 1 5EB42412
P 2600 3200
F 0 "#PWR043" H 2600 2950 50  0001 C CNN
F 1 "GND" V 2605 3072 50  0000 R CNN
F 2 "" H 2600 3200 50  0001 C CNN
F 3 "" H 2600 3200 50  0001 C CNN
	1    2600 3200
	0    1    1    0   
$EndComp
Wire Wire Line
	2600 3200 2850 3200
$Comp
L power:+3V3 #PWR051
U 1 1 5EB46FDF
P 3550 3500
F 0 "#PWR051" H 3550 3350 50  0001 C CNN
F 1 "+3V3" V 3565 3628 50  0000 L CNN
F 2 "" H 3550 3500 50  0001 C CNN
F 3 "" H 3550 3500 50  0001 C CNN
	1    3550 3500
	0    -1   -1   0   
$EndComp
Wire Wire Line
	3550 3500 4450 3500
$Comp
L power:+2V5 #PWR052
U 1 1 5EB48C2A
P 3550 3600
F 0 "#PWR052" H 3550 3450 50  0001 C CNN
F 1 "+2V5" V 3565 3728 50  0000 L CNN
F 2 "" H 3550 3600 50  0001 C CNN
F 3 "" H 3550 3600 50  0001 C CNN
	1    3550 3600
	0    -1   -1   0   
$EndComp
Wire Wire Line
	3550 3600 4450 3600
$Comp
L power:GND #PWR055
U 1 1 5EB4C070
P 4050 3700
F 0 "#PWR055" H 4050 3450 50  0001 C CNN
F 1 "GND" V 4055 3572 50  0000 R CNN
F 2 "" H 4050 3700 50  0001 C CNN
F 3 "" H 4050 3700 50  0001 C CNN
	1    4050 3700
	0    1    1    0   
$EndComp
Wire Wire Line
	4050 3700 4450 3700
NoConn ~ 4450 3800
NoConn ~ 4450 3900
NoConn ~ 4450 4000
NoConn ~ 4450 4100
NoConn ~ 4450 4200
NoConn ~ 4450 4300
NoConn ~ 4450 4400
Wire Wire Line
	3550 4500 3400 4500
$Comp
L power:+3V3 #PWR054
U 1 1 5EB74129
P 3700 4250
F 0 "#PWR054" H 3700 4100 50  0001 C CNN
F 1 "+3V3" V 3715 4378 50  0000 L CNN
F 2 "" H 3700 4250 50  0001 C CNN
F 3 "" H 3700 4250 50  0001 C CNN
	1    3700 4250
	0    -1   -1   0   
$EndComp
Wire Wire Line
	3700 4250 4100 4250
Wire Wire Line
	4350 4250 4350 4500
Wire Wire Line
	4350 4500 4450 4500
$Comp
L Device:C C66
U 1 1 5EB76245
P 3750 4050
F 0 "C66" V 3800 4000 50  0000 R CNN
F 1 "0.1uF" V 3700 4000 50  0000 R CNN
F 2 "Capacitor_SMD:C_0402_1005Metric" H 3788 3900 50  0001 C CNN
F 3 "~" H 3750 4050 50  0001 C CNN
	1    3750 4050
	0    -1   -1   0   
$EndComp
$Comp
L power:GND #PWR049
U 1 1 5EB784E6
P 3450 4050
F 0 "#PWR049" H 3450 3800 50  0001 C CNN
F 1 "GND" V 3455 3922 50  0000 R CNN
F 2 "" H 3450 4050 50  0001 C CNN
F 3 "" H 3450 4050 50  0001 C CNN
	1    3450 4050
	0    1    1    0   
$EndComp
Wire Wire Line
	3450 4050 3600 4050
Wire Wire Line
	3900 4050 4100 4050
Wire Wire Line
	4100 4050 4100 4250
Connection ~ 4100 4250
Wire Wire Line
	4100 4250 4350 4250
$Comp
L power:GND #PWR056
U 1 1 5EB7CA92
P 4100 4350
F 0 "#PWR056" H 4100 4100 50  0001 C CNN
F 1 "GND" V 4105 4222 50  0000 R CNN
F 2 "" H 4100 4350 50  0001 C CNN
F 3 "" H 4100 4350 50  0001 C CNN
	1    4100 4350
	0    1    1    0   
$EndComp
Wire Wire Line
	4100 4350 4250 4350
Wire Wire Line
	4250 4350 4250 4600
Wire Wire Line
	4250 4600 4450 4600
NoConn ~ 7150 1300
NoConn ~ 7150 1400
NoConn ~ 7150 1500
NoConn ~ 7150 1600
NoConn ~ 7150 1700
NoConn ~ 7150 2000
NoConn ~ 7150 1800
NoConn ~ 7150 1900
NoConn ~ 7150 2100
NoConn ~ 7150 2200
$Comp
L power:+3V3 #PWR064
U 1 1 5EB98CFE
P 7600 2200
F 0 "#PWR064" H 7600 2050 50  0001 C CNN
F 1 "+3V3" H 7615 2373 50  0000 C CNN
F 2 "" H 7600 2200 50  0001 C CNN
F 3 "" H 7600 2200 50  0001 C CNN
	1    7600 2200
	1    0    0    -1  
$EndComp
Wire Wire Line
	7150 2300 7300 2300
Wire Wire Line
	7600 2300 7600 2200
$Comp
L power:GND #PWR066
U 1 1 5EB9B584
P 7850 2300
F 0 "#PWR066" H 7850 2050 50  0001 C CNN
F 1 "GND" V 7855 2172 50  0000 R CNN
F 2 "" H 7850 2300 50  0001 C CNN
F 3 "" H 7850 2300 50  0001 C CNN
	1    7850 2300
	-1   0    0    1   
$EndComp
Wire Wire Line
	7150 2400 7500 2400
Wire Wire Line
	7850 2400 7850 2300
Wire Wire Line
	7150 2500 7300 2500
Wire Wire Line
	7300 2500 7300 2300
Connection ~ 7300 2300
Wire Wire Line
	7300 2300 7600 2300
Wire Wire Line
	7150 2600 7500 2600
Wire Wire Line
	7500 2600 7500 2400
Connection ~ 7500 2400
Wire Wire Line
	7500 2400 7850 2400
NoConn ~ 7150 4700
$Comp
L power:+3V3 #PWR070
U 1 1 5EBB2029
P 8300 4900
F 0 "#PWR070" H 8300 4750 50  0001 C CNN
F 1 "+3V3" V 8315 5028 50  0000 L CNN
F 2 "" H 8300 4900 50  0001 C CNN
F 3 "" H 8300 4900 50  0001 C CNN
	1    8300 4900
	0    1    1    0   
$EndComp
$Comp
L Device:R R34
U 1 1 5EBB2058
P 7900 4900
F 0 "R34" V 7850 5050 50  0000 L CNN
F 1 "10k" V 7900 4800 50  0000 L CNN
F 2 "Resistor_SMD:R_0402_1005Metric" V 7830 4900 50  0001 C CNN
F 3 "~" H 7900 4900 50  0001 C CNN
	1    7900 4900
	0    1    1    0   
$EndComp
Wire Wire Line
	7750 4900 7150 4900
Wire Wire Line
	8300 4900 8050 4900
NoConn ~ 7150 5100
$Comp
L Device:R R36
U 1 1 5E76F166
P 9600 4200
F 0 "R36" V 9700 4150 50  0000 L CNN
F 1 "10k" V 9600 4100 50  0000 L CNN
F 2 "Resistor_SMD:R_0402_1005Metric" V 9530 4200 50  0001 C CNN
F 3 "~" H 9600 4200 50  0001 C CNN
	1    9600 4200
	-1   0    0    1   
$EndComp
Wire Wire Line
	7150 4800 9600 4800
Wire Wire Line
	9600 4800 9600 4350
Text GLabel 9600 3900 1    50   Input ~ 0
vddrtc18
Wire Wire Line
	9600 3900 9600 4050
Text GLabel 7400 5200 2    50   Input ~ 0
vddrtc18
Wire Wire Line
	7400 5200 7150 5200
Text GLabel 7400 5300 2    50   Input ~ 0
vddrtc11
Wire Wire Line
	7400 5300 7150 5300
Text GLabel 9900 4100 1    50   Input ~ 0
vddrtc18
$Comp
L Device:R R37
U 1 1 5E786005
P 9900 4550
F 0 "R37" V 10000 4500 50  0000 L CNN
F 1 "200k" V 9900 4450 50  0000 L CNN
F 2 "Resistor_SMD:R_0402_1005Metric" V 9830 4550 50  0001 C CNN
F 3 "~" H 9900 4550 50  0001 C CNN
	1    9900 4550
	-1   0    0    1   
$EndComp
Wire Wire Line
	9900 4700 9900 5000
Connection ~ 9900 5000
Wire Wire Line
	9900 5000 10250 5000
Wire Wire Line
	9900 4400 9900 4100
$Comp
L Device:C C74
U 1 1 5E78DD97
P 9900 5400
F 0 "C74" V 9950 5350 50  0000 R CNN
F 1 "1uF" V 9850 5350 50  0000 R CNN
F 2 "Capacitor_SMD:C_0402_1005Metric" H 9938 5250 50  0001 C CNN
F 3 "~" H 9900 5400 50  0001 C CNN
	1    9900 5400
	1    0    0    -1  
$EndComp
Wire Wire Line
	9900 5250 9900 5000
$Comp
L power:GND #PWR074
U 1 1 5E79128D
P 9900 6000
F 0 "#PWR074" H 9900 5750 50  0001 C CNN
F 1 "GND" V 9905 5872 50  0000 R CNN
F 2 "" H 9900 6000 50  0001 C CNN
F 3 "" H 9900 6000 50  0001 C CNN
	1    9900 6000
	1    0    0    -1  
$EndComp
Wire Wire Line
	9900 6000 9900 5550
$Comp
L power:GND #PWR075
U 1 1 5E7AE270
P 10250 6000
F 0 "#PWR075" H 10250 5750 50  0001 C CNN
F 1 "GND" V 10255 5872 50  0000 R CNN
F 2 "" H 10250 6000 50  0001 C CNN
F 3 "" H 10250 6000 50  0001 C CNN
	1    10250 6000
	1    0    0    -1  
$EndComp
$Comp
L Switch:SW_Push SW1
U 1 1 5E7AE4AE
P 10250 5550
F 0 "SW1" V 10204 5698 50  0000 L CNN
F 1 "reset_button" V 10295 5698 50  0000 L CNN
F 2 "button_switch_smd:3x4mm_micro_button" H 10250 5750 50  0001 C CNN
F 3 "" H 10250 5750 50  0001 C CNN
	1    10250 5550
	0    1    1    0   
$EndComp
Wire Wire Line
	10250 5750 10250 6000
Wire Wire Line
	10250 5350 10250 5000
Connection ~ 10250 5000
Wire Wire Line
	10250 5000 10600 5000
$Comp
L Device:Crystal Y2
U 1 1 5E7D135B
P 8900 3800
F 0 "Y2" H 8900 4068 50  0000 C CNN
F 1 "32768Hz" H 8900 3977 50  0000 C CNN
F 2 "Crystal:Crystal_SMD_3215-2Pin_3.2x1.5mm" H 8900 3800 50  0001 C CNN
F 3 "~" H 8900 3800 50  0001 C CNN
	1    8900 3800
	1    0    0    -1  
$EndComp
Wire Wire Line
	7150 4400 8600 4400
Wire Wire Line
	8600 4400 8600 4100
Wire Wire Line
	8600 3800 8750 3800
Wire Wire Line
	7150 4500 9200 4500
Wire Wire Line
	9200 4500 9200 4100
Wire Wire Line
	9200 3800 9050 3800
$Comp
L Device:C C72
U 1 1 5E7D8730
P 8600 3300
F 0 "C72" V 8348 3300 50  0000 C CNN
F 1 "22pF" V 8439 3300 50  0000 C CNN
F 2 "Capacitor_SMD:C_0402_1005Metric" H 8638 3150 50  0001 C CNN
F 3 "~" H 8600 3300 50  0001 C CNN
	1    8600 3300
	-1   0    0    1   
$EndComp
$Comp
L Device:C C73
U 1 1 5E7D881F
P 9200 3300
F 0 "C73" V 8948 3300 50  0000 C CNN
F 1 "22pF" V 9039 3300 50  0000 C CNN
F 2 "Capacitor_SMD:C_0402_1005Metric" H 9238 3150 50  0001 C CNN
F 3 "~" H 9200 3300 50  0001 C CNN
	1    9200 3300
	-1   0    0    1   
$EndComp
Wire Wire Line
	8600 3450 8600 3800
Connection ~ 8600 3800
Wire Wire Line
	9200 3450 9200 3800
Connection ~ 9200 3800
$Comp
L power:GND #PWR072
U 1 1 5E7DFFE3
P 8600 2950
F 0 "#PWR072" H 8600 2700 50  0001 C CNN
F 1 "GND" V 8605 2822 50  0000 R CNN
F 2 "" H 8600 2950 50  0001 C CNN
F 3 "" H 8600 2950 50  0001 C CNN
	1    8600 2950
	-1   0    0    1   
$EndComp
Wire Wire Line
	8600 2950 8600 3150
$Comp
L power:GND #PWR073
U 1 1 5E7E3C99
P 9200 2950
F 0 "#PWR073" H 9200 2700 50  0001 C CNN
F 1 "GND" V 9205 2822 50  0000 R CNN
F 2 "" H 9200 2950 50  0001 C CNN
F 3 "" H 9200 2950 50  0001 C CNN
	1    9200 2950
	-1   0    0    1   
$EndComp
Wire Wire Line
	9200 2950 9200 3150
$Comp
L Device:R R35
U 1 1 5E7E90BC
P 8900 4100
F 0 "R35" V 9000 4050 50  0000 L CNN
F 1 "10M" V 8900 4000 50  0000 L CNN
F 2 "Resistor_SMD:R_0402_1005Metric" V 8830 4100 50  0001 C CNN
F 3 "~" H 8900 4100 50  0001 C CNN
	1    8900 4100
	0    1    1    0   
$EndComp
Wire Wire Line
	8750 4100 8600 4100
Connection ~ 8600 4100
Wire Wire Line
	8600 4100 8600 3800
Wire Wire Line
	9050 4100 9200 4100
Connection ~ 9200 4100
Wire Wire Line
	9200 4100 9200 3800
Wire Wire Line
	7150 4600 7400 4600
Text GLabel 7400 4600 2    50   Input ~ 0
power_on
$Comp
L Regulator_Linear:LF120_TO220 U8
U 1 1 5E7F7EB1
P 5900 5750
F 0 "U8" H 5900 5992 50  0000 C CNN
F 1 "XC6206P182MR" H 5900 5901 50  0000 C CNN
F 2 "Package_TO_SOT_SMD:SOT-23" H 5900 5975 50  0001 C CIN
F 3 "http://www.st.com/content/ccc/resource/technical/document/datasheet/c4/0e/7e/2a/be/bc/4c/bd/CD00000546.pdf/files/CD00000546.pdf/jcr:content/translations/en.CD00000546.pdf" H 5900 5700 50  0001 C CNN
	1    5900 5750
	1    0    0    -1  
$EndComp
$Comp
L power:+5V #PWR058
U 1 1 5E7F803F
P 5350 5750
F 0 "#PWR058" H 5350 5600 50  0001 C CNN
F 1 "+5V" V 5365 5878 50  0000 L CNN
F 2 "" H 5350 5750 50  0001 C CNN
F 3 "" H 5350 5750 50  0001 C CNN
	1    5350 5750
	0    -1   -1   0   
$EndComp
Wire Wire Line
	5350 5750 5450 5750
$Comp
L power:GND #PWR060
U 1 1 5E7FC369
P 5900 6150
F 0 "#PWR060" H 5900 5900 50  0001 C CNN
F 1 "GND" H 6000 6000 50  0000 R CNN
F 2 "" H 5900 6150 50  0001 C CNN
F 3 "" H 5900 6150 50  0001 C CNN
	1    5900 6150
	1    0    0    -1  
$EndComp
Wire Wire Line
	5900 6150 5900 6050
Text GLabel 6450 5750 2    50   Input ~ 0
vddrtc18
Wire Wire Line
	6450 5750 6300 5750
$Comp
L Regulator_Linear:LF120_TO220 U9
U 1 1 5E806379
P 8100 5750
F 0 "U9" H 8100 5992 50  0000 C CNN
F 1 "rt9166-12" H 8100 5901 50  0000 C CNN
F 2 "Package_TO_SOT_SMD:SOT-23" H 8100 5975 50  0001 C CIN
F 3 "http://www.st.com/content/ccc/resource/technical/document/datasheet/c4/0e/7e/2a/be/bc/4c/bd/CD00000546.pdf/files/CD00000546.pdf/jcr:content/translations/en.CD00000546.pdf" H 8100 5700 50  0001 C CNN
	1    8100 5750
	1    0    0    -1  
$EndComp
$Comp
L power:GND #PWR069
U 1 1 5E806401
P 8100 6150
F 0 "#PWR069" H 8100 5900 50  0001 C CNN
F 1 "GND" H 8200 6000 50  0000 R CNN
F 2 "" H 8100 6150 50  0001 C CNN
F 3 "" H 8100 6150 50  0001 C CNN
	1    8100 6150
	1    0    0    -1  
$EndComp
$Comp
L power:+5V #PWR063
U 1 1 5E80643A
P 7500 5750
F 0 "#PWR063" H 7500 5600 50  0001 C CNN
F 1 "+5V" V 7515 5878 50  0000 L CNN
F 2 "" H 7500 5750 50  0001 C CNN
F 3 "" H 7500 5750 50  0001 C CNN
	1    7500 5750
	0    -1   -1   0   
$EndComp
Text GLabel 8650 5750 2    50   Input ~ 0
vddrtc11
Wire Wire Line
	8650 5750 8500 5750
Wire Wire Line
	8100 6050 8100 6150
Wire Wire Line
	7800 5750 7600 5750
$Comp
L Device:C C68
U 1 1 5E8386FB
P 5450 6000
F 0 "C68" H 5335 5954 50  0000 R CNN
F 1 "10uF" H 5335 6045 50  0000 R CNN
F 2 "Capacitor_SMD:C_0402_1005Metric" H 5488 5850 50  0001 C CNN
F 3 "~" H 5450 6000 50  0001 C CNN
	1    5450 6000
	-1   0    0    1   
$EndComp
Wire Wire Line
	5450 5850 5450 5750
Connection ~ 5450 5750
Wire Wire Line
	5450 5750 5600 5750
$Comp
L power:GND #PWR059
U 1 1 5E8419FE
P 5450 6250
F 0 "#PWR059" H 5450 6000 50  0001 C CNN
F 1 "GND" H 5550 6100 50  0000 R CNN
F 2 "" H 5450 6250 50  0001 C CNN
F 3 "" H 5450 6250 50  0001 C CNN
	1    5450 6250
	1    0    0    -1  
$EndComp
Wire Wire Line
	5450 6250 5450 6150
$Comp
L Device:C C70
U 1 1 5E8464D7
P 7600 6000
F 0 "C70" H 7485 5954 50  0000 R CNN
F 1 "10uF" H 7485 6045 50  0000 R CNN
F 2 "Capacitor_SMD:C_0402_1005Metric" H 7638 5850 50  0001 C CNN
F 3 "~" H 7600 6000 50  0001 C CNN
	1    7600 6000
	-1   0    0    1   
$EndComp
Wire Wire Line
	7600 5850 7600 5750
Connection ~ 7600 5750
Wire Wire Line
	7600 5750 7500 5750
$Comp
L power:GND #PWR065
U 1 1 5E84B0A8
P 7600 6250
F 0 "#PWR065" H 7600 6000 50  0001 C CNN
F 1 "GND" H 7700 6100 50  0000 R CNN
F 2 "" H 7600 6250 50  0001 C CNN
F 3 "" H 7600 6250 50  0001 C CNN
	1    7600 6250
	1    0    0    -1  
$EndComp
Wire Wire Line
	7600 6250 7600 6150
$Comp
L Device:C C69
U 1 1 5E84FE1D
P 6300 6000
F 0 "C69" H 6185 5954 50  0000 R CNN
F 1 "10uF" H 6185 6045 50  0000 R CNN
F 2 "Capacitor_SMD:C_0402_1005Metric" H 6338 5850 50  0001 C CNN
F 3 "~" H 6300 6000 50  0001 C CNN
	1    6300 6000
	-1   0    0    1   
$EndComp
Wire Wire Line
	6300 5850 6300 5750
Connection ~ 6300 5750
Wire Wire Line
	6300 5750 6200 5750
$Comp
L power:GND #PWR061
U 1 1 5E854C8D
P 6300 6250
F 0 "#PWR061" H 6300 6000 50  0001 C CNN
F 1 "GND" H 6400 6100 50  0000 R CNN
F 2 "" H 6300 6250 50  0001 C CNN
F 3 "" H 6300 6250 50  0001 C CNN
	1    6300 6250
	1    0    0    -1  
$EndComp
Wire Wire Line
	6300 6250 6300 6150
$Comp
L Device:C C71
U 1 1 5E859D26
P 8500 6050
F 0 "C71" H 8385 6004 50  0000 R CNN
F 1 "10uF" H 8385 6095 50  0000 R CNN
F 2 "Capacitor_SMD:C_0402_1005Metric" H 8538 5900 50  0001 C CNN
F 3 "~" H 8500 6050 50  0001 C CNN
	1    8500 6050
	-1   0    0    1   
$EndComp
Wire Wire Line
	8500 5900 8500 5750
Connection ~ 8500 5750
Wire Wire Line
	8500 5750 8400 5750
$Comp
L power:GND #PWR071
U 1 1 5E85EED7
P 8500 6300
F 0 "#PWR071" H 8500 6050 50  0001 C CNN
F 1 "GND" H 8600 6150 50  0000 R CNN
F 2 "" H 8500 6300 50  0001 C CNN
F 3 "" H 8500 6300 50  0001 C CNN
	1    8500 6300
	1    0    0    -1  
$EndComp
Wire Wire Line
	8500 6300 8500 6200
$EndSCHEMATC
