EESchema Schematic File Version 4
LIBS:mainboard-cache
EELAYER 26 0
EELAYER END
$Descr A4 11693 8268
encoding utf-8
Sheet 10 13
Title ""
Date ""
Rev ""
Comp ""
Comment1 ""
Comment2 ""
Comment3 ""
Comment4 ""
$EndDescr
$Comp
L power:GND #PWR0117
U 1 1 5E75C2FD
P 8050 1400
F 0 "#PWR0117" H 8050 1150 50  0001 C CNN
F 1 "GND" V 8055 1272 50  0000 R CNN
F 2 "" H 8050 1400 50  0001 C CNN
F 3 "" H 8050 1400 50  0001 C CNN
	1    8050 1400
	0    1    1    0   
$EndComp
$Comp
L power:GND #PWR0118
U 1 1 5E75C321
P 8050 4200
F 0 "#PWR0118" H 8050 3950 50  0001 C CNN
F 1 "GND" V 8050 4050 50  0000 R CNN
F 2 "" H 8050 4200 50  0001 C CNN
F 3 "" H 8050 4200 50  0001 C CNN
	1    8050 4200
	0    1    1    0   
$EndComp
$Comp
L Connector:USB_A J6
U 1 1 5E75FA79
P 8050 1950
F 0 "J6" H 7820 1803 50  0000 R CNN
F 1 "USB_A" H 7820 1894 50  0000 R CNN
F 2 "connector_usb:usb_a_vertical_yueqing_jJisheng" H 8200 1900 50  0001 C CNN
F 3 " ~" H 8200 1900 50  0001 C CNN
F 4 "host" H 7820 1985 50  0000 R CNN "designation"
	1    8050 1950
	-1   0    0    1   
$EndComp
Wire Wire Line
	8050 1400 8050 1550
Wire Wire Line
	8150 1400 8150 1550
$Comp
L Connector:USB_A J7
U 1 1 5E75FC41
P 8050 4750
F 0 "J7" H 7820 4603 50  0000 R CNN
F 1 "USB_A" H 7820 4694 50  0000 R CNN
F 2 "connector_usb:usb_a_vertical_yueqing_jJisheng" H 8200 4700 50  0001 C CNN
F 3 " ~" H 8200 4700 50  0001 C CNN
F 4 "otg(host)" H 7820 4785 50  0000 R CNN "designation"
	1    8050 4750
	-1   0    0    1   
$EndComp
Wire Wire Line
	8050 4200 8050 4350
$Comp
L power:Earth_Protective #PWR0120
U 1 1 5E772F18
P 8150 4200
F 0 "#PWR0120" H 8400 3950 50  0001 C CNN
F 1 "Earth_Protective" H 8600 4050 50  0001 C CNN
F 2 "" H 8150 4100 50  0001 C CNN
F 3 "~" H 8150 4100 50  0001 C CNN
	1    8150 4200
	0    -1   -1   0   
$EndComp
Wire Wire Line
	8150 4200 8150 4350
$Comp
L power:Earth_Protective #PWR0119
U 1 1 5E772F5E
P 8150 1400
F 0 "#PWR0119" H 8400 1150 50  0001 C CNN
F 1 "Earth_Protective" H 8600 1250 50  0001 C CNN
F 2 "" H 8150 1300 50  0001 C CNN
F 3 "~" H 8150 1300 50  0001 C CNN
	1    8150 1400
	0    -1   -1   0   
$EndComp
$Comp
L esd_protection:PESDALC10N5VU D7
U 1 1 5E7C8ECC
P 5900 3100
F 0 "D7" H 5650 3500 50  0000 C CNN
F 1 "PESDALC10N5VU" H 6250 3550 50  0000 C CNN
F 2 "package_dfn:dfn-10_2.7x1mm_p0.5mm" H 6200 2650 157 0001 C CNN
F 3 "" H 6200 2650 157 0001 C CNN
F 4 "(SEDFN05V4)" H 6200 3450 50  0000 C CNN "alternative"
	1    5900 3100
	1    0    0    -1  
$EndComp
Wire Wire Line
	7750 1850 7300 1850
Wire Wire Line
	7300 1850 7300 2900
Wire Wire Line
	7300 2900 6700 2900
Wire Wire Line
	6300 3000 6750 3000
Wire Wire Line
	7400 3000 7400 1950
Wire Wire Line
	7400 1950 7750 1950
Wire Wire Line
	6300 3100 6800 3100
Wire Wire Line
	7400 3100 7400 4650
Wire Wire Line
	7400 4650 7750 4650
Wire Wire Line
	7750 4750 7300 4750
Wire Wire Line
	7300 4750 7300 3200
Wire Wire Line
	7300 3200 6850 3200
$Comp
L power:GND #PWR0116
U 1 1 5E7C9185
P 5900 3650
F 0 "#PWR0116" H 5900 3400 50  0001 C CNN
F 1 "GND" V 5905 3522 50  0000 R CNN
F 2 "" H 5900 3650 50  0001 C CNN
F 3 "" H 5900 3650 50  0001 C CNN
	1    5900 3650
	1    0    0    -1  
$EndComp
$Comp
L power:GND #PWR0115
U 1 1 5E7C919F
P 5900 2600
F 0 "#PWR0115" H 5900 2350 50  0001 C CNN
F 1 "GND" V 5905 2472 50  0000 R CNN
F 2 "" H 5900 2600 50  0001 C CNN
F 3 "" H 5900 2600 50  0001 C CNN
	1    5900 2600
	-1   0    0    1   
$EndComp
$Comp
L Device:R R60
U 1 1 5E7CA497
P 4750 3450
F 0 "R60" V 4650 3400 50  0000 L CNN
F 1 "15k" V 4750 3350 50  0000 L CNN
F 2 "Resistor_SMD:R_0402_1005Metric" V 4680 3450 50  0001 C CNN
F 3 "~" H 4750 3450 50  0001 C CNN
F 4 "NC" V 4850 3450 50  0000 C CNN "note"
	1    4750 3450
	1    0    0    -1  
$EndComp
$Comp
L power:GND #PWR0114
U 1 1 5E7CA50F
P 4550 3750
F 0 "#PWR0114" H 4550 3500 50  0001 C CNN
F 1 "GND" V 4555 3622 50  0000 R CNN
F 2 "" H 4550 3750 50  0001 C CNN
F 3 "" H 4550 3750 50  0001 C CNN
	1    4550 3750
	1    0    0    -1  
$EndComp
Wire Wire Line
	2150 2900 3650 2900
Wire Wire Line
	5450 3000 5300 3000
Wire Wire Line
	5450 3100 5250 3100
Wire Wire Line
	5450 3200 5200 3200
$Comp
L Device:R R59
U 1 1 5E7CAD37
P 4400 3450
F 0 "R59" V 4300 3400 50  0000 L CNN
F 1 "15k" V 4400 3350 50  0000 L CNN
F 2 "Resistor_SMD:R_0402_1005Metric" V 4330 3450 50  0001 C CNN
F 3 "~" H 4400 3450 50  0001 C CNN
F 4 "NC" V 4500 3450 50  0000 C CNN "note"
	1    4400 3450
	1    0    0    -1  
$EndComp
$Comp
L Device:R R58
U 1 1 5E7CAD61
P 4050 3450
F 0 "R58" V 3950 3400 50  0000 L CNN
F 1 "15k" V 4050 3350 50  0000 L CNN
F 2 "Resistor_SMD:R_0402_1005Metric" V 3980 3450 50  0001 C CNN
F 3 "~" H 4050 3450 50  0001 C CNN
F 4 "NC" V 4150 3450 50  0000 C CNN "note"
	1    4050 3450
	1    0    0    -1  
$EndComp
$Comp
L Device:R R61
U 1 1 5E7CAD89
P 5100 3450
F 0 "R61" V 5000 3400 50  0000 L CNN
F 1 "15k" V 5100 3350 50  0000 L CNN
F 2 "Resistor_SMD:R_0402_1005Metric" V 5030 3450 50  0001 C CNN
F 3 "~" H 5100 3450 50  0001 C CNN
F 4 "NC" V 5200 3450 50  0000 C CNN "note"
	1    5100 3450
	1    0    0    -1  
$EndComp
Wire Wire Line
	4050 3300 4050 3200
Connection ~ 4050 3200
Wire Wire Line
	4050 3200 2750 3200
Wire Wire Line
	4400 3300 4400 3100
Connection ~ 4400 3100
Wire Wire Line
	4400 3100 3050 3100
Wire Wire Line
	4750 3300 4750 3000
Connection ~ 4750 3000
Wire Wire Line
	4750 3000 3350 3000
Wire Wire Line
	5100 3300 5100 2900
Connection ~ 5100 2900
Wire Wire Line
	5100 2900 5350 2900
$Comp
L Device:C C102
U 1 1 5E7CDACE
P 3650 3450
F 0 "C102" V 3700 3500 50  0000 L CNN
F 1 "47pF" V 3700 3200 50  0000 L CNN
F 2 "Capacitor_SMD:C_0402_1005Metric" H 3688 3300 50  0001 C CNN
F 3 "~" H 3650 3450 50  0001 C CNN
F 4 "NC" V 3550 3550 50  0000 C CNN "note"
	1    3650 3450
	1    0    0    -1  
$EndComp
Wire Wire Line
	4050 3600 4050 3750
Wire Wire Line
	4050 3750 4400 3750
Wire Wire Line
	5100 3750 5100 3600
Wire Wire Line
	4550 3750 4750 3750
Wire Wire Line
	4750 3600 4750 3750
Connection ~ 4750 3750
Wire Wire Line
	4750 3750 5100 3750
Wire Wire Line
	4400 3600 4400 3750
Connection ~ 4400 3750
Wire Wire Line
	4400 3750 4550 3750
Connection ~ 4550 3750
$Comp
L Device:C C101
U 1 1 5E7D2F24
P 3350 3450
F 0 "C101" V 3400 3500 50  0000 L CNN
F 1 "47pF" V 3400 3200 50  0000 L CNN
F 2 "Capacitor_SMD:C_0402_1005Metric" H 3388 3300 50  0001 C CNN
F 3 "~" H 3350 3450 50  0001 C CNN
F 4 "NC" V 3250 3550 50  0000 C CNN "note"
	1    3350 3450
	1    0    0    -1  
$EndComp
$Comp
L Device:C C100
U 1 1 5E7D2F58
P 3050 3450
F 0 "C100" V 3100 3500 50  0000 L CNN
F 1 "47pF" V 3100 3200 50  0000 L CNN
F 2 "Capacitor_SMD:C_0402_1005Metric" H 3088 3300 50  0001 C CNN
F 3 "~" H 3050 3450 50  0001 C CNN
F 4 "NC" V 2950 3550 50  0000 C CNN "note"
	1    3050 3450
	1    0    0    -1  
$EndComp
$Comp
L Device:C C99
U 1 1 5E7D2F8A
P 2750 3450
F 0 "C99" V 2800 3500 50  0000 L CNN
F 1 "47pF" V 2800 3200 50  0000 L CNN
F 2 "Capacitor_SMD:C_0402_1005Metric" H 2788 3300 50  0001 C CNN
F 3 "~" H 2750 3450 50  0001 C CNN
F 4 "NC" V 2650 3550 50  0000 C CNN "note"
	1    2750 3450
	1    0    0    -1  
$EndComp
Wire Wire Line
	2750 3300 2750 3200
Connection ~ 2750 3200
Wire Wire Line
	2750 3200 2150 3200
Wire Wire Line
	3050 3300 3050 3100
Connection ~ 3050 3100
Wire Wire Line
	3050 3100 2150 3100
Wire Wire Line
	3350 3300 3350 3000
Connection ~ 3350 3000
Wire Wire Line
	3350 3000 2150 3000
Wire Wire Line
	3650 3300 3650 2900
Connection ~ 3650 2900
Wire Wire Line
	3650 2900 5100 2900
Wire Wire Line
	2750 3600 2750 3750
Wire Wire Line
	2750 3750 3050 3750
Wire Wire Line
	3650 3750 3650 3600
Wire Wire Line
	3350 3600 3350 3750
Connection ~ 3350 3750
Wire Wire Line
	3350 3750 3650 3750
Wire Wire Line
	3050 3600 3050 3750
Connection ~ 3050 3750
Wire Wire Line
	3050 3750 3200 3750
$Comp
L power:GND #PWR0113
U 1 1 5E7D7267
P 3200 3750
F 0 "#PWR0113" H 3200 3500 50  0001 C CNN
F 1 "GND" V 3205 3622 50  0000 R CNN
F 2 "" H 3200 3750 50  0001 C CNN
F 3 "" H 3200 3750 50  0001 C CNN
	1    3200 3750
	1    0    0    -1  
$EndComp
Connection ~ 3200 3750
Wire Wire Line
	3200 3750 3350 3750
$Comp
L usb:mt9700 U10
U 1 1 5E7DA3C3
P 8950 3150
F 0 "U10" H 8950 3425 50  0000 C CNN
F 1 "mt9700" H 8950 3334 50  0000 C CNN
F 2 "Package_TO_SOT_SMD:SOT-23-5" H 8850 3200 50  0001 C CNN
F 3 "" H 8850 3200 50  0001 C CNN
	1    8950 3150
	1    0    0    -1  
$EndComp
$Comp
L Device:R R63
U 1 1 5E7DA45C
P 9650 3600
F 0 "R63" V 9750 3550 50  0000 L CNN
F 1 "6k8" V 9650 3500 50  0000 L CNN
F 2 "Resistor_SMD:R_0402_1005Metric" V 9580 3600 50  0001 C CNN
F 3 "~" H 9650 3600 50  0001 C CNN
F 4 "1%" V 9700 3800 50  0000 C CNN "tolerance"
	1    9650 3600
	1    0    0    -1  
$EndComp
Wire Wire Line
	9400 3250 9650 3250
Wire Wire Line
	9650 3250 9650 3450
Wire Wire Line
	8950 3500 8950 3900
Wire Wire Line
	8950 3900 9300 3900
Wire Wire Line
	9650 3900 9650 3750
$Comp
L power:GND #PWR0122
U 1 1 5E7DC2B3
P 9300 3900
F 0 "#PWR0122" H 9300 3650 50  0001 C CNN
F 1 "GND" V 9305 3772 50  0000 R CNN
F 2 "" H 9300 3900 50  0001 C CNN
F 3 "" H 9300 3900 50  0001 C CNN
	1    9300 3900
	1    0    0    -1  
$EndComp
Connection ~ 9300 3900
Wire Wire Line
	9300 3900 9650 3900
$Comp
L power:+5V #PWR0121
U 1 1 5E7DC3F6
P 8450 3000
F 0 "#PWR0121" H 8450 2850 50  0001 C CNN
F 1 "+5V" H 8465 3173 50  0000 C CNN
F 2 "" H 8450 3000 50  0001 C CNN
F 3 "" H 8450 3000 50  0001 C CNN
	1    8450 3000
	1    0    0    -1  
$EndComp
Wire Wire Line
	8450 3000 8450 3100
Wire Wire Line
	8450 3100 8500 3100
Wire Wire Line
	10500 3100 10500 5200
Wire Wire Line
	10500 5200 7650 5200
Wire Wire Line
	7650 5200 7650 4950
Wire Wire Line
	7650 4950 7750 4950
Wire Wire Line
	7750 2150 7650 2150
Wire Wire Line
	7650 2150 7650 2650
Wire Wire Line
	8500 3250 8200 3250
$Comp
L Device:C C104
U 1 1 5E7E32C5
P 9950 3550
F 0 "C104" V 9900 3600 50  0000 L CNN
F 1 "10uF" V 10000 3600 50  0000 L CNN
F 2 "Capacitor_SMD:C_0402_1005Metric" H 9988 3400 50  0001 C CNN
F 3 "~" H 9950 3550 50  0001 C CNN
	1    9950 3550
	1    0    0    -1  
$EndComp
Wire Wire Line
	9950 3400 9950 3100
Wire Wire Line
	9650 3900 9950 3900
Wire Wire Line
	9950 3900 9950 3700
Connection ~ 9650 3900
Text Notes 9550 3850 1    50   ~ 0
limit total usb \ncurrent to 1A
$Comp
L Device:C C103
U 1 1 5E7F0C22
P 8450 3550
F 0 "C103" H 8565 3596 50  0000 L CNN
F 1 "1uF" H 8565 3505 50  0000 L CNN
F 2 "Capacitor_SMD:C_0402_1005Metric" H 8488 3400 50  0001 C CNN
F 3 "~" H 8450 3550 50  0001 C CNN
	1    8450 3550
	1    0    0    -1  
$EndComp
Wire Wire Line
	8450 3700 8450 3900
Wire Wire Line
	8450 3900 8950 3900
Connection ~ 8950 3900
Wire Wire Line
	8450 3400 8450 3100
Connection ~ 8450 3100
$Comp
L esd_protection:esd_protection_diode D8
U 1 1 5E805FD1
P 10250 3500
F 0 "D8" H 10200 3400 50  0000 L CNN
F 1 "LESD8D5.0CKT5G" H 9950 3600 50  0000 L CNN
F 2 "diode_smd:SDO-882" V 10275 3500 50  0001 C CNN
F 3 "" V 10275 3500 50  0001 C CNN
	1    10250 3500
	0    1    1    0   
$EndComp
Wire Wire Line
	10250 3200 10250 3100
Wire Wire Line
	10250 3100 9950 3100
Wire Wire Line
	10250 3800 10250 3900
Connection ~ 9950 3900
Wire Wire Line
	9950 3900 10250 3900
Wire Wire Line
	10500 3100 10250 3100
Connection ~ 10250 3100
Wire Wire Line
	10500 2650 10500 3100
Wire Wire Line
	7650 2650 10500 2650
Connection ~ 10500 3100
Wire Wire Line
	9400 3100 9950 3100
Connection ~ 9950 3100
Text GLabel 2150 2900 0    50   Input ~ 0
usb_dm
Text GLabel 2150 3000 0    50   Input ~ 0
usb_dp
Text GLabel 2150 3100 0    50   Input ~ 0
otg_dm
Text GLabel 2150 3200 0    50   Input ~ 0
otg_dp
Text Notes 7300 6850 0    118  ~ 24
usb
$Comp
L power:+3V3 #PWR0143
U 1 1 5E826884
P 8200 3250
F 0 "#PWR0143" H 8200 3100 50  0001 C CNN
F 1 "+3V3" V 8215 3378 50  0000 L CNN
F 2 "" H 8200 3250 50  0001 C CNN
F 3 "" H 8200 3250 50  0001 C CNN
	1    8200 3250
	0    -1   -1   0   
$EndComp
Wire Wire Line
	5350 2900 5350 2200
Wire Wire Line
	5350 2200 6700 2200
Wire Wire Line
	6700 2200 6700 2900
Connection ~ 5350 2900
Wire Wire Line
	5350 2900 5450 2900
Connection ~ 6700 2900
Wire Wire Line
	6700 2900 6300 2900
Wire Wire Line
	5300 3000 5300 2150
Wire Wire Line
	5300 2150 6750 2150
Wire Wire Line
	6750 2150 6750 3000
Connection ~ 6750 3000
Wire Wire Line
	6750 3000 7400 3000
Connection ~ 5300 3000
Wire Wire Line
	5300 3000 4750 3000
Wire Wire Line
	5250 3100 5250 2100
Wire Wire Line
	5250 2100 6800 2100
Wire Wire Line
	6800 2100 6800 3100
Connection ~ 5250 3100
Wire Wire Line
	5250 3100 4400 3100
Connection ~ 6800 3100
Wire Wire Line
	6800 3100 7400 3100
Wire Wire Line
	5200 3200 5200 2050
Wire Wire Line
	5200 2050 6850 2050
Wire Wire Line
	6850 2050 6850 3200
Connection ~ 5200 3200
Wire Wire Line
	5200 3200 4050 3200
Connection ~ 6850 3200
Wire Wire Line
	6850 3200 6300 3200
$EndSCHEMATC
